AWSTATS DATA FILE 7.6 (build 20161204)
# If you remove this file, all statistics for date 201806 will be lost/reset.
# Last config file used to build this data file was /home2/fyfxamvcmvss/tmp/awstats/awstats.ellensplace.freudenbergleisure.com.conf.

# Position (offset in bytes) in this file for beginning of each section for
# direct I/O access. If you made changes somewhere in this file, you should
# also remove completely the MAP section (AWStats will rewrite it at next
# update).
BEGIN_MAP 28
POS_GENERAL 2036                
POS_TIME 2716                
POS_VISITOR 16119               
POS_DAY 51006               
POS_DOMAIN 3616                
POS_LOGIN 3900                
POS_ROBOT 4055                
POS_WORMS 5828                
POS_EMAILSENDER 5959                
POS_EMAILRECEIVER 6102                
POS_SESSION 51860               
POS_SIDER 52072               
POS_FILETYPES 6237                
POS_DOWNLOADS 6464                
POS_OS 6512                
POS_BROWSER 6872                
POS_SCREENSIZE 9413                
POS_UNKNOWNREFERER 9487                
POS_UNKNOWNREFERERBROWSER 11306               
POS_ORIGIN 11928               
POS_SEREFERRALS 12073               
POS_PAGEREFS 12528               
POS_SEARCHWORDS 13779               
POS_KEYWORDS 14793               
POS_MISC 2378                
POS_ERRORS 15716               
POS_CLUSTER 3756                
POS_SIDER_404 15810               
END_MAP

# LastLine    = Date of last record processed - Last record line number in last log - Last record offset in last log - Last record signature value
# FirstTime   = Date of first visit for history file
# LastTime    = Date of last visit for history file
# LastUpdate  = Date of last update - Nb of parsed records - Nb of parsed old records - Nb of parsed new records - Nb of parsed corrupted - Nb of parsed dropped
# TotalVisits = Number of visits
# TotalUnique = Number of unique visitors
# MonthHostsKnown   = Number of hosts known
# MonthHostsUnKnown = Number of hosts unknown
BEGIN_GENERAL 8
LastLine 20180701000816 94 21858 9542536203289
FirstTime 20180601001643
LastTime 20180630231411
LastUpdate 20180701174513 94 0 93 0 0
TotalVisits 836                 
TotalUnique 457                 
MonthHostsKnown 0                   
MonthHostsUnknown 1111                
END_GENERAL

# Misc ID - Pages - Hits - Bandwidth
BEGIN_MISC 10
QuickTimeSupport 0 0 0
FlashSupport 0 0 0
JavaEnabled 0 0 0
RealPlayerSupport 0 0 0
PDFSupport 0 0 0
TotalMisc 0 0 0
WindowsMediaPlayerSupport 0 0 0
AddToFavourites 0 126 0
DirectorSupport 0 0 0
JavascriptDisabled 0 0 0
END_MISC

# Hour - Pages - Hits - Bandwidth - Not viewed Pages - Not viewed Hits - Not viewed Bandwidth
BEGIN_TIME 24
0 45 88 3017148 51 123 2630729
1 45 77 2968255 63 125 2797531
2 18 18 563005 58 135 3666658
3 30 109 4813658 46 86 1978442
4 18 63 3174675 84 124 3687653
5 14 66 2754548 110 149 3772678
6 50 135 5866955 68 110 2598897
7 31 168 10327344 38 101 2367832
8 45 110 4641208 52 89 2203931
9 86 151 5538363 39 71 1518665
10 45 135 3804306 53 105 2498168
11 86 254 10525195 65 147 4629745
12 83 288 14021477 77 170 4690582
13 66 162 7065508 45 90 2225769
14 47 132 5742841 38 104 3113564
15 57 104 4223802 37 81 2228100
16 74 256 12872744 41 101 2130654
17 22 46 1323244 38 73 1824422
18 29 70 2306543 45 105 3306728
19 59 107 3110870 61 125 2941110
20 81 368 19942360 47 104 2379767
21 74 148 3913233 41 113 3503241
22 54 213 7747329 57 125 3763905
23 27 90 3335302 55 115 2588994
END_TIME

# Domain - Pages - Hits - Bandwidth
# The 25 first Pages must be first (order not required for others)
BEGIN_DOMAIN 4
us 1097 3108 129122152
eu 83 188 9625290
sc 6 46 2872675
hk 0 16 1979796
END_DOMAIN

# Cluster ID - Pages - Hits - Bandwidth
BEGIN_CLUSTER 0
END_CLUSTER

# Login - Pages - Hits - Bandwidth - Last visit
# The 10 first Pages must be first (order not required for others)
BEGIN_LOGIN 0
END_LOGIN

# Robot ID - Hits - Bandwidth - Last visit - Hits on robots.txt
# The 25 first Hits must be first (order not required for others)
BEGIN_ROBOT 41
Googlebot/ 254 6671294 20180630230810 0
bingbot/ 197 7580582 20180630232330 0
YandexBot/ 85 3097748 20180630034133 0
Baiduspider/ 85 2112270 20180630181102 0
bingpreview 74 2275730 20180629103156 0
crawl 65 1799984 20180628003341 0
AhrefsBot/ 57 1556032 20180630192500 0
no_user_agent 33 816047 20180629051340 0
YandexMobileBot/ 33 2113410 20180626122936 0
DotBot/ 30 807521 20180630100833 0
SeznamBot/ 27 1317579 20180628073643 0
Applebot/ 20 546649 20180630070921 0
bot[\s_+:,\.\;\/\\-] 16 462837 20180630150840 0
CCBot/ 14 398688 20180624120820 0
Google[\x20]Web[\x20]Preview 11 983052 20180630115212 0
[\s_+:,\.\;\/\\-]bot 11 1282262 20180630132502 0
Sogou[\x20]web[\x20]spider/ 11 341268 20180629122637 0
MJ12bot/ 10 303605 20180627193940 0
SemrushBot/ 8 227096 20180630192121 0
(firefox/)([0-9]\.|[0-1][0]\.) 7 155087 20180625171029 0
YisouSpider 5 134764 20180622050419 0
BLEXBot/ 5 109128 20180623013834 0
YandexImages/ 5 292020 20180629063502 0
RukiCrawler/ 4 140064 20180627123745 0
Googlebot\-Image/ 4 24895 20180625230249 0
PhantomJS 2 94341 20180621084547 0
SafeDNSBot 3 85267 20180628233556 0
DuckDuckGo\-Favicons\-Bot/ 1 31012 20180628212235 0
Cliqzbot/ 1 31012 20180615060825 0
oBot/ 1 31033 20180629094622 0
KomodiaBot/ 1 31012 20180610010819 0
TelegramBot 1 31016 20180617112757 0
Mail\.RU_Bot/ 1 31016 20180606075636 0
facebookexternalhit/ 4 331584 20180629061202 0
rogerbot/ 1 31033 20180625075503 0
curl 2 62027 20180616065620 0
SiteExplorer/ 1 27659 20180606051456 0
archive\.org_bot 1 7269 20180630004810 0
Yahoo![\x20]Slurp 1 31012 20180614063042 0
robot 2 62034 20180611210146 0
MojeekBot/ 2 53308 20180615140402 0
END_ROBOT

# Worm ID - Hits - Bandwidth - Last visit
# The 5 first Hits must be first (order not required for others)
BEGIN_WORMS 0
END_WORMS

# EMail - Hits - Bandwidth - Last visit
# The 20 first Hits must be first (order not required for others)
BEGIN_EMAILSENDER 0
END_EMAILSENDER

# EMail - Hits - Bandwidth - Last visit
# The 20 first hits must be first (order not required for others)
BEGIN_EMAILRECEIVER 0
END_EMAILRECEIVER

# Files type - Hits - Bandwidth - Bandwidth without compression - Bandwidth after compression
BEGIN_FILETYPES 8
Unknown 281 7795051 0 0
gif 12 20844 0 0
php 66 1971743 0 0
css 442 8042503 0 0
js 989 35191732 0 0
jpg 440 58518361 0 0
html 839 24906693 0 0
png 289 7152986 0 0
END_FILETYPES

# Downloads - Hits - Bandwidth
BEGIN_DOWNLOADS 0
END_DOWNLOADS

# OS ID - Hits
BEGIN_OS ID - Hits - Pages 22
winnt 6 6
macosx 66 28
macosx12 32 32
win8 12 7
win7 561 260
win2000 1 1
winlong 12 5
win10 797 308
linuxandroid 505 86
macosx11 52 36
macosx10 36 5
ios_ipad 136 15
winxp 9 9
ios_iphone 281 60
linux 180 65
macosx8 2 2
macosx6 1 1
linuxubuntu 1 1
Unknown 615 235
unix 1 1
wince 1 1
win8.1 51 22
END_OS

# Browser ID - Hits - Pages
BEGIN_BROWSER 124
safari10.0.3 3 2
chrome60.0.3112.113 17 17
chrome66.0.3359.117 2 2
firefox40.0 3 3
chrome26.0.1410.65 1 1
lynx 6 6
firefox27.0 2 2
chrome59.0.3071.125 70 6
chrome37.0.2062.124 7 2
firefox50.0 50 2
iphone 11 1
chrome62.0.3202.84 37 1
chrome14.0.835.202 4 4
chrome40.0.2214.93 1 1
chrome57.0.2987.133 2 2
opera41.9.4324.8052 1 1
chrome65.0.3325.146 4 1
chrome54.0.2840.68 27 13
chrome32.0.1700.76 15 0
chrome67.0.3396.99 70 31
chrome62.0.3202.75 2 2
safari11.1.1 15 4
safari8.0 1 1
firefox52.0 2 2
chrome67.0.3396.81 1 0
opera53.0.2907.68 18 4
chrome34.0.1847.116 1 1
chrome45.0.2454.94 1 1
firefox57.0 8 7
mozilla 56 27
chrome45.0.2454.101 4 4
chrome14.0.814.0 1 1
chrome66.0.3359.158 92 14
firefox34.0 2 2
chrome34.0.1847.131 1 1
chrome51.0.2704.81 1 1
opera36.0.2130.32 2 2
chrome52.0.2743.116 17 6
safari10.1 2 2
safari11.0 196 51
chrome56.0.2924.87 55 11
chrome67.0.3396.68 1 1
firefox55.0 4 4
chrome46.0.2754.75 1 1
cloudflare 433 84
chrome64.0.3282.167 2 2
msie9.0 28 10
safari11.0.3 4 4
firefox60.0 189 43
chrome34.0.1847.114 23 21
chrome67.0.3396.62 33 8
firefox32.1 3 3
chrome66.0.3359.181 365 144
chrome5.0.375.99 2 2
chrome63.0.3205.0 4 1
opera12.16 23 0
firefox54.0 3 3
edge14 1 1
chrome39.0.0.0 21 1
msie11.0 20 13
chrome49.0.2623.75 35 35
chrome61.0.3163.100 22 22
chrome26.0.1410.63 15 15
firefox42.0 1 1
chrome63.0.3239.84 3 3
chrome67.0.3396.79 21 21
chrome34.0.1847.137 3 3
opera53.0.2907.99 4 3
safari6.1.1 1 1
chrome49.0.2642.8 1 1
chrome67.0.3396.87 434 127
firefox47.0 1 1
msie10.0 13 3
chrome46.0.2490.86 1 1
chrome65.0.3325.109 20 6
firefox51.0 1 1
chrome40.0.2214.85 8 8
chrome56.0.2924.76 9 2
wap 8 1
chrome55.0.2883.87 50 12
safari8.0.7 33 2
chrome44.0.2403.89 1 1
chrome53.0.2785.143 2 2
firefox56.0 18 18
firefox38.0 1 1
chrome53.0.2785.116 3 3
opera8.50 1 1
chrome50.0.2661.102 14 14
firefox33.0 1 1
opera49.0.2725.47 2 2
chrome51.0.2704.106 4 4
msie8.0 8 1
chrome59.0.3071.115 1 1
edge16 31 6
safari11.0.2 4 4
chrome65.0.3325.181 6 6
opera49.0.2725.64 6 5
chrome58.0.3029.110 4 4
firefox45.0 8 8
safari9.0 49 3
edge17 16 6
chrome41.0.2228.0 16 8
msie4.01 1 1
safari10.0 80 11
chrome63.0.3239.108 1 1
msie6.0 1 1
chrome63.0.3239.111 3 2
chrome57.0.2987.110 2 1
chrome64.0.3282.137 37 2
safari11.1 24 2
firefox37.0 1 1
firefox61.0 11 6
firefox59.0 1 1
chrome12.0.742.112 1 1
chrome36.0.1985.143 2 1
chrome61.0.3163.98 3 1
chrome38.0.1025.166 65 4
firefox53.0 2 2
firefox40.1 50 50
msie7.0 4 2
safari 86 9
chrome63.0.3239.132 9 9
Unknown 120 119
firefox58.0 3 3
END_BROWSER

# Screen size - Hits
BEGIN_SCREENSIZE 0
END_SCREENSIZE

# Unknown referer OS - Last visit date
BEGIN_UNKNOWNREFERER 29
ph 20180623025855
Go-http-client/2.0 20180617203540
WhatsApp/2.18.60_i 20180602073734
va 20180608150148
python-requests/2.14.2 20180601133911
Opera/9.80_(Series_60;_Opera_Mini/7.1.32446/101.31;_U;_en)_Presto/2.12.423_Version/12.16 20180606225007
python-requests/2.18.4 20180602203119
Mozilla/5.0_(compatible;_CloudFlare-AlwaysOnline/1.0;__http://www.cloudflare.com/always-online) 20180630221031
OrgProbe/0.9.4_(_http://www.blocked.org.uk) 20180611210123
Mozilla/5.0_zgrab/0.x_(compatible;_Researchscan/t12sns;__http://researchscan.comsys.rwth-aachen.de) 20180612062953
Ruby 20180627002747
Mozilla/5.0_(compatible;_CloudFlare-AlwaysOnline/1.0;__http://www.cloudflare.com/always-online)_AppleWebKit/534.34 20180630221118
the_beast 20180608005941
OrgProbe/2.0.0_(_http://www.blocked.org.uk) 20180625060412
Mozilla/5.0_(compatible;_Wappalyzer) 20180621163828
WhatsApp/2.18.142_A 20180611215258
Mozilla/5.0_zgrab/0.x_(compatible;_Researchscan/t12ca;__http://researchscan.comsys.rwth-aachen.de) 20180612033235
Gigabot 20180616204529
Mozilla/5.0_(compatible;_Daum/4.1;__http://cs.daum.net/faq/15/4118.html?faqId=28966) 20180621084547
python-requests/2.18.3 20180626122634
Lynx/2.8.9dev.8_libwww-FM/2.14_SSL-MM/1.4.1_GNUTLS/3.4.9 20180611203035
Mozilla/5.0_(compatible;_NetcraftSurveyAgent/1.0;__info@netcraft.com) 20180607130832
Mozilla/5.0_zgrab/0.x_(compatible;_Researchscan/t13rl;__http://researchscan.comsys.rwth-aachen.de) 20180612003407
Mozilla/5.0_(compatible;_ips-agent) 20180608162709
Magic_Browser 20180607150012
Mozilla/5.0_(compatible;_Dataprovider.com;) 20180613194256
Go-http-client/1.1 20180612190301
python-requests/2.9.0 20180628014040
Mozilla/5.0_(compatible;_Qwantify/2.4w;__https://www.qwant.com/)/2.4w 20180628191845
END_UNKNOWNREFERER

# Unknown referer Browser - Last visit date
BEGIN_UNKNOWNREFERERBROWSER 16
python-requests/2.18.3 20180626122634
Gigabot 20180616204529
WhatsApp/2.18.142_A 20180611215258
OrgProbe/2.0.0_(_http://www.blocked.org.uk) 20180625060412
python-requests/2.9.0 20180628014040
Go-http-client/1.1 20180612190301
Magic_Browser 20180607150012
WhatsApp/2.18.60_i 20180602073734
Go-http-client/2.0 20180617203540
ph 20180623025855
python-requests/2.14.2 20180601133911
va 20180608150148
python-requests/2.18.4 20180602203119
OrgProbe/0.9.4_(_http://www.blocked.org.uk) 20180611210123
Ruby 20180627002747
the_beast 20180608005941
END_UNKNOWNREFERERBROWSER

# Origin - Pages - Hits 
BEGIN_ORIGIN 6
From0 697 762
From1 9 9
From2 200 200
From3 15 15
From4 265 2372
From5 0 0
END_ORIGIN

# Search engine referers ID - Pages - Hits
BEGIN_SEREFERRALS 16
www_google_es 1 1
www_google_be 1 1
bing 3 3
www_google_co_in 15 15
www_google_com_hk 1 1
www_google_ca 1 1
www_google_com_au 4 4
www_google_mv 1 1
www_google_com_sg 3 3
www_google_com_pk 1 1
www_google_co_uk 1 1
www_google_com 33 33
search_yahoo_co_jp 1 1
www_google_lk 131 131
yandexru 2 2
www_google_nl 1 1
END_SEREFERRALS

# External page referers - Pages - Hits
# The 25 first Pages must be first (order not required for others)
BEGIN_PAGEREFS 9
http://%20www.ellensplace.lk 6 6
http://l.facebook.com/l.php 2 2
http://rainbowpages.lk/hotels/hotel-colombo/ellens-place/ 1 1
http://mail.automiraj.lk 1 1
http://s6743768.pulse-stat.com/views/eyJ0YXNrX2lkIjo2NzUwNTA5LCJ1c2VyX2lkIjo2NzQzNzY4LCJhZGRyZXNzX2Jvb2tfaWQiOjAsInNlbmRlcl9tYWlsX2FkZHJlc3MiOiJpbmZvY2xpZW50aHVibGtAZ21haWwuY29tIiwiZW1haWxfaWQiOjc3Nzc4NjQwNTEsImVtYWlsX2hhY2giOiI3ODMxMjU4OGEyNGQ4ZDllNTc1MWQ2NGVkMjhkOWVlNCIsImVtYWlsX2FkZHIiOiJzaGFuaWthaC5mZXJuYW5kb0BwYWJjYmFuay5jb20iLCJ1bnN1YnNjcl9wYWdlX2lkIjowLCJwdWJsaWNfaWQiOiIwZGQxNjlmNCIsImF1dG9yZXNwb25kZXJfdHlwZSI6MH0=/ 1 1
http://s6743768.pulse-stat.com/views/eyJ0YXNrX2lkIjo2NzUwNTAwLCJ1c2VyX2lkIjo2NzQzNzY4LCJhZGRyZXNzX2Jvb2tfaWQiOjAsInNlbmRlcl9tYWlsX2FkZHJlc3MiOiJpbmZvY2xpZW50aHVibGtAZ21haWwuY29tIiwiZW1haWxfaWQiOjc3Nzc4MTExMDAsImVtYWlsX2hhY2giOiJjNWE3YTY0MmIwNWZlYWUwMDRjYzEwMmNjNzZjMDlkNyIsImVtYWlsX2FkZHIiOiJtYWRhd2E1MDAwQHlhaG9vLmNvbSIsInVuc3Vic2NyX3BhZ2VfaWQiOjAsInB1YmxpY19pZCI6IjAyMjFhMGQ2IiwiYXV0b3Jlc3BvbmRlcl90eXBlIjowfQ==/ 1 1
http://resell-seo-services.com/try.php 1 1
https://webmail.sfr.fr 1 1
http://rainbowpages.lk 1 1
END_PAGEREFS

# Search keyphrases - Number of search
# The 10 first number of search must be first (order not required for others)
BEGIN_SEARCHWORDS 1
https+//yandex.ru/clck/jsredir%3ffrom%3dyandex.ru%253bsearch%253bweb%253b%253b%26text%3d%26etext%3d1834.5zfdngbp9zddx77qnmsxl2icgv4pnle9itum9wnbaijnl3sztgdmdfpp4omsxyhf.b164f73ccc1555d867f1fa09c8fc47645441b45b%26uuid%3d%26state%3d_blhiln4sxnivvl0w45ksic66ucig23qh8irg98qeixmeppkguc0ygftrg9cp1erjbfvtucxdxk%26data%3dulnrnmk5wktyejr0ewjfyk1ldmtxbfl0ci1eqnlrs2ngtu4zog9kslnlrhcwt2jtafzrtzjkruxka3y5n3bvsy1ksdvvs1jtvhdxsll6evvbduxwq1jlcwy5a0hlzjfa%26b64e%3d2%26sign%3dc722fa653dd4e543cd0861353df8994c%26keyno%3d0%26cst%3daiuy0dbwfj7ixge4wdyjqaygayq7jarrnqcvgdoxd97_x3na7bwhajwggpscvsxgd9x1dhlsdp5goghlkohk_2fmpqocvyykyab-ngcox12isqn5bsydjmv5690zb_o2jj7axller9npgke_tlgdbfvvjcwmf2ti%26ref%3dorjy4mgprjk5bodnw0uvlrrd71vzw9kp5uqozpmtkcwab4nbwhozjo3n3tkygyftrclqcldeauepwe6u7p-0zp63_bys6qya-uuazyexhmv22s39ixljlw%26l10n%3dru%26cts%3d1530252691908%26mc%3d3.29454065265 1
END_SEARCHWORDS

# Search keywords - Number of search
# The 25 first number of search must be first (order not required for others)
BEGIN_KEYWORDS 2
https 1
//yandex.ru/clck/jsredir%3ffrom%3dyandex.ru%253bsearch%253bweb%253b%253b%26text%3d%26etext%3d1834.5zfdngbp9zddx77qnmsxl2icgv4pnle9itum9wnbaijnl3sztgdmdfpp4omsxyhf.b164f73ccc1555d867f1fa09c8fc47645441b45b%26uuid%3d%26state%3d_blhiln4sxnivvl0w45ksic66ucig23qh8irg98qeixmeppkguc0ygftrg9cp1erjbfvtucxdxk%26data%3dulnrnmk5wktyejr0ewjfyk1ldmtxbfl0ci1eqnlrs2ngtu4zog9kslnlrhcwt2jtafzrtzjkruxka3y5n3bvsy1ksdvvs1jtvhdxsll6evvbduxwq1jlcwy5a0hlzjfa%26b64e%3d2%26sign%3dc722fa653dd4e543cd0861353df8994c%26keyno%3d0%26cst%3daiuy0dbwfj7ixge4wdyjqaygayq7jarrnqcvgdoxd97_x3na7bwhajwggpscvsxgd9x1dhlsdp5goghlkohk_2fmpqocvyykyab-ngcox12isqn5bsydjmv5690zb_o2jj7axller9npgke_tlgdbfvvjcwmf2ti%26ref%3dorjy4mgprjk5bodnw0uvlrrd71vzw9kp5uqozpmtkcwab4nbwhozjo3n3tkygyftrclqcldeauepwe6u7p-0zp63_bys6qya-uuazyexhmv22s39ixljlw%26l10n%3dru%26cts%3d1530252691908%26mc%3d3.29454065265 1
END_KEYWORDS

# Errors - Hits - Bandwidth
BEGIN_ERRORS 1
302 1449 30118544
END_ERRORS

# URL with 404 errors - Hits - Last URL referrer
BEGIN_SIDER_404 0
END_SIDER_404

# Host - Pages - Hits - Bandwidth - Last visit date - [Start date of last visit] - [Last page of last visit]
# [Start date of last visit] and [Last page of last visit] are saved only if session is not finished
# The 25 first Hits must be first (order not required for others)
BEGIN_VISITOR 1111
172.68.202.33 68 144 5300940 20180628132000
172.68.202.39 56 72 2172173 20180630110911
172.68.202.45 46 151 6271942 20180630183341
172.68.202.21 46 86 7277266 20180629162115
172.68.202.27 38 78 2680138 20180629103218
172.68.202.9 37 146 5356131 20180629135032
172.68.202.15 31 62 1896451 20180630080657
172.68.254.191 20 20 544385 20180601093418
108.162.245.225 19 19 527298 20180620192241
172.68.244.107 14 14 434174 20180627002747
108.162.216.69 12 12 372192 20180630095313
162.158.154.30 12 14 738794 20180613012933
172.68.245.162 11 11 341158 20180627002747
162.158.255.189 11 11 0 20180628204559
162.158.106.221 11 11 341137 20180629150808
162.158.88.217 11 11 330834 20180625010350
108.162.245.195 10 10 310156 20180630103508
172.68.58.124 10 10 248096 20180630095311
162.158.111.174 8 9 250542 20180622004720
172.68.50.147 7 7 217106 20180621034850
172.69.22.169 7 7 217108 20180628204543
108.162.229.243 7 9 668226 20180627090655
162.158.179.69 7 8 208969 20180605164422
162.158.74.110 7 7 217231 20180626164510
162.158.166.202 7 7 217108 20180621130025
162.158.155.115 0 2 53818 
162.158.63.99 1 4 64869 20180608162709
172.68.47.209 1 1 31033 20180629174642
172.68.2.75 0 2 1847 
108.162.246.196 0 3 60657 
162.158.167.221 1 1 31016 20180626085543
172.68.189.84 3 3 93051 20180630231411
172.69.62.135 3 3 107040 20180630221043
108.162.249.249 0 1 7269 
162.158.111.96 0 2 214227 
172.69.22.67 1 1 31018 20180626034819
172.68.42.39 2 10 976495 20180602031243
108.162.229.237 0 1 5267 
108.162.229.249 0 1 8878 
172.68.206.45 0 1 3352 
141.101.105.137 1 1 31014 20180608062039
172.69.62.123 0 3 37227 
172.68.110.69 1 3 37459 20180617213457
108.162.219.147 1 1 31012 20180629220004
162.158.165.207 3 3 89189 20180630101829
162.158.118.81 0 1 31900 
141.101.99.46 1 3 41550 20180625204149
173.245.52.66 0 3 2568 
172.68.133.77 0 2 1712 
162.158.234.45 0 1 137937 
197.234.242.135 1 2 31210 20180615001907
162.158.91.16 1 2 41471 20180623080016
162.158.119.70 0 1 110755 
172.68.2.105 0 9 399952 
162.158.92.243 0 2 1847 
141.101.88.21 1 1 31012 20180611044251
141.101.105.89 3 3 93048 20180613001638
162.158.186.71 0 1 29113 
172.69.226.46 0 1 13962 
108.162.229.225 1 1 31014 20180612152149
162.158.88.211 0 1 856 
172.68.62.141 0 1 12409 
172.69.54.44 1 2 25305 20180614202421
172.69.226.64 1 1 31012 20180605154855
162.158.155.229 0 5 74885 
141.101.107.149 1 3 34110 20180611210117
172.69.226.124 0 1 134776 
162.158.106.143 1 1 31012 20180606193044
172.68.211.249 1 1 31012 20180607211618
172.68.62.93 0 1 110755 
162.158.155.223 0 1 31900 
141.101.69.254 0 2 46877 
172.68.206.33 0 2 8178 
172.68.132.40 1 1 0 20180608233245
108.162.229.15 1 2 35184 20180613060348
162.158.92.27 0 1 7629 
108.162.238.130 0 1 14977 
172.68.189.54 2 2 62038 20180607194748
162.158.88.19 2 2 62035 20180606022924
172.68.2.39 0 7 352088 
162.158.165.45 2 2 62032 20180621110236
172.68.2.33 0 6 1431534 
172.68.143.23 0 1 167928 
141.101.88.93 0 1 0 
141.101.107.137 1 1 31016 20180604125441
162.158.63.123 0 2 3094 
108.162.216.51 0 5 16805 
162.158.167.245 1 10 31016 20180605163928
141.101.69.164 1 1 31016 20180602224842
108.162.226.112 0 1 13962 
172.68.110.63 0 1 465075 
172.68.239.166 1 1 31014 20180612233731
172.68.65.119 3 3 78621 20180630221054
162.158.155.7 1 1 25236 20180629165349
162.158.2.171 0 2 53818 
141.101.69.116 0 1 278 
172.68.62.33 1 2 44978 20180613160157
162.158.62.44 0 2 27924 
172.68.255.151 0 2 16038 
173.245.54.24 0 3 53046 
172.68.2.27 6 10 259927 20180613201646
162.158.234.57 0 5 330254 
197.234.242.117 0 1 1743 
172.69.226.10 0 1 160781 
172.69.22.175 0 1 8878 
162.158.91.238 0 2 3944 
162.158.74.140 1 1 31016 20180619044110
162.158.10.27 0 12 1498030 
162.158.75.231 0 2 556 
172.69.62.9 0 3 26634 
103.22.200.83 0 1 71028 
162.158.234.93 0 2 118077 
162.158.165.231 1 1 31016 20180611215258
172.68.47.101 1 1 31033 20180622022840
141.101.104.220 0 2 135054 
162.158.91.148 0 3 27422 
162.158.89.102 0 2 29954 
172.69.33.124 0 1 19252 
172.69.126.9 1 1 31016 20180622052627
197.234.242.33 1 3 355460 20180630155741
141.101.88.237 1 1 31016 20180621013550
162.158.93.80 0 1 32494 
162.158.7.22 0 2 10357 
103.22.200.203 0 2 4860 
172.69.190.57 1 1 31012 20180625145018
108.162.246.124 1 1 31012 20180605141352
162.158.155.91 2 2 62032 20180629161345
172.69.62.177 0 3 7290 
141.101.76.45 0 1 3352 
162.158.103.40 2 2 62028 20180605175045
162.158.119.58 0 1 23936 
162.158.155.43 1 1 31018 20180611210126
108.162.210.117 0 1 1743 
162.158.186.221 0 1 12409 
162.158.178.170 0 1 12409 
172.68.51.213 1 1 31018 20180628014040
172.68.130.9 0 9 786613 
162.158.178.140 0 1 5267 
172.68.62.129 0 2 29380 
172.68.132.172 2 2 62025 20180604144716
162.158.91.82 1 2 31553 20180608150148
162.158.186.83 0 1 457047 
172.68.42.27 0 6 197692 
172.68.218.51 0 2 19530 
172.68.142.202 2 2 62029 20180601121211
172.68.143.53 3 3 93044 20180604140229
162.158.7.52 0 1 1847 
141.101.104.136 0 1 465075 
172.68.2.93 0 5 34595 
162.158.2.81 2 6 688128 20180626072904
173.245.48.68 0 1 457047 
172.69.22.211 0 1 1547 
162.158.187.48 0 1 225571 
162.158.154.180 1 1 31018 20180608033657
172.68.142.178 0 1 1743 
108.162.245.117 0 3 1614 
173.245.54.18 0 3 9264 
172.69.134.224 0 9 35957 
108.162.229.135 2 4 63745 20180607052105
162.158.6.201 1 1 31016 20180626072749
172.69.70.88 0 2 307170 
162.158.142.39 1 1 31016 20180608064650
162.158.106.149 2 2 31012 20180613054318
172.69.69.195 0 3 57756 
103.22.200.227 0 2 930150 
141.101.99.52 0 1 12409 
162.158.118.9 0 1 153585 
162.158.122.101 0 2 153863 
172.68.253.112 0 1 0 
162.158.166.100 1 1 31016 20180626090338
141.101.104.112 1 1 31016 20180612030458
172.68.141.153 1 1 31012 20180614090420
162.158.6.27 1 1 31012 20180606130103
141.101.107.53 5 5 170417 20180623122634
197.234.242.147 0 1 167928 
197.234.242.87 1 2 31872 20180617110734
162.158.2.15 0 2 307170 
162.158.88.103 0 2 4942 
162.158.102.105 1 1 31016 20180609192753
162.158.75.99 0 1 7269 
172.69.134.134 1 1 31016 20180617090451
141.101.98.213 1 1 31016 20180611210109
108.162.216.147 3 3 93099 20180625034148
172.68.189.138 1 1 0 20180626154936
162.158.2.141 0 2 47872 
173.245.54.48 3 3 67428 20180630221041
162.158.154.24 0 4 387358 
172.69.62.93 0 3 482343 
162.158.111.228 0 1 91334 
172.68.143.173 0 7 1847 
162.158.155.247 0 1 7269 
172.69.62.81 3 3 72921 20180630221048
141.101.97.138 1 1 31016 20180608124833
172.69.62.45 1 7 695542 20180605101532
162.158.89.24 0 2 63800 
162.158.155.199 0 1 35957 
162.158.91.232 1 1 31015 20180623025855
162.158.92.39 0 1 91334 
162.158.30.81 1 1 31016 20180618140117
172.68.218.9 0 1 457047 
162.158.234.105 0 2 107270 
162.158.63.21 1 1 24425 20180617211216
162.158.106.11 2 2 62066 20180629032512
162.158.126.87 1 1 27022 20180625154000
141.101.88.117 1 2 43425 20180623120254
172.68.62.213 0 1 3007 
162.158.63.231 1 1 31012 20180612082710
173.245.52.114 1 1 31014 20180604204357
172.68.110.57 0 1 19252 
108.162.229.117 0 1 1847 
172.68.141.129 0 1 31900 
162.158.2.165 0 4 221820 
172.68.189.126 0 5 35957 
162.158.6.51 1 1 31012 20180609030313
162.158.255.39 0 4 40438 
162.158.122.239 0 2 100212 
172.68.246.7 0 1 278 
172.68.144.132 0 9 0 
162.158.103.94 2 2 62028 20180604230127
162.158.166.136 1 1 31016 20180612183859
162.158.18.177 1 1 31014 20180607162244
172.69.70.250 0 1 26909 
162.158.118.45 0 1 26909 
162.158.154.204 1 2 35184 20180626155433
172.68.62.123 1 2 38285 20180620094000
172.68.218.81 0 1 8878 
172.68.2.15 0 9 398520 
108.162.245.129 0 1 153585 
162.158.134.111 1 1 31012 20180610164443
162.158.58.98 2 2 62066 20180621020702
172.68.133.233 0 2 53818 
172.69.69.87 2 2 62047 20180606122314
172.68.2.45 0 5 51398 
172.68.2.87 0 6 44606 
197.234.242.141 0 2 22299 
141.101.69.8 1 1 31016 20180601193132
108.162.216.117 0 1 7322 
162.158.167.155 2 2 66109 20180628184230
172.68.245.42 1 1 31012 20180629114648
141.101.98.237 0 2 221510 
172.68.253.118 0 1 465075 
103.22.200.245 0 1 16038 
172.68.42.21 0 6 108588 
108.162.226.142 0 1 66064 
172.68.144.150 4 4 98050 20180617225137
172.68.34.21 0 1 134776 
172.68.254.252 0 2 118077 
162.158.89.30 0 1 3352 
162.158.10.15 0 17 1132949 
172.68.253.130 0 1 1847 
162.158.165.237 3 3 93048 20180615202947
141.101.99.184 1 1 31016 20180606163314
162.158.93.2 0 1 95933 
162.158.90.155 1 2 141771 20180611210116
108.162.229.63 1 1 31012 20180627195850
173.245.54.12 0 4 29076 
172.68.59.23 0 1 110755 
162.158.165.123 1 1 31012 20180630160242
172.68.218.99 0 3 46082 
162.158.90.41 0 1 2430 
172.68.2.57 0 9 400109 
162.158.7.10 1 1 31016 20180617222120
172.68.62.75 0 1 8878 
162.158.114.33 1 1 31012 20180601045518
162.158.2.63 0 1 32494 
162.158.182.129 2 2 62024 20180604044155
172.68.254.137 0 3 44931 
172.69.69.93 0 3 9021 
172.68.133.185 1 1 0 20180605221108
141.101.69.44 1 2 24594 20180628034920
172.68.58.28 0 3 5229 
103.22.200.197 0 1 538 
172.68.144.156 1 1 24307 20180613222439
162.158.118.207 0 1 105067 
172.68.2.51 0 3 622877 
162.158.2.129 0 6 73946 
141.101.99.160 1 1 31016 20180611114337
172.69.226.22 0 2 153585 
172.68.144.78 1 3 186796 20180609182358
197.234.242.183 0 2 155132 
162.158.88.73 0 6 222344 
172.69.134.8 0 1 16038 
162.158.90.179 0 1 29113 
172.69.68.33 0 2 47872 
141.101.88.171 0 2 9699 
141.101.69.62 0 1 538 
108.162.238.112 0 1 3088 
141.101.107.251 0 1 7269 
162.158.63.249 0 3 10056 
141.101.76.141 0 1 3007 
141.101.77.115 0 1 160781 
162.158.167.125 0 5 15035 
162.158.78.27 0 3 287799 
172.68.253.52 0 1 31900 
162.158.88.97 0 1 7629 
108.162.246.100 0 1 3007 
172.68.182.135 1 1 31016 20180616220328
162.158.119.10 0 1 1847 
162.158.118.225 0 1 77890 
172.68.46.76 1 1 31016 20180628145429
162.158.166.82 2 2 62032 20180613182305
141.101.77.79 0 1 1847 
108.162.226.190 0 1 7629 
162.158.91.106 0 3 404328 
172.69.69.51 0 1 1547 
162.158.155.61 0 1 23936 
162.158.122.35 0 1 110755 
172.68.110.81 0 2 136519 
172.68.110.105 0 2 21284 
108.162.226.172 0 1 134776 
162.158.2.57 0 6 462598 
162.158.92.201 1 2 26909 20180622233223
172.68.218.27 0 2 165994 
162.158.179.147 0 1 1547 
141.101.98.93 1 1 31016 20180611210117
162.158.74.104 0 2 12409 
162.158.154.198 0 2 335856 
172.68.239.196 2 2 62032 20180615162356
141.101.77.217 0 1 0 
108.162.237.15 0 1 1547 
172.68.58.100 0 2 182668 
162.158.167.215 0 10 538 
162.158.165.141 0 1 1737 
141.101.107.221 1 1 31016 20180611210115
172.69.68.36 0 3 44931 
172.68.130.15 0 15 728665 
162.158.89.198 0 3 27924 
162.158.59.39 1 1 31016 20180611111956
162.158.63.237 0 3 15801 
172.69.134.80 0 2 178980 
162.158.234.27 0 2 154028 
172.68.2.81 0 3 59963 
108.162.229.81 0 1 0 
172.69.68.41 0 3 5229 
172.69.70.244 0 3 41886 
162.158.182.135 1 1 31012 20180601215927
162.158.111.126 0 1 12409 
162.158.103.118 1 1 31016 20180613230138
197.234.242.159 0 1 91334 
141.101.69.14 0 1 95933 
141.101.88.81 0 1 110755 
108.162.246.154 0 19 941822 
172.69.68.8 0 2 14538 
141.101.76.225 0 1 26909 
141.101.105.119 0 1 35957 
141.101.107.89 2 2 62032 20180623120257
162.158.111.30 0 1 29113 
172.68.238.153 2 2 62032 20180622133348
172.68.47.197 1 1 31033 20180612125737
172.68.2.9 0 7 466944 
162.158.89.60 0 1 213689 
162.158.103.58 2 2 62036 20180602020759
162.158.78.21 0 3 9021 
162.158.62.224 1 2 78218 20180623175455
162.158.78.75 3 3 67965 20180630221118
108.162.245.249 0 5 49636 
172.68.255.169 0 1 26909 
162.158.59.129 1 1 31033 20180610082120
162.158.154.150 1 1 31016 20180622162104
108.162.238.100 0 2 465075 
162.158.78.153 0 3 834 
162.158.106.173 3 5 146861 20180628135239
172.68.254.185 0 1 31900 
172.69.226.16 4 6 210624 20180603200442
162.158.62.26 1 1 31033 20180607130832
172.68.110.15 0 1 91334 
162.158.62.80 0 1 91334 
172.69.54.140 0 1 3088 
172.68.58.16 1 2 31836 20180611123259
173.245.54.36 4 4 124066 20180626154937
172.69.134.248 1 1 31016 20180626094531
141.101.99.64 1 1 31016 20180611210116
172.69.70.124 0 1 538 
172.69.54.80 0 1 167928 
162.158.167.35 0 1 824 
172.69.69.171 0 3 5541 
162.158.123.60 0 1 225571 
162.158.165.249 0 4 0 
172.68.130.21 0 11 914825 
162.158.165.27 0 3 21807 
197.234.242.63 0 1 278 
172.69.134.98 0 1 0 
172.68.141.135 0 2 6014 
162.158.122.107 0 1 23936 
172.68.63.76 0 1 14977 
162.158.234.9 0 5 375653 
172.68.65.29 0 3 80727 
162.158.63.201 0 1 95933 
172.69.226.88 0 3 3094 
141.101.98.165 0 1 91334 
172.68.253.220 0 1 213689 
172.69.62.21 0 4 29076 
162.158.91.172 0 1 14977 
172.69.190.15 1 1 31012 20180602220608
141.101.104.208 1 1 31014 20180604062922
162.158.114.21 3 3 93037 20180612190302
197.234.242.15 0 1 26909 
172.69.226.58 0 1 7322 
141.101.69.26 0 3 6704 
141.101.98.117 1 1 31016 20180611210117
172.69.62.87 1 7 946083 20180617214034
162.158.154.18 1 1 31016 20180604013605
162.158.165.69 1 1 39041 20180614213032
172.68.218.75 0 3 247378 
162.158.126.33 3 3 93054 20180613194259
172.69.134.110 1 1 31016 20180621175801
162.158.122.113 0 1 26909 
162.158.10.33 0 16 403564 
108.162.226.16 0 1 7322 
172.68.246.145 3 3 107600 20180604211658
141.101.69.206 1 1 31016 20180602055531
162.158.90.143 0 2 24951 
172.68.132.130 2 2 62025 20180603125905
162.158.90.167 1 1 31012 20180624132407
162.158.90.65 0 5 940684 
162.158.187.36 0 1 5267 
141.101.99.250 1 1 31016 20180619030809
172.69.69.177 0 1 16038 
162.158.118.33 0 1 53470 
141.101.98.123 0 2 4942 
162.158.126.111 0 1 194 
172.69.130.105 1 1 31012 20180606162656
172.68.110.27 0 2 4554 
162.158.155.241 0 1 856 
108.162.246.142 2 2 31016 20180612063541
162.158.78.129 0 3 2568 
172.68.255.139 0 1 13962 
162.158.154.240 1 3 206860 20180611210122
172.68.189.102 0 1 538 
141.101.107.101 0 1 19252 
197.234.242.21 0 1 2471 
173.245.52.174 0 2 63800 
108.162.226.202 0 1 58574 
162.158.92.207 0 1 0 
141.101.99.106 1 1 31018 20180611210123
162.158.119.64 0 1 54741 
162.158.119.46 0 1 73812 
172.68.65.221 0 3 5229 
172.68.144.240 0 17 295428 
162.158.103.112 2 2 62024 20180609083129
141.101.76.135 0 1 7269 
173.245.48.146 1 1 31033 20180611122727
162.158.62.212 1 1 31013 20180607123027
162.158.2.147 0 2 1712 
162.158.91.214 0 1 29113 
162.158.74.164 1 1 0 20180626122634
172.68.2.111 0 3 455310 
162.158.106.101 0 1 91334 
197.234.242.171 0 2 59094 
162.158.2.69 0 5 287355 
172.68.218.33 0 2 8178 
141.101.98.171 1 1 31016 20180613012525
172.69.62.141 3 3 93036 20180614085347
162.158.2.51 0 6 285866 
141.101.98.243 1 1 35680 20180622024036
108.162.241.75 1 1 31012 20180614063402
162.158.59.147 1 1 31033 20180602183357
172.68.141.117 0 9 108342 
162.158.155.31 1 1 31016 20180625122710
108.162.238.46 0 2 17756 
172.68.142.46 1 1 0 20180612063541
162.158.91.142 0 1 35957 
141.101.105.209 0 1 95933 
172.69.226.142 0 1 3007 
162.158.222.105 1 1 31016 20180611210116
172.68.63.70 0 1 225571 
172.68.253.100 1 1 31014 20180624203939
141.101.99.118 1 1 31018 20180611210128
162.158.202.207 0 1 7269 
162.158.78.147 0 8 310347 
172.69.23.68 1 1 31014 20180614095331
162.158.89.120 0 3 3694 
162.158.165.33 0 2 159732 
162.158.6.45 1 1 31016 20180623134022
172.68.144.210 1 2 141771 20180614181146
172.68.189.222 0 6 7629 
108.162.229.27 1 2 496091 20180619160402
197.234.242.45 0 1 87940 
172.68.110.45 0 2 29203 
162.158.126.63 1 1 31033 20180625155232
172.69.68.40 1 1 31016 20180618192019
162.158.165.129 1 1 31016 20180604134217
162.158.89.174 1 4 125938 20180619083853
172.69.22.205 0 5 0 
172.69.62.171 0 3 15801 
162.158.6.159 0 1 23936 
172.68.253.142 0 1 457047 
172.69.70.76 0 1 2430 
141.101.98.153 1 1 31016 20180626115424
172.68.10.57 0 1 7269 
172.69.23.110 0 1 7322 
162.158.93.32 0 4 39045 
172.68.143.83 2 2 62036 20180613092902
141.101.107.71 0 2 218380 
172.68.142.166 0 1 134776 
162.158.106.215 0 5 0 
108.162.219.249 1 1 31016 20180616022156
172.69.33.52 1 1 31012 20180604004841
162.158.118.243 2 3 65370 20180619235153
162.158.165.189 1 1 31012 20180615094420
162.158.186.29 0 1 95933 
108.162.216.159 0 5 143828 
162.158.222.15 1 1 31018 20180611210123
172.68.2.21 0 5 484654 
162.158.92.81 0 3 191866 
172.69.69.33 1 5 463031 20180605090431
162.158.126.81 1 2 34368 20180628215515
172.68.110.9 0 1 278 
172.69.68.32 0 1 3352 
162.158.93.14 0 1 12409 
108.162.229.213 1 1 31016 20180606114309
162.158.78.39 0 3 12504 
141.101.104.178 0 1 2471 
162.158.63.183 2 2 62026 20180619083458
172.68.238.69 1 1 27638 20180605071253
172.68.62.51 0 2 175557 
162.158.62.14 0 5 74885 
103.22.200.167 0 1 12409 
172.68.62.177 0 1 31900 
141.101.99.148 0 1 134776 
141.101.88.123 2 4 226578 20180613052832
172.68.144.12 1 1 31016 20180630040900
108.162.226.82 1 1 31033 20180621084544
108.162.212.196 1 1 31033 20180602055528
172.68.218.15 0 3 85122 
172.68.254.143 0 2 6440 
162.158.106.245 1 3 37209 20180612191307
162.158.179.243 0 1 538 
172.69.23.104 1 1 31014 20180602203119
162.158.93.38 1 1 31016 20180629013542
172.68.46.160 0 1 213689 
162.158.178.224 2 2 62036 20180623134131
162.158.10.45 0 10 1010288 
172.68.144.168 1 1 31016 20180628092915
141.101.98.249 1 1 31016 20180603013157
162.158.90.137 1 1 31019 20180604212724
162.158.2.99 0 2 24818 
172.69.70.40 0 2 4942 
108.162.241.207 1 1 31014 20180608183554
172.68.65.227 3 3 117123 20180630221115
172.68.42.33 0 10 900692 
162.158.111.54 0 1 465075 
162.158.123.24 0 1 465075 
172.68.253.208 0 1 91334 
162.158.93.86 1 1 31014 20180607194931
162.158.107.24 0 8 1847 
162.158.154.114 0 2 17756 
141.101.107.227 0 2 235164 
162.158.75.201 2 2 0 20180610060355
162.158.142.93 2 2 62028 20180610232147
108.162.226.28 0 1 79866 
172.68.146.19 0 3 164223 
172.68.253.214 0 2 15258 
141.101.99.88 1 1 31016 20180629082227
162.158.6.69 0 1 20219 
108.162.238.154 0 2 307170 
162.158.2.177 0 2 4860 
172.69.69.105 0 3 515273 
172.69.70.106 0 1 225571 
162.158.74.68 0 1 194 
162.158.6.9 0 1 29113 
172.69.78.51 1 1 31016 20180621173911
162.158.106.71 1 1 0 20180623163923
162.158.158.44 0 1 1847 
108.162.246.238 4 7 146015 20180630133237
162.158.63.135 0 1 465075 
162.158.106.209 0 6 35957 
108.162.219.231 1 1 31013 20180607125601
197.234.242.93 0 2 625856 
162.158.186.245 0 1 19252 
108.162.245.9 1 1 31012 20180628040322
162.158.111.254 0 1 225571 
172.68.110.99 0 1 12409 
197.234.242.57 0 1 31900 
172.69.62.51 6 12 1173999 20180630221101
172.69.33.142 1 1 31012 20180619075039
103.22.200.179 0 1 457047 
162.158.107.18 1 1 0 20180620081629
162.158.59.159 1 1 31016 20180607165756
162.158.234.99 0 1 167928 
141.101.69.110 1 1 31016 20180611203903
172.68.206.63 0 1 31900 
103.22.200.239 0 1 3352 
172.68.253.154 0 1 153585 
162.158.89.222 0 2 24818 
172.68.62.147 0 1 7322 
108.162.226.178 0 1 89490 
141.101.105.167 0 1 87940 
162.158.155.13 1 3 34498 20180627114258
172.68.141.249 1 1 31019 20180618085254
172.69.134.236 1 1 31016 20180618140257
141.101.104.124 1 1 31018 20180611210127
172.68.142.16 0 7 834 
172.69.68.242 0 2 111484 
172.68.253.184 1 1 31033 20180601093348
173.245.52.150 1 3 33985 20180607125907
162.158.142.45 1 1 31014 20180608065214
172.68.253.82 0 1 20219 
162.158.158.38 1 1 31016 20180611210106
162.158.106.179 2 7 76011 20180629032510
108.162.212.88 0 1 13962 
141.101.88.153 0 2 427378 
172.68.146.217 0 1 0 
173.245.52.78 1 1 31033 20180617203540
162.158.6.219 1 1 31012 20180601133911
172.68.206.99 0 1 3007 
198.41.231.10 1 1 31016 20180615230100
162.158.154.222 2 4 63108 20180619182915
162.158.88.241 0 3 520859 
162.158.88.25 0 1 26909 
141.101.69.230 1 1 31012 20180607052102
141.101.88.219 5 6 155196 20180626090507
162.158.118.75 0 1 16060 
162.158.118.201 0 2 187267 
172.69.62.75 0 3 44931 
172.68.133.155 1 1 31018 20180607025916
197.234.242.81 0 3 31218 
172.68.46.142 0 1 26909 
141.101.69.50 0 2 4942 
172.68.244.65 0 1 7269 
162.158.179.117 0 1 856 
162.158.74.8 0 3 0 
162.158.158.62 3 3 93048 20180628134946
162.158.63.225 0 2 4935 
173.245.52.132 0 5 278346 
162.158.19.16 1 1 31014 20180619204802
172.68.143.239 1 1 0 20180627133636
141.101.98.207 0 2 10059 
172.68.141.21 0 7 0 
162.158.79.202 0 3 5541 
172.68.65.59 1 1 31016 20180608131132
172.68.253.106 0 1 95933 
172.68.253.58 0 1 3007 
162.158.93.170 0 1 167928 
162.158.106.161 4 4 124059 20180625114027
172.68.110.75 0 2 43586 
172.68.58.250 0 5 23936 
141.101.107.125 0 2 6176 
197.234.242.177 2 3 94113 20180623124936
162.158.90.17 0 1 7322 
141.101.99.112 0 1 87940 
162.158.92.99 0 1 1743 
172.68.206.111 0 1 91334 
172.69.62.63 3 3 71274 20180630221052
108.162.226.244 0 1 3088 
108.162.237.183 0 2 53818 
197.234.242.75 0 1 12409 
172.68.143.227 1 1 31017 20180618070137
172.68.254.95 0 1 225571 
162.158.106.197 0 6 7629 
172.69.71.5 0 1 35957 
141.101.99.214 1 1 31016 20180623122129
162.158.89.138 0 1 457047 
172.68.2.63 0 11 353980 
172.68.146.235 1 1 31016 20180618171952
141.101.104.142 1 1 31033 20180609122111
141.101.88.147 1 1 31016 20180618193150
172.68.50.153 1 1 31018 20180611210124
173.245.52.72 0 3 87339 
162.158.79.232 0 3 4641 
172.68.65.83 3 3 93099 20180630221112
162.158.2.159 0 4 936326 
108.162.219.93 0 1 8878 
172.68.110.111 0 1 95933 
172.68.47.113 1 1 0 20180610123347
141.101.76.165 0 1 7322 
162.158.59.51 0 1 153585 
162.158.122.53 0 1 3352 
162.158.166.52 2 12 136913 20180607131232
141.101.105.35 0 1 19252 
172.68.142.28 1 1 31017 20180610154147
162.158.234.75 0 2 29937 
172.69.69.189 0 1 457047 
172.69.68.16 0 3 21966 
172.68.244.101 0 1 0 
162.158.6.249 0 1 1547 
162.158.186.179 0 1 31900 
162.158.118.39 0 1 213689 
162.158.89.132 1 1 0 20180615213157
141.101.76.153 0 2 552980 
162.158.111.12 1 1 31016 20180613001606
108.162.229.141 0 2 3486 
141.101.77.223 0 1 110755 
162.158.91.4 0 2 17756 
162.158.90.125 1 2 165795 20180612062953
108.162.219.195 0 2 6014 
162.158.79.154 4 4 62028 20180614090820
172.68.146.49 0 1 58574 
103.22.200.149 0 1 167928 
172.68.65.233 3 3 82977 20180630221103
162.158.126.21 0 1 1743 
162.158.158.8 0 1 17682 
108.162.245.183 0 2 3094 
162.158.93.176 1 1 31014 20180611234151
162.158.154.132 1 1 31012 20180625224624
172.68.143.167 0 6 0 
172.68.230.99 1 1 31016 20180614113840
162.158.90.209 0 3 47872 
162.158.63.177 0 3 21966 
172.68.189.78 3 3 93048 20180628061737
172.68.58.232 0 1 0 
172.68.141.177 1 1 31033 20180601001643
172.68.62.27 0 2 19530 
108.162.245.189 0 5 12302 
108.162.237.111 1 1 31012 20180629065909
162.158.222.27 1 1 31018 20180625060412
141.101.98.69 1 1 31016 20180615040136
172.68.146.67 0 9 0 
141.101.76.87 0 1 2430 
162.158.166.142 1 1 31016 20180623185850
162.158.122.221 0 1 35957 
172.68.65.71 0 3 21966 
162.158.102.183 1 1 31012 20180608005941
162.158.93.68 0 2 3094 
172.68.144.54 0 1 134776 
172.68.110.51 0 4 69138 
172.68.245.144 0 1 0 
141.101.88.9 1 1 31012 20180606224530
173.245.48.98 1 1 31033 20180624110750
162.158.89.144 0 3 6870 
108.162.229.195 0 1 35957 
162.158.90.83 0 1 278 
162.158.142.15 1 1 31016 20180604123404
172.68.253.172 0 1 1737 
162.158.78.117 1 13 1174124 20180603035401
162.158.92.159 0 1 457047 
162.158.91.250 0 1 3352 
172.68.146.133 2 2 71360 20180608134017
162.158.167.5 3 3 87342 20180605105713
108.162.219.219 0 2 556 
141.101.105.227 4 5 179800 20180612190259
108.162.229.231 2 3 75774 20180603111226
162.158.92.141 0 2 24818 
162.158.79.76 3 3 73782 20180630221056
162.158.234.81 0 4 165002 
172.68.146.13 1 11 32563 20180622081955
103.22.200.77 0 2 227308 
162.158.88.61 0 4 23226 
172.68.253.34 0 1 824 
162.158.92.21 0 4 126742 
108.162.226.250 0 2 84705 
172.68.58.130 0 4 12271 
108.162.237.129 0 2 1076 
162.158.234.69 0 2 153779 
172.69.33.208 1 1 39022 20180612043517
162.158.88.181 0 1 225571 
172.68.218.87 1 1 31012 20180619085632
162.158.75.9 3 3 93099 20180622135404
162.158.58.218 1 1 31016 20180625133731
162.158.78.231 0 3 41886 
141.101.76.183 1 1 39041 20180610001303
108.162.245.123 2 9 2608909 20180625135342
162.158.234.51 0 5 214323 
108.162.245.159 3 3 62029 20180620081629
172.68.154.15 1 1 31016 20180623121320
162.158.75.141 0 2 0 
162.158.155.55 1 1 31018 20180611210127
162.158.167.47 1 10 31016 20180618171926
162.158.92.69 0 1 153585 
172.68.206.15 0 1 1743 
162.158.2.105 0 2 3694 
172.68.206.105 1 1 31016 20180613220630
172.69.70.52 0 3 834 
108.162.237.231 0 1 2471 
162.158.89.168 0 1 7269 
172.68.62.105 0 1 457047 
108.162.210.237 1 2 32863 20180606153946
197.234.242.69 0 1 7629 
172.69.62.105 0 3 22887 
162.158.62.146 0 4 6972 
172.69.22.181 1 1 31033 20180620214028
172.68.142.244 1 1 31017 20180604194808
162.158.88.253 0 1 19252 
162.158.126.75 1 2 51233 20180625153939
162.158.63.93 0 3 47872 
108.162.229.99 0 1 87940 
162.158.167.101 1 1 22476 20180612090457
172.68.239.88 2 2 78408 20180602003435
162.158.75.27 0 2 6704 
172.69.54.8 0 4 44931 
172.68.146.181 0 1 0 
141.101.76.57 1 1 31014 20180603233507
162.158.234.15 0 4 230577 
162.158.78.51 1 1 31012 20180604210247
162.158.154.66 1 1 31018 20180611210123
172.68.218.63 0 4 303390 
141.101.76.159 0 1 1743 
173.245.48.230 4 4 124694 20180622192959
172.68.62.45 0 1 91334 
141.101.88.135 0 1 7629 
108.162.215.69 0 1 7322 
162.158.165.171 0 2 210134 
162.158.93.98 1 1 31018 20180611210126
162.158.166.172 0 1 3088 
162.158.154.36 1 1 31018 20180615174906
172.68.141.183 1 1 31015 20180603103913
162.158.106.131 0 3 2430 
141.101.98.27 1 3 243844 20180623020444
172.68.206.21 0 1 1547 
172.68.133.245 1 1 0 20180612063555
172.69.70.184 0 2 427378 
172.69.34.5 1 1 31012 20180621161724
108.162.245.141 1 1 0 20180605014102
108.162.219.87 0 4 30516 
108.162.216.201 3 3 79216 20180612065147
108.162.226.130 0 1 3007 
162.158.222.69 1 1 31018 20180611210127
162.158.165.99 0 9 0 
162.158.2.75 0 6 138342 
197.234.242.99 0 2 462314 
172.68.146.241 0 2 132128 
162.158.126.27 0 1 856 
172.68.42.15 0 9 488258 
162.158.186.47 0 2 91612 
172.68.58.76 3 3 93099 20180624091456
197.234.242.39 0 2 103202 
108.162.245.147 1 1 31016 20180604213356
162.158.10.21 1 17 853656 20180614060659
172.68.46.202 2 3 69335 20180622050709
162.158.155.253 1 3 482158 20180611210116
162.158.89.66 0 1 1547 
172.68.254.161 0 1 7269 
108.162.210.243 0 1 29113 
103.22.200.173 0 1 2471 
108.162.210.159 1 1 31016 20180602055523
141.101.88.33 1 1 31033 20180611150024
162.158.122.197 0 1 3088 
162.158.119.94 0 4 46478 
172.69.33.46 2 2 62032 20180607141034
172.68.146.205 2 2 62032 20180630125654
108.162.250.40 1 1 31012 20180607072540
103.22.200.95 0 1 67415 
162.158.126.39 1 1 31014 20180625155231
162.158.62.104 0 1 7269 
141.101.69.200 1 2 53707 20180628191845
172.68.218.93 0 1 225571 
108.162.249.81 2 2 62032 20180628062728
162.158.90.203 1 1 0 20180607030058
162.158.154.120 2 2 62029 20180608033658
108.162.212.190 0 2 624975 
162.158.78.135 3 3 84201 20180630221109
162.158.91.178 1 4 368415 20180627211440
197.234.242.105 0 2 16392 
162.158.106.59 0 6 174678 
172.68.141.147 1 1 31033 20180610082022
172.69.70.22 0 5 33421 
172.68.2.69 1 5 73590 20180606073525
172.68.218.21 0 1 538 
162.158.78.123 3 9 203718 20180630221058
162.158.154.168 0 2 307170 
162.158.123.12 0 1 31900 
162.158.255.237 2 2 31019 20180622084214
162.158.106.251 4 4 124050 20180623130154
162.158.123.78 0 1 19252 
172.69.22.247 0 4 465075 
162.158.255.21 0 6 0 
162.158.126.45 0 2 43226 
162.158.118.117 0 1 29113 
162.158.255.93 0 5 5267 
172.69.68.20 0 3 274002 
172.68.218.39 0 2 249646 
172.68.144.66 1 2 31132 20180609112547
162.158.202.117 1 1 31012 20180612005334
162.158.106.29 1 1 31013 20180612161028
108.162.246.232 0 3 5229 
172.68.146.175 2 2 62032 20180611214950
162.158.90.35 0 2 67857 
108.162.246.16 0 5 21068 
162.158.222.21 1 1 31018 20180611210128
162.158.91.40 1 1 31014 20180608005941
108.162.245.87 0 1 167928 
172.68.142.88 0 2 6176 
141.101.88.195 2 3 62024 20180609040534
108.162.215.39 1 2 86775 20180602183454
141.101.88.243 0 2 29954 
162.158.78.15 0 3 97482 
141.101.99.82 1 1 31014 20180607165007
162.158.158.32 0 2 14538 
172.68.10.207 0 1 0 
172.68.189.24 1 1 0 20180620081629
108.162.229.219 0 1 23936 
108.162.246.130 1 2 86754 20180620114333
172.68.110.21 0 1 2430 
141.101.69.80 1 1 31016 20180608084941
108.162.210.135 0 1 95933 
172.69.70.112 0 1 110755 
172.68.58.40 1 1 0 20180626122634
141.101.98.129 1 1 31014 20180620052331
172.68.146.73 3 3 102389 20180621084547
197.234.242.123 0 3 232746 
141.101.107.233 0 2 216278 
172.68.143.77 3 3 93048 20180615124826
141.101.104.214 1 1 31014 20180614040109
108.162.229.189 1 1 31016 20180601111944
162.158.186.197 1 1 31014 20180628121644
172.68.218.57 0 1 2430 
141.101.69.236 1 1 31016 20180606000438
162.158.106.83 5 5 138016 20180615155555
162.158.166.166 1 1 31016 20180613005228
172.69.33.238 1 1 31016 20180607063212
172.68.146.247 6 6 178826 20180629093805
162.158.126.9 0 2 29954 
108.162.226.124 0 2 71914 
172.68.65.107 0 3 1395225 
162.158.2.21 0 2 6014 
172.69.226.94 3 3 87395 20180611005919
197.234.242.27 1 5 197290 20180627233433
172.68.255.109 0 1 0 
162.158.178.116 1 1 31033 20180604101352
172.68.65.197 7 10 289963 20180630221050
141.101.77.169 0 1 7629 
172.68.246.67 0 1 7322 
172.68.110.93 0 1 14977 
141.101.99.124 1 3 242518 20180609185803
162.158.93.44 1 1 31016 20180618143320
162.158.89.186 0 2 556 
173.245.52.120 0 1 26909 
141.101.88.105 0 1 105751 
162.158.234.117 3 5 112906 20180614201628
162.158.93.116 0 2 16147 
162.158.90.221 1 2 856 20180616003507
172.69.70.202 0 1 3088 
162.158.78.225 0 3 582 
103.22.200.71 0 1 19252 
108.162.226.226 0 3 1380 
172.69.69.81 0 2 24818 
162.158.179.237 0 1 8878 
162.158.238.99 1 1 39041 20180612223701
162.158.158.74 1 1 31016 20180611210114
141.101.98.87 0 2 46456 
162.158.165.81 3 5 196453 20180611215147
172.68.94.75 1 1 31016 20180606054447
162.158.91.196 0 1 5267 
162.158.89.246 0 1 465075 
162.158.166.160 2 2 62032 20180618132127
172.68.46.112 1 1 31033 20180602002948
141.101.69.68 0 3 914094 
162.158.118.237 0 1 55742 
108.162.210.249 0 1 856 
162.158.111.144 4 4 133247 20180612013744
172.68.65.131 0 3 21807 
162.158.92.33 0 4 243567 
172.68.47.173 0 1 225571 
162.158.78.213 3 3 81066 20180630221107
162.158.90.113 0 1 2471 
162.158.88.247 2 2 0 20180607014601
162.158.2.9 0 4 457846 
162.158.90.251 0 1 91334 
108.162.246.10 0 6 47872 
162.158.2.123 0 1 17682 
172.69.68.38 0 3 2568 
141.101.107.17 0 1 95933 
172.68.63.10 0 1 856 
141.101.77.133 0 1 8878 
162.158.187.6 0 2 269552 
172.68.144.222 0 3 290559 
172.69.134.164 3 3 86373 20180606211901
172.68.144.204 1 1 27068 20180610031144
162.158.119.16 0 1 856 
162.158.234.63 0 6 138610 
162.158.91.28 0 2 63800 
162.158.167.41 3 12 73906 20180628162335
162.158.155.181 0 2 930150 
141.101.98.219 5 5 164830 20180623120353
162.158.89.228 0 1 55742 
141.101.104.232 0 1 7322 
172.69.69.15 0 2 335856 
162.158.166.124 0 3 0 
162.158.165.147 1 1 31016 20180626150545
108.162.246.106 2 2 62025 20180622074817
172.68.245.180 1 1 31014 20180601230739
172.68.144.84 2 2 78408 20180609162541
162.158.186.59 0 1 35957 
162.158.2.111 0 4 917580 
172.68.65.191 0 3 5211 
162.158.186.113 0 1 3352 
172.68.94.51 1 1 31016 20180621155552
172.69.69.219 1 1 31016 20180625000820
172.68.47.149 1 1 31014 20180615062006
162.158.166.214 0 1 17682 
162.158.126.51 0 2 109895 
108.162.229.123 0 1 26909 
172.69.71.23 2 2 62049 20180630033253
172.68.239.40 2 2 62024 20180629060822
162.158.155.133 1 1 31018 20180611182640
172.68.189.90 1 1 0 20180605014102
172.68.141.51 1 1 0 20180630221031
108.162.226.40 0 1 8878 
162.158.234.111 0 2 281313 
162.158.155.103 1 2 31294 20180611212302
172.68.253.226 0 1 2471 
162.158.158.86 1 1 31018 20180615175004
162.158.63.141 0 1 153585 
172.68.63.52 0 2 136623 
162.158.234.87 1 3 532050 20180611210126
162.158.158.68 1 1 31012 20180619091012
162.158.202.189 1 1 31016 20180611210118
172.68.244.77 2 2 62028 20180622104836
172.69.69.159 0 2 930150 
172.68.142.4 2 2 53654 20180617114639
162.158.167.239 1 1 31016 20180626123805
141.101.88.177 1 3 61900 20180609153838
172.68.65.143 4 7 231921 20180626154937
162.158.166.208 0 2 142056 
172.69.135.9 0 4 160781 
162.158.107.42 6 6 186083 20180628040321
162.158.63.33 1 1 31033 20180607124641
172.69.70.196 1 1 31033 20180605005921
162.158.2.153 0 2 3094 
172.68.65.17 0 4 29076 
162.158.2.87 0 4 22698 
172.68.110.39 0 1 1847 
198.41.238.75 1 1 31016 20180603110024
172.68.253.148 0 2 154028 
162.158.88.43 1 2 44981 20180610210755
141.101.99.142 1 1 31016 20180610123237
172.69.226.34 0 1 0 
141.101.98.177 0 1 194 
141.101.98.189 1 1 31012 20180614220638
197.234.242.51 0 1 23936 
108.162.246.190 0 2 269552 
162.158.6.231 4 4 114032 20180606130228
162.158.18.189 1 1 31012 20180619152918
162.158.165.225 6 6 186076 20180627223436
141.101.99.220 1 1 31016 20180611210114
172.68.141.231 1 1 22636 20180612043511
141.101.69.146 2 2 49498 20180601011411
172.68.11.16 1 1 31012 20180601230738
141.101.69.170 0 3 182668 
172.68.254.71 0 1 7629 
162.158.234.39 0 2 462314 
162.158.79.100 1 1 31016 20180616022147
172.69.62.33 0 6 70713 
172.69.62.129 4 4 124057 20180627133637
162.158.88.163 2 3 134776 20180624062532
172.68.63.16 0 1 213689 
172.69.134.68 0 1 67415 
108.162.241.153 0 1 7269 
141.101.105.29 0 1 7269 
162.158.88.145 0 1 23936 
172.68.132.112 2 2 62045 20180629174831
172.68.146.229 1 1 31033 20180607132341
162.158.88.193 0 2 191866 
141.101.107.23 0 2 914094 
172.68.146.91 0 9 0 
108.162.219.165 0 1 110755 
162.158.165.213 1 1 31016 20180614213026
172.68.65.65 4 4 72168 20180630221111
162.158.62.254 2 2 62029 20180611194656
172.68.144.192 0 2 32120 
172.68.51.75 1 1 31016 20180611210116
162.158.92.123 0 2 38504 
141.101.76.105 0 1 4168 
162.158.89.162 0 2 4860 
172.68.144.144 2 2 45131 20180626083811
162.158.118.27 0 1 5267 
162.158.91.70 0 9 140971 
172.68.141.9 0 5 0 
162.158.154.174 0 1 160781 
162.158.106.41 4 4 124091 20180620190145
172.68.253.244 0 1 16060 
162.158.158.50 0 2 1648 
141.101.77.43 0 3 47872 
172.69.134.194 3 3 93049 20180629195411
162.158.122.131 0 1 12409 
172.68.218.45 0 5 502720 
108.162.229.201 1 1 31016 20180605194454
162.158.91.190 2 2 62038 20180612033235
172.68.206.51 0 1 19252 
108.162.210.153 0 1 7629 
172.68.62.111 0 2 57485 
162.158.89.72 1 1 31014 20180622151821
162.158.79.106 0 3 1614 
172.68.94.207 1 1 31016 20180611210117
172.68.11.250 5 5 155070 20180601015130
172.68.63.22 0 1 0 
162.158.74.86 1 7 102952 20180602055528
141.101.99.202 0 2 234196 
162.158.90.185 0 1 5267 
172.68.65.245 0 3 87339 
172.69.134.128 1 1 31016 20180626094223
172.68.146.127 1 1 24307 20180601135901
141.101.77.37 0 1 0 
141.101.107.59 1 1 31018 20180611210125
162.158.178.92 0 1 1547 
172.69.70.70 0 3 287799 
162.158.167.107 2 2 62032 20180607204021
162.158.118.21 0 1 1743 
141.101.99.136 0 1 1737 
162.158.234.21 0 2 4208 
172.69.33.232 3 3 93057 20180619230722
172.68.144.72 0 1 4168 
172.68.239.112 1 1 31016 20180602003432
108.162.237.105 0 2 58749 
162.158.165.111 1 1 35680 20180621110330
172.69.33.82 1 1 31014 20180602123925
162.158.106.113 1 7 32124 20180607185501
162.158.78.183 0 3 263820 
172.68.255.127 0 1 55742 
162.158.75.87 0 2 13962 
172.68.94.129 0 1 7269 
172.68.142.22 0 1 19252 
198.41.238.57 1 1 31016 20180622015924
141.101.77.97 0 1 194 
162.158.154.72 0 2 6014 
172.68.143.5 2 2 31012 20180618163329
172.68.62.249 0 2 2085 
108.162.246.94 0 1 7322 
172.68.11.154 2 2 62024 20180601015517
172.69.62.189 1 1 31012 20180617110827
141.101.88.129 0 1 3088 
END_VISITOR

# Date - Pages - Hits - Bandwidth - Visits
BEGIN_DAY 30
20180601 86 167 5340967 47
20180602 28 112 6157756 21
20180603 19 48 883123 14
20180604 29 99 3771264 24
20180605 50 90 2434183 29
20180606 30 122 4669295 22
20180607 64 116 4642776 48
20180608 33 60 1597486 26
20180609 21 71 3140358 17
20180610 29 115 5011132 20
20180611 77 127 3454990 63
20180612 66 92 2454968 42
20180613 48 141 6237304 26
20180614 41 142 7516187 33
20180615 39 68 1327853 29
20180616 19 21 686110 15
20180617 23 101 2312819 18
20180618 19 117 7197343 17
20180619 38 168 10480878 32
20180620 36 127 5348445 26
20180621 51 394 22476001 29
20180622 41 97 4436010 32
20180623 50 205 11035745 40
20180624 44 58 2140641 17
20180625 37 78 2200212 23
20180626 40 106 4658453 33
20180627 16 48 2299729 13
20180628 47 77 2061584 30
20180629 30 91 3564982 19
20180630 35 100 4061319 31
END_DAY

# Session range - Number of visits
BEGIN_SESSION 7
5mn-15mn 14
30mn-1h 12
30s-2mn 29
15mn-30mn 13
2mn-5mn 22
1h+ 3
0s-30s 743
END_SESSION

# URL - Pages - Bandwidth - Entry - Exit
# The 25 first Pages must be first (order not required for others)
BEGIN_SIDER 30
/ 838 24875681 684 674
/gallery 46 1641261 16 21
/contact-us 45 1723172 22 28
/location 25 561864 9 11
/accommodation/standard-rooms 21 516434 11 9
/accommodation/super-deluxe-rooms 21 513286 4 6
/promotions 18 437507 10 8
/accommodation/deluxe-rooms 17 420187 6 5
/index.php 17 527338 10 14
/about-us 16 339753 5 7
/contact-us.php 15 546538 9 6
/suites.php 14 378933 6 4
/accommodation 13 359531 6 6
/facilities/restaurant 13 285077 4 7
/facilities 10 235844 5 4
/downloads 9 216485 5 3
/privacy-policy 8 189118 4 5
/facilities/swimming-pool 8 187149 5 4
/swimming-pool.php 8 201869 4 3
/terms-and-conditions 7 168383 4 4
/promotions.php 6 145823 1 2
/accommodation.php 2 55276 2 2
/standard_rooms.php 2 54654 2 1
/accommodation/about-us 1 0 0 0
/facilities/privacy-policy 1 0 0 1
/restaurant.php 1 25649 1 0
/gallery.php 1 35663 1 0
/accommodation/privacy-policy 1 0 0 0
/index.php/component/users/ 1 31012 0 1
/facilities/terms-and-conditions 1 0 0 0
END_SIDER
