AWSTATS DATA FILE 7.7 (build 20180105)
# If you remove this file, all statistics for date 201905 will be lost/reset.
# Last config file used to build this data file was /home2/fyfxamvcmvss/tmp/awstats/awstats.ellensplace.freudenbergleisure.lk.conf.

# Position (offset in bytes) in this file for beginning of each section for
# direct I/O access. If you made changes somewhere in this file, you should
# also remove completely the MAP section (AWStats will rewrite it at next
# update).
BEGIN_MAP 28
POS_GENERAL 2035                
POS_TIME 2694                
POS_VISITOR 6637                
POS_DAY 7233                
POS_DOMAIN 3336                
POS_LOGIN 3653                
POS_ROBOT 3808                
POS_WORMS 4237                
POS_EMAILSENDER 4368                
POS_EMAILRECEIVER 4511                
POS_SESSION 7501                
POS_SIDER 7658                
POS_FILETYPES 4646                
POS_DOWNLOADS 4780                
POS_OS 4828                
POS_BROWSER 4946                
POS_SCREENSIZE 5142                
POS_UNKNOWNREFERER 5216                
POS_UNKNOWNREFERERBROWSER 5498                
POS_ORIGIN 5580                
POS_SEREFERRALS 5712                
POS_PAGEREFS 5856                
POS_SEARCHWORDS 6025                
POS_KEYWORDS 6177                
POS_MISC 2358                
POS_ERRORS 6236                
POS_CLUSTER 3509                
POS_SIDER_404 6328                
END_MAP

# LastLine    = Date of last record processed - Last record line number in last log - Last record offset in last log - Last record signature value
# FirstTime   = Date of first visit for history file
# LastTime    = Date of last visit for history file
# LastUpdate  = Date of last update - Nb of parsed records - Nb of parsed old records - Nb of parsed new records - Nb of parsed corrupted - Nb of parsed dropped
# TotalVisits = Number of visits
# TotalUnique = Number of unique visitors
# MonthHostsKnown   = Number of hosts known
# MonthHostsUnKnown = Number of hosts unknown
BEGIN_GENERAL 8
LastLine 20190601175915 1 0 14478253215216
FirstTime 0
LastTime 20190528062644
LastUpdate 20190602173520 1 0 0 0 0
TotalVisits 13                  
TotalUnique 12                  
MonthHostsKnown 0                   
MonthHostsUnknown 12                  
END_GENERAL

# Misc ID - Pages - Hits - Bandwidth
BEGIN_MISC 10
DirectorSupport 0 0 0
FlashSupport 0 0 0
QuickTimeSupport 0 0 0
PDFSupport 0 0 0
TotalMisc 0 0 0
AddToFavourites 0 0 0
RealPlayerSupport 0 0 0
JavaEnabled 0 0 0
WindowsMediaPlayerSupport 0 0 0
JavascriptDisabled 0 0 0
END_MISC

# Hour - Pages - Hits - Bandwidth - Not viewed Pages - Not viewed Hits - Not viewed Bandwidth
BEGIN_TIME 24
0 1 1 31401 13 18 393246
1 1 1 31401 2 4 101512
2 1 1 31401 0 0 0
3 0 0 0 1 4 95256
4 0 0 0 3 9 207897
5 0 0 0 4 4 125604
6 4 4 134569 1 3 73971
7 0 0 0 5 12 306000
8 0 0 0 2 11 240351
9 0 0 0 3 30 1083717
10 1 2 38670 5 11 274599
11 0 0 0 0 0 0
12 2 2 62802 4 4 85140
13 0 0 0 3 4 115488
14 1 1 31401 1 2 52686
15 1 1 31401 3 4 105372
16 1 1 31401 1 2 52686
17 1 1 31401 2 3 84087
18 1 1 31401 1 1 31401
19 0 0 0 2 9 211797
20 2 2 59026 16 16 340560
21 1 1 31401 4 22 498618
22 0 0 0 5 6 147942
23 0 0 0 2 3 84087
END_TIME

# Domain - Pages - Hits - Bandwidth
# The 25 first Pages must be first (order not required for others)
BEGIN_DOMAIN 8
nl 4 4 134569
ip 4 4 125604
fr 3 3 90427
gb 2 2 62802
us 2 2 62802
it 1 1 31401
lk 1 2 38670
ca 1 1 31401
END_DOMAIN

# Cluster ID - Pages - Hits - Bandwidth
BEGIN_CLUSTER 0
END_CLUSTER

# Login - Pages - Hits - Bandwidth - Last visit
# The 10 first Pages must be first (order not required for others)
BEGIN_LOGIN 0
END_LOGIN

# Robot ID - Hits - Bandwidth - Last visit - Hits on robots.txt
# The 25 first Hits must be first (order not required for others)
BEGIN_ROBOT 7
Googlebot/ 34 1266157 20190530150402 0
YandexBot/ 13 408213 20190530210852 0
bot[\s_+:,\.\;\/\\-] 10 314010 20190531105538 0
Baiduspider/ 5 157005 20190529181710 0
bingbot/ 4 101472 20190530000118 0
Googlebot\-Image/ 1 7269 20190510041950 0
(firefox/)([0-9]\.|[0-1][0]\.) 1 31401 20190518224321 0
END_ROBOT

# Worm ID - Hits - Bandwidth - Last visit
# The 5 first Hits must be first (order not required for others)
BEGIN_WORMS 0
END_WORMS

# EMail - Hits - Bandwidth - Last visit
# The 20 first Hits must be first (order not required for others)
BEGIN_EMAILSENDER 0
END_EMAILSENDER

# EMail - Hits - Bandwidth - Last visit
# The 20 first hits must be first (order not required for others)
BEGIN_EMAILRECEIVER 0
END_EMAILRECEIVER

# Files type - Hits - Bandwidth - Bandwidth without compression - Bandwidth after compression
BEGIN_FILETYPES 4
Unknown 3 91384 0 0
html 14 439614 0 0
php 1 39409 0 0
png 1 7269 0 0
END_FILETYPES

# Downloads - Hits - Bandwidth
BEGIN_DOWNLOADS 0
END_DOWNLOADS

# OS ID - Hits
BEGIN_OS ID - Hits - Pages 5
win7 1 1
win8 4 4
macosx10 1 1
win10 7 6
Unknown 6 6
END_OS

# Browser ID - Hits - Pages
BEGIN_BROWSER 8
chrome63.0.3239.132 1 1
cloudflare 4 4
firefox39.0 1 1
chrome74.0.3729.169 2 1
mozilla 2 2
chrome71.0.3578.80 4 4
firefox65.0 2 2
firefox58.0 3 3
END_BROWSER

# Screen size - Hits
BEGIN_SCREENSIZE 0
END_SCREENSIZE

# Unknown referer OS - Last visit date
BEGIN_UNKNOWNREFERER 2
Mozilla/5.0_(compatible;_NetcraftSurveyAgent/1.0;__info@netcraft.com) 20190507025335
Mozilla/5.0_(compatible;_CloudFlare-AlwaysOnline/1.0;_http://www.cloudflare.com/always-online) 20190527185811
END_UNKNOWNREFERER

# Unknown referer Browser - Last visit date
BEGIN_UNKNOWNREFERERBROWSER 0
END_UNKNOWNREFERERBROWSER

# Origin - Pages - Hits 
BEGIN_ORIGIN 6
From0 16 17
From1 0 0
From2 0 0
From3 1 1
From4 1 1
From5 0 0
END_ORIGIN

# Search engine referers ID - Pages - Hits
BEGIN_SEREFERRALS 0
END_SEREFERRALS

# External page referers - Pages - Hits
# The 25 first Pages must be first (order not required for others)
BEGIN_PAGEREFS 1
http://mywbs.com 1 1
END_PAGEREFS

# Search keyphrases - Number of search
# The 10 first number of search must be first (order not required for others)
BEGIN_SEARCHWORDS 0
END_SEARCHWORDS

# Search keywords - Number of search
# The 25 first number of search must be first (order not required for others)
BEGIN_KEYWORDS 0
END_KEYWORDS

# Errors - Hits - Bandwidth
BEGIN_ERRORS 1
302 114 2426490
END_ERRORS

# URL with 404 errors - Hits - Last URL referrer
BEGIN_SIDER_404 0
END_SIDER_404

# Host - Pages - Hits - Bandwidth - Last visit date - [Start date of last visit] - [Last page of last visit]
# [Start date of last visit] and [Last page of last visit] are saved only if session is not finished
# The 25 first Hits must be first (order not required for others)
BEGIN_VISITOR 12
188.166.114.112 4 4 134569 20190528062644
62.210.157.10 3 3 90427 20190527005544
51.38.34.80 2 2 62802 20190520122206
2400:cb00:36:1002::a29e:4035 1 1 31401 20190505154959
2400:cb00:36:1001::a29e:450d 1 1 31401 20190519214841
2400:cb00:36:1011::a29e:4686 1 1 31401 20190527185811
45.55.46.55 1 1 31401 20190507025335
2400:cb00:36:1003::a29e:4055 1 1 31401 20190512165111
124.43.17.1 1 2 38670 20190524102154
69.13.39.34 1 1 31401 20190514143251
142.93.188.74 1 1 31401 20190507011511
193.70.34.209 1 1 31401 20190518173331
END_VISITOR

# Date - Pages - Hits - Bandwidth - Visits
BEGIN_DAY 10
20190505 1 1 31401 1
20190507 2 2 62802 2
20190512 1 1 31401 1
20190514 1 1 31401 1
20190518 1 1 31401 1
20190519 1 1 31401 1
20190520 2 2 62802 1
20190524 3 4 97696 2
20190527 2 2 62802 2
20190528 4 4 134569 1
END_DAY

# Session range - Number of visits
BEGIN_SESSION 2
30s-2mn 1
0s-30s 12
END_SESSION

# URL - Pages - Bandwidth - Entry - Exit
# The 25 first Pages must be first (order not required for others)
BEGIN_SIDER 5
/ 14 439614 13 11
/about-us 1 24350 0 0
/home 1 27625 0 1
/contact-us 1 39409 0 0
/contact-us.php 1 39409 0 1
END_SIDER
