AWSTATS DATA FILE 7.7 (build 20180105)
# If you remove this file, all statistics for date 201904 will be lost/reset.
# Last config file used to build this data file was /home2/fyfxamvcmvss/tmp/awstats/awstats.randholeeresort.freudenbergleisure.com.conf.

# Position (offset in bytes) in this file for beginning of each section for
# direct I/O access. If you made changes somewhere in this file, you should
# also remove completely the MAP section (AWStats will rewrite it at next
# update).
BEGIN_MAP 28
POS_GENERAL 2040                
POS_TIME 2724                
POS_VISITOR 19573               
POS_DAY 81119               
POS_DOMAIN 3708                
POS_LOGIN 5207                
POS_ROBOT 5362                
POS_WORMS 7388                
POS_EMAILSENDER 7519                
POS_EMAILRECEIVER 7662                
POS_SESSION 82027               
POS_SIDER 82241               
POS_FILETYPES 7797                
POS_DOWNLOADS 8117                
POS_OS 8165                
POS_BROWSER 8607                
POS_SCREENSIZE 12964               
POS_UNKNOWNREFERER 13038               
POS_UNKNOWNREFERERBROWSER 14711               
POS_ORIGIN 15559               
POS_SEREFERRALS 15709               
POS_PAGEREFS 16254               
POS_SEARCHWORDS 18283               
POS_KEYWORDS 18781               
POS_MISC 2386                
POS_ERRORS 19148               
POS_CLUSTER 5063                
POS_SIDER_404 19264               
END_MAP

# LastLine    = Date of last record processed - Last record line number in last log - Last record offset in last log - Last record signature value
# FirstTime   = Date of first visit for history file
# LastTime    = Date of last visit for history file
# LastUpdate  = Date of last update - Nb of parsed records - Nb of parsed old records - Nb of parsed new records - Nb of parsed corrupted - Nb of parsed dropped
# TotalVisits = Number of visits
# TotalUnique = Number of unique visitors
# MonthHostsKnown   = Number of hosts known
# MonthHostsUnKnown = Number of hosts unknown
BEGIN_GENERAL 8
LastLine 20190501000502 190 47241 10458102257201
FirstTime 20190401001426
LastTime 20190430234358
LastUpdate 20190501174756 190 0 189 0 0
TotalVisits 1686                
TotalUnique 1370                
MonthHostsKnown 0                   
MonthHostsUnknown 1486                
END_GENERAL

# Misc ID - Pages - Hits - Bandwidth
BEGIN_MISC 10
FlashSupport 0 0 0
JavascriptDisabled 0 0 0
AddToFavourites 0 360 0
QuickTimeSupport 0 0 0
PDFSupport 0 0 0
WindowsMediaPlayerSupport 0 0 0
JavaEnabled 0 0 0
RealPlayerSupport 0 0 0
DirectorSupport 0 0 0
TotalMisc 0 0 0
END_MISC

# Hour - Pages - Hits - Bandwidth - Not viewed Pages - Not viewed Hits - Not viewed Bandwidth
BEGIN_TIME 24
0 143 217 15665753 226 350 9040149
1 84 115 3745241 225 342 8822293
2 171 243 8253832 349 481 13503636
3 49 138 13563301 274 418 12042035
4 30 40 1653264 229 366 9968034
5 62 68 2309470 194 350 9324339
6 99 275 23319357 337 528 14727564
7 85 226 20754187 247 439 11678074
8 126 339 20002783 242 471 12330449
9 139 276 21451188 248 452 14018695
10 168 394 31841377 219 372 10030946
11 216 469 27511200 239 417 11860015
12 235 377 23607783 305 463 14108213
13 247 439 23306239 181 344 9148015
14 171 344 23209517 211 397 11159322
15 268 494 34116643 358 538 13232022
16 218 414 32862506 318 483 12350710
17 236 374 16031010 321 530 16012736
18 160 229 10782195 201 321 8741366
19 178 452 38861970 217 462 18354582
20 268 429 19461346 496 897 23075102
21 112 370 34812284 285 468 13188113
22 99 160 6339395 229 440 12466432
23 75 165 14202231 301 405 10150114
END_TIME

# Domain - Pages - Hits - Bandwidth
# The 25 first Pages must be first (order not required for others)
BEGIN_DOMAIN 86
us 939 1256 50524107
lk 932 1596 110604993
ip 338 1091 92389178
in 284 493 26207106
cn 200 373 21301198
fr 114 194 7701858
gb 104 353 36711696
ru 87 128 5174798
nl 71 147 13673726
au 45 215 22034191
ua 44 45 1546925
de 32 70 6032328
pt 31 42 2962086
dk 31 52 1787962
ca 28 62 2327216
jp 25 53 2170597
ch 23 115 6019235
hk 23 94 11665160
kr 19 50 9176516
cz 19 22 828654
it 15 27 650934
lb 14 18 412649
il 12 15 494683
pl 12 12 389557
ae 11 32 2486441
hu 5 5 146416
my 2 96 11720383
zz 1 14 804983
mv 3 9 288647
id 2 2 64930
jo 1 1 32465
bn 1 1 32465
bw 1 1 32465
cl 1 1 32461
lu 3 12 305695
pk 6 6 194790
mt 1 1 32465
ph 8 20 764908
rs 3 3 97395
hr 8 9 250731
bd 3 3 97395
ar 1 1 32465
se 2 2 57091
th 3 15 1007449
sg 3 3 97395
ba 3 3 97395
dm 3 3 97400
dz 2 2 64930
jm 1 1 32465
tr 4 4 129860
et 5 23 717376
is 1 1 32465
es 11 15 538763
ke 2 2 64930
sd 1 1 32465
be 1 1 32465
lt 2 17 539227
me 1 4 69415
ge 3 3 97395
mu 1 1 32465
fi 0 6 89314
bg 1 1 32465
tw 1 1 41873
sa 7 7 213287
za 8 23 666443
at 10 12 343755
tn 2 4 209788
cr 0 1 11767
no 1 1 32465
lv 1 1 32465
eu 4 4 129862
eg 7 7 204744
gr 5 14 393269
br 7 7 217497
kw 2 2 64930
al 6 6 204188
ee 3 3 97383
sn 1 1 32465
np 2 4 60293
ie 2 3 58291
co 2 2 64930
qa 6 79 9996610
sc 1 1 32465
ro 6 8 198650
bh 0 6 224139
nz 2 2 64930
END_DOMAIN

# Cluster ID - Pages - Hits - Bandwidth
BEGIN_CLUSTER 0
END_CLUSTER

# Login - Pages - Hits - Bandwidth - Last visit
# The 10 first Pages must be first (order not required for others)
BEGIN_LOGIN 0
END_LOGIN

# Robot ID - Hits - Bandwidth - Last visit - Hits on robots.txt
# The 25 first Hits must be first (order not required for others)
BEGIN_ROBOT 46
bingbot/ 1035 41215744 20190430235838 0
Googlebot/ 920 32789475 20190430230642 0
Baiduspider/ 223 7029253 20190430225822 0
bot[\s_+:,\.\;\/\\-] 223 7159169 20190430192248 0
YandexBot/ 177 5207588 20190430221924 0
Applebot/ 119 3458594 20190430234242 0
SeznamBot/ 107 3464936 20190428112324 0
(firefox/)([0-9]\.|[0-1][0]\.) 100 3465429 20190430231252 0
baidu 76 12402164 20190429200009 0
Sogou[\x20]web[\x20]spider/ 75 2436474 20190430155249 0
bingpreview 75 4090033 20190430190316 0
SemrushBot/ 63 1640284 20190429152256 0
AhrefsBot/ 62 1661832 20190419203324 0
Apache\-HttpClient/ 54 1753320 20190424065826 0
MegaIndex\.ru/ 51 1390966 20190424174040 0
DotBot/ 42 1062748 20190430233728 0
Exabot/ 39 1202798 20190430171755 0
360Spider 39 1266727 20190430151507 0
CCBot/ 38 1084957 20190424115255 0
oBot/ 37 1012412 20190419133053 0
Mail\.RU_Bot/ 34 540263 20190425023822 0
spider 30 710299 20190426132218 0
no_user_agent 24 606702 20190430015618 0
Uptimebot/ 22 714132 20190430093257 0
aiHitBot/ 20 918727 20190428063803 0
SurdotlyBot/ 3 97383 20190410233512 0
MojeekBot/ 4 123010 20190426172609 0
php 4 129860 20190429043909 0
SafeDNSBot 2 64921 20190410160043 0
Googlebot\-Image/ 4 445666 20190430155504 0
curl 1 32461 20190427205500 0
YandexImages/ 18 2358216 20190429061347 0
YisouSpider 2 54685 20190425221939 0
[\s_+:,\.\;\/\\-]bot 4 125992 20190427172541 0
DuckDuckGo\-Favicons\-Bot/ 1 32479 20190419110947 0
MJ12bot/ 2 64926 20190406075355 0
facebookexternalhit/ 19 924600 20190423043442 0
Dalvik/ 1 137536 20190412221011 0
Cliqzbot/ 1 32465 20190426003929 0
istellabot/ 1 32465 20190430020627 0
MSIECrawler 1 32465 20190425035332 0
netEstate[\x20]NE[\x20]Crawler 2 64925 20190407130226 0
Screaming[\x20]Frog[\x20]SEO[\x20]Spider/ 1 32465 20190411233837 0
crawl 6 194780 20190429011400 0
YandexMobileBot/ 1 32465 20190401021341 0
Google[\x20]Web[\x20]Preview 9 474218 20190427143037 0
END_ROBOT

# Worm ID - Hits - Bandwidth - Last visit
# The 5 first Hits must be first (order not required for others)
BEGIN_WORMS 0
END_WORMS

# EMail - Hits - Bandwidth - Last visit
# The 20 first Hits must be first (order not required for others)
BEGIN_EMAILSENDER 0
END_EMAILSENDER

# EMail - Hits - Bandwidth - Last visit
# The 20 first hits must be first (order not required for others)
BEGIN_EMAILRECEIVER 0
END_EMAILRECEIVER

# Files type - Hits - Bandwidth - Bandwidth without compression - Bandwidth after compression
BEGIN_FILETYPES 13
svg 3 378000 0 0
js 741 42377080 0 0
gif 32 60795 0 0
eot 4 158176 0 0
xml 1 3728 0 0
php 320 9412791 0 0
Unknown 1485 44228407 0 0
swf 3 362314 0 0
jpeg 41 807965 0 0
jpg 1719 277153977 0 0
css 286 5952971 0 0
png 586 28767152 0 0
html 1826 58000716 0 0
END_FILETYPES

# Downloads - Hits - Bandwidth
BEGIN_DOWNLOADS 0
END_DOWNLOADS

# OS ID - Hits
BEGIN_OS ID - Hits - Pages 27
unix 1 1
macosx6 3 3
win2003 5 5
macosx9 116 41
macosx10 13 13
winlong 40 19
win2000 16 16
linuxubuntu 2 2
linuxandroid 1278 324
win10 1798 931
win16 2 2
macosx12 72 68
Unknown 396 317
winxp 28 27
win95 2 2
macosx7 2 2
winphone 6 3
macosx11 266 216
ios_iphone 627 189
winnt 7 7
ios_ipad 79 42
linux 414 270
win8 60 43
macosx 229 93
winunknown 7 7
win8.1 246 210
win7 1332 786
END_OS

# Browser ID - Hits - Pages
BEGIN_BROWSER 209
chrome72.0.3626.105 112 11
firefox31.0 3 3
firefox63.0 13 8
opera56.0.3051.104 1 1
chrome30.0.1599.82 7 4
chrome35.0.1916.47 1 1
chrome73.0.3683.90 479 151
chrome65.0.3325.146 3 3
edge14 6 3
chrome54.0.2861.44 1 1
opera58.0.3135.127 21 7
chrome60.0.3112.50 2 2
chrome23.0.1271.64 26 26
firefox66.0 215 100
firefox15.0 57 57
chrome49.0.2623.75 11 11
firefox58.0 2 2
chrome75.0.3738.0 3 0
chrome72.0.3626.119 33 7
safari11.1.2 17 2
chrome70.0.3538.110 13 7
netscape4.76 1 1
firefox32.0 24 24
firefox26.0 1 1
chrome53.0.2785.34 1 0
safari5.0.5 1 1
Unknown 203 202
chrome10.0.648.134 1 1
safari11.0 6 2
chrome39.0.2171.95 2 2
chrome48.0.2564.116 1 0
firefox53.0 2 2
chrome27.0.1453.116 2 2
chrome73.0.3683.75 41 10
safari5.1.3 1 1
chrome64.0.3282.119 1 1
chrome38.0.2125.102 1 1
firefox42.0 1 1
firefox56.0 17 5
chrome38.0.2125.111 8 8
chrome19.0.1041.0 1 1
opera60.0.3255.27 2 2
opera8.00 1 1
opera8.01 1 1
chrome11.0.696.3 1 1
firefox68.0 1 1
opera54.0.2952.64 2 2
safari12.0.3 38 17
chrome22.0.1216.0 4 4
chrome60.0.3112.90 1 1
chrome43.0.2357.93 3 2
chrome67.0.3396.79 3 3
opera36.0.2130.32 9 9
chrome66.0.3359.158 87 5
opera18.0.2254.106200 1 1
chrome51.0.2728.59 1 1
firefox38.0 3 3
msie9.0 52 52
opera10.10 1 1
chrome73.0.3683.86 845 560
firefox21.0 1 1
safari9.0 6 5
firefox40.1 102 102
opera54.0.2952.51 9 9
chrome59.0.3071.115 6 5
chrome40.0.2214.93 1 1
firefox48.0 2 2
chrome70.0.3538.80 4 4
chrome65.0.3325.181 295 183
opera11.62 1 1
chrome55.0.2883.87 8 7
firefox50.0 2 1
chrome72.0.3626.109 7 7
firefox62.0 6 6
chrome61.0.3163.128 18 7
chrome52.0.2743.116 2 2
chrome11.0.654.0 1 1
chrome10.0.611.0 1 1
opera53.0.2907.68 8 8
firefox22.0 1 1
chrome62.0.3202.84 78 4
chrome72.0.3626.76 4 4
chrome60.0.3112.101 4 4
chrome50.0.2661.102 37 37
chrome67.0.3396.99 14 12
chrome29.0.1547.0 1 1
chrome49.0.2623.112 16 16
firefox43.0 33 22
msie7.0 120 61
chrome57.5.0680.4328 1 1
chrome26.0.1410.63 6 6
chrome66.0.3359.117 7 7
chrome69.0.3497.92 2 2
chrome67.0.3396.87 126 38
chrome66.0.3359.106 10 3
opera54.0.2952.54 4 4
opera58.0.3135.132 45 9
firefox52.0 193 144
msie5.01 2 2
firefox60.0 9 6
chrome59.0.3071.125 12 11
msie10.6 1 1
chrome71.0.3578.98 6 5
chrome63.0.3239.132 55 49
msie8.0 17 10
firefox64.0 21 9
chrome40.0.2214.85 3 3
chrome64.0.3282.140 1 1
firefox59.0 5 5
chrome68.0.3440.106 19 18
chrome38.0.1025.166 8 1
chrome70.0.3538.67 4 0
chrome68.0.3440.75 24 7
safari12.1 390 137
chrome63.0.3239.0 26 0
msie11.0 130 53
chrome64.0.3282.137 1 1
chrome55.0.2883.95 1 0
opera42.0.5639.0367 1 1
chrome56.0.2924.87 4 0
chrome49.5.2623.92 1 1
edge15 10 8
firefox27.0 5 5
chrome70.0.3538.102 4 3
firefox45.0 7 7
chrome72.0.3626.121 103 38
msie10.0 66 32
iphone 7 3
chrome34.0.1847.116 5 5
chrome68.0.3440.84 6 6
chrome71.0.3578.80 26 22
safari12.0.2 5 1
opera54.0.2952.71 5 5
mozilla 30 26
chrome51.0.2704.106 5 4
firefox54.0 8 8
chrome49.0.2623.110 3 1
chrome61.0.3163.100 30 30
edge17 127 33
chrome53.0.2785.104 2 0
firefox15.0.1 2 2
chrome41.0.2228.0 2 2
chrome73.0.3683.103 876 456
netscape 2 2
chrome66.0.3359.66 2 2
chrome70.0.3538.77 7 7
msie5.5 5 5
chrome69.0.3497.100 200 28
opera60.0.3255.59 1 1
firefox47.0 21 21
firefox25.0 1 1
chrome55.0.2883.75 3 3
opera37.0.2192.112031 62 1
edge16 15 9
chrome53.0.2785.134 1 0
chrome45.0.2454.93 2 2
firefox 1 1
chrome43.0.2376.69 1 1
chrome58.0.3029.110 6 6
firefox52.9 3 3
chrome54.0.2840.85 14 4
chrome23.0.1271.95 3 3
chrome67.0.3396.62 2 2
chrome74.0.3729.108 31 19
chrome66.0.3359.139 4 4
chrome71.0.3578.99 15 11
firefox55.0 8 8
firefox39.0 1 1
safari10.0 19 4
safari8.0 1 1
chrome71.0.3578.83 6 1
firefox18.0 2 2
wap 4 4
opera49.0.2725.47 1 1
chrome57.0.2987.108 1 1
opera9.01 1 1
chrome45.0.2454.101 9 7
cloudflare 169 91
safari 194 54
opera9.00 2 2
firefox44.0 2 1
chrome53.0.2785.143 1 1
msie6.0 22 22
chrome66.0.3359.181 51 51
chrome74.0.3729.112 11 2
opera53.0.2907.99 2 2
msie5.0 3 3
chrome10.0.638.0 1 1
firefox27.3 2 2
chrome53.6.0622.5350 1 1
opera11.01 1 1
chrome68.0.3440.91 73 17
chrome12.0.742.112 1 1
android 1 1
chrome44.0.2403.89 1 1
chrome63.0.3239.84 17 4
firefox65.0 25 19
firefox34.0 5 5
chrome42.0.2311.90 13 13
safari4.6.1 1 1
chrome63.0.3239.111 74 7
edge18 24 4
chrome54.0.2840.68 1 1
chrome33.0.1750.154 1 1
chrome28.0.1467.0 1 1
chrome36.0.1985.125 5 4
chrome34.0.1847.131 1 1
safari12.0 228 68
chrome48.0.2564.10 3 2
END_BROWSER

# Screen size - Hits
BEGIN_SCREENSIZE 0
END_SCREENSIZE

# Unknown referer OS - Last visit date
BEGIN_UNKNOWNREFERER 31
ltx71_-_(http://ltx71.com/) 20190430132429
Mozilla/5.0_(compatible;_NetcraftSurveyAgent/1.0;__info@netcraft.com) 20190404150012
Go-http-client/2.0 20190429161917
WordPress/5.1.1;_https://allaboutearth.net 20190415051711
Mozilla/5.0_(compatible;_ips-agent) 20190407005651
python-requests/2.20.1 20190403155031
python-requests/2.17.3 20190429211825
MixnodeCache/1.8(_https://cache.mixnode.com/) 20190424220917
Mozilla/4.0_(compatible;_Netcraft_Web_Server_Survey) 20190430234358
ia_archiver 20190425073254
Foo 20190418200131
python-requests/2.21.0 20190430103055
node.io 20190420050639
The_Knowledge_AI 20190421215620
Mozilla/5.0_(compatible;_Daum/4.1;__http://cs.daum.net/faq/15/4118.html?faqId=28966) 20190418050653
WhatsApp/2.18.341_A 20190418153647
SEMrushBot 20190426114629
Mozilla/5.0_(compatible;_Google-Site-Verification/1.0) 20190413144104
python-requests/2.18.4 20190420035800
Mozilla/5.0_(compatible;_Dataprovider.com) 20190427065625
Go-http-client/1.1 20190426174943
Ruby 20190411032737
Mozilla/5.0_(compatible;_CloudFlare-AlwaysOnline/1.0;__http://www.cloudflare.com/always-online)_AppleWebKit/534.34 20190428204134
lbWappalyzer 20190412185203
Mozilla/4.0_(compatible;__Vagabondo/4.0;_http://www.wise-guys.nl/) 20190426032750
WhatsApp/2.19.81_A 20190411133118
Python/3.6_aiohttp/3.5.4 20190419205952
Mozilla/5.0_(compatible;_CloudFlare-AlwaysOnline/1.0;_http://www.cloudflare.com/always-online) 20190428204132
Mozilla 20190422233732
Mozilla/5.0_(compatible;_Yeti/1.1;__http://naver.me/spd) 20190426101250
Mozilla/5.0_(compatible;_Prlog/1.0;__http://prlog.ru/) 20190429101318
END_UNKNOWNREFERER

# Unknown referer Browser - Last visit date
BEGIN_UNKNOWNREFERERBROWSER 21
ltx71_-_(http://ltx71.com/) 20190430132429
ia_archiver 20190425073254
Foo 20190418200131
Microsoft_Office_Word_2014 20190423195444
node.io 20190420050639
python-requests/2.21.0 20190430103055
WhatsApp/2.18.341_A 20190418153647
The_Knowledge_AI 20190421215620
WordPress/5.1.1;_https://allaboutearth.net 20190415051711
Go-http-client/2.0 20190429161917
Microsoft_Office_Word_2013 20190418152443
Microsoft_Office_Excel_2014 20190417171739
python-requests/2.18.4 20190420035800
SEMrushBot 20190426114629
Go-http-client/1.1 20190426174943
Ruby 20190411032737
python-requests/2.20.1 20190403155031
python-requests/2.17.3 20190429211825
MixnodeCache/1.8(_https://cache.mixnode.com/) 20190424220917
WhatsApp/2.19.81_A 20190411133118
Python/3.6_aiohttp/3.5.4 20190419205952
END_UNKNOWNREFERERBROWSER

# Origin - Pages - Hits 
BEGIN_ORIGIN 6
From0 1475 1720
From1 10 10
From2 648 667
From3 63 63
From4 1443 4587
From5 0 0
END_ORIGIN

# Search engine referers ID - Pages - Hits
BEGIN_SEREFERRALS 21
www_google_cz 1 1
www_google_com_hk 3 3
baidu 19 20
www_google_lk 51 54
www_google_com 533 546
www_google_co_in 6 6
www_google_com_lb 2 2
www_google_de 2 2
bing 6 6
www_google_co_uk 5 5
int_search_myway_com 1 1
www_google_com_au 2 2
www_google_fr 5 5
www_google_nl 4 4
images_search_yahoo_com 0 2
www_google_ie 1 1
yandexru 3 3
www_google_se 1 1
www_google_dk 1 1
www_google_it 1 1
www_google_pt 1 1
END_SEREFERRALS

# External page referers - Pages - Hits
# The 25 first Pages must be first (order not required for others)
BEGIN_PAGEREFS 48
https://traveltriangle.com/blog/restaurants-in-bentota/ 5 5
https://checkintuneout.com/2019/01/07/sri-lanka/ 4 4
https://srilankanroadtrip.com/itrip/tour.php 3 3
http://shanti.toogo.in/public/yourtrip/FREREMagali 2 2
https://www.team-bhp.com/forum/travelogues/206926-nine-days-sri-lanka-honda-shuttle-hybrid.html 2 2
http://glass-system.ru 2 2
http://eropho.com 2 2
https://pk-services.ru 2 2
https://lalalove.ru 2 2
https://www.timeout.com/sri-lanka/hotels/randholee 1 1
https://filmi-v.online 1 1
https://hereyourbeauty.com 1 1
https://credit.co.ua 1 1
http://prlog.ru/analysis/randholeeresorts.com 1 1
http://shanti.toogo.in/public/yourtrip/FREREMagaliV4 1 1
https://zaim-pod-zalog-krasnodar.ru 1 1
https://vzubah.com 1 1
https://travefy.com 1 1
https://ukrpostindex.com.ua 1 1
https://beclean-nn.ru 1 1
https://tralgy.com/holiday-packages/Scenic-Ceylon-3Nights-4days-Sri%20Lanka/MjAzNzEhISF4eHh4eHh4eHh4eHh4eHh4/ 1 1
https://jav-idol.com 1 1
https://www.tripadvisor.com 1 1
https://en.wikivoyage.org/wiki/Kandy 1 1
https://travelboutique.nl/bestemmingen/sri-lanka-boutique/reissuggestie-sri-lanka-1/ 1 1
http://shanti.toogo.in/public/yourtrip/BILLIONChristine1 1 1
http://m.facebook.com 1 1
https://jyvopys.com 1 1
https://tamada69.com/glavnaya/tamada/ 1 1
http://top10-online-games.com 1 1
https://l.facebook.com 1 1
https://ukrtvir.com.ua 1 1
https://banking.vc 1 1
https://www.netcraft.com/survey/ 1 1
https://jav-way.site 1 1
http://pornowarp.info 1 1
https://mgn.dantk.ru/visa/viza-vo-franciyu/ 1 1
https://zabota-zp.com.ua 1 1
https://belarusy.net 1 1
https://javlibrary.cc 1 1
https://veles.shop 1 1
http://www.iciis.org/Accommodation.html 1 1
https://pro-poly.ru 1 1
http://www.free-website-traffic.com/randholeeresorts.com 1 1
http://www.deluxholidays.com/tour-packages-inner.php 1 1
http://pornowarp.info 1 1
https://www.dan-invest.ru 1 1
https://zagadki-rus.ru 1 1
END_PAGEREFS

# Search keyphrases - Number of search
# The 10 first number of search must be first (order not required for others)
BEGIN_SEARCHWORDS 25
randholee+resort+kandy 3
hopeunm 1
tobacco2qi 1
brassj2t 1
lawib8 1
examinesbc 1
randholee+resort+and+spa 1
stuckeca 1
randoli 1
particularlyuju 1
attemptmhy 1
duckcry 1
quietly54m 1
breathingf1q 1
couldyfv 1
fireplace1nc 1
wildey6 1
ordinary4dr 1
hotel+randoli+kandy 1
telephonemwy 1
thatw7y 1
7849cc8f 1
randholle+resort+kandy 1
zxjn 1
ifqp 1
END_SEARCHWORDS

# Search keywords - Number of search
# The 25 first number of search must be first (order not required for others)
BEGIN_KEYWORDS 28
kandy 5
resort 5
randholee 4
randoli 2
hotel 1
stuckeca 1
examinesbc 1
lawib8 1
hopeunm 1
brassj2t 1
tobacco2qi 1
spa 1
quietly54m 1
duckcry 1
particularlyuju 1
attemptmhy 1
fireplace1nc 1
wildey6 1
ordinary4dr 1
couldyfv 1
randholle 1
breathingf1q 1
7849cc8f 1
telephonemwy 1
thatw7y 1
zxjn 1
and 1
ifqp 1
END_KEYWORDS

# Errors - Hits - Bandwidth
BEGIN_ERRORS 3
301 42 11718
500 4 0
302 6556 148613559
END_ERRORS

# URL with 404 errors - Hits - Last URL referrer
BEGIN_SIDER_404 0
END_SIDER_404

# Host - Pages - Hits - Bandwidth - Last visit date - [Start date of last visit] - [Last page of last visit]
# [Start date of last visit] and [Last page of last visit] are saved only if session is not finished
# The 25 first Hits must be first (order not required for others)
BEGIN_VISITOR 1486
34.76.75.228 142 171 5408485 20190419205952
174.127.135.130 57 57 1587320 20190412023345
62.210.201.91 51 104 4212156 20190426082130
43.242.116.58 46 52 2013000 20190402132052
209.141.53.185 37 37 1201203 20190415071101
35.202.223.242 37 38 987126 20190404220513
52.53.211.151 31 31 925673 20190424023828
124.43.18.225 29 29 890177 20190429153407
162.158.65.10 26 31 961124 20190415195317
162.158.66.18 26 35 1336087 20190407093924
162.158.65.240 26 33 916856 20190424110925
152.115.73.202 24 24 656889 20190411002812
60.191.38.77 21 21 681695 20190430063100
124.43.12.112 20 22 741271 20190430120711
203.98.106.124 20 20 814396 20190418200131
159.65.45.108 19 23 644318 20190420135154
45.55.241.155 19 36 1353131 20190415175052
5.196.64.109 19 19 519137 20190416021912
220.247.240.149 19 19 583623 20190421162019
159.203.109.81 18 35 1320666 20190401075839
159.65.46.162 18 35 1320666 20190425061938
165.227.222.39 18 35 1320666 20190406022103
138.197.3.124 18 18 510966 20190401101128
165.227.208.121 18 18 510966 20190428121228
138.197.6.55 17 17 478501 20190415000305
103.249.233.212 1 1 32479 20190408171915
185.219.168.163 1 1 32465 20190411011622
112.134.224.34 1 1 32465 20190427095325
119.235.0.197 1 1 32465 20190411214650
64.202.160.250 7 7 191970 20190410160652
116.206.244.228 1 1 32465 20190411134846
170.78.86.6 1 1 32465 20190425035830
175.157.42.64 2 2 64925 20190402132529
124.43.69.195 2 2 57194 20190410150112
49.206.120.112 7 7 232564 20190421173904
111.206.36.141 1 1 32465 20190419144353
208.80.194.42 1 1 32479 20190419193104
112.135.172.119 1 1 32465 20190413205855
112.135.125.51 4 4 122628 20190419153646
2.230.247.84 1 1 32465 20190411131614
34.219.103.249 1 1 32461 20190408154030
2402:4000:1080:5f40:25f6:87ac:460b:ed50 6 8 180857 20190417173915
31.4.212.117 2 2 64930 20190407021308
67.227.110.239 1 1 32461 20190425151230
104.222.33.241 1 1 32461 20190418182417
112.134.157.101 5 5 162320 20190411162025
112.134.133.211 2 2 62863 20190419070813
61.245.160.188 1 1 32460 20190419220653
78.100.170.248 1 1 32465 20190424004036
54.149.223.164 1 1 32460 20190412171147
5.39.85.81 1 1 32464 20190410081908
89.164.213.56 1 1 32465 20190424031024
112.135.174.64 9 9 237245 20190418130213
2402:4000:2081:d093:595f:37ae:c02d:b78f 1 1 32465 20190418170712
123.231.52.198 2 5 112945 20190408094504
27.5.28.40 1 1 32465 20190410234315
86.88.118.4 1 1 32465 20190405212213
175.157.108.32 5 8 284204 20190421174453
42.236.10.72 1 1 32464 20190430020729
142.93.184.127 15 31 1168553 20190410214538
5.35.19.247 1 1 41873 20190417172522
41.82.0.203 1 1 32465 20190428160448
175.157.152.247 2 2 64925 20190405154542
175.157.14.46 3 7 82124 20190416124231
89.75.145.99 1 1 32465 20190429180619
112.134.224.55 3 3 97390 20190417155851
112.134.49.115 2 5 343354 20190423071129
2400:cb00:36:1044::a29e:419a 1 2 169761 20190424045024
92.184.104.39 2 2 52985 20190409220036
2402:4000:2080:94c3:e961:1aaf:5061:6ae0 1 1 32465 20190417094602
86.96.201.89 1 1 32479 20190411145643
2402:d000:a200:58d8:2d20:8b28:c442:75fb 1 1 41873 20190404094123
37.35.166.14 3 3 97380 20190418233252
52.40.134.21 1 1 32461 20190419205634
123.231.105.57 4 9 196292 20190401111137
43.250.241.223 4 4 141384 20190416191302
5.62.155.185 1 1 32461 20190428082732
125.64.17.166 2 2 64930 20190417070518
112.134.160.252 1 1 32465 20190429124130
212.28.248.51 13 17 380184 20190408140929
34.222.122.92 1 1 32461 20190422152438
34.83.23.183 2 2 64930 20190427163452
87.67.10.103 1 1 32465 20190411184751
185.35.181.209 1 3 42623 20190415150304
2402:4000:2180:f220:e9f1:c862:6370:6307 1 1 32465 20190401171210
175.157.13.223 7 7 191248 20190412223307
124.43.16.118 7 7 238834 20190404114455
134.209.150.20 0 6 248082 
49.178.46.181 2 50 10033384 20190406123620
112.134.38.203 1 1 32460 20190403165106
188.70.19.185 1 1 32465 20190408163450
2402:4000:2381:4eae:437:de2c:3ab5:fe65 2 2 76464 20190419002824
144.217.171.229 0 4 37088 
86.93.69.243 13 54 9320725 20190413161653
41.150.5.106 1 14 293318 20190417175452
37.17.172.132 1 1 29902 20190419021419
112.134.190.39 4 4 139277 20190402151108
203.189.69.202 1 1 32465 20190405205918
59.96.99.191 1 3 73684 20190412151251
88.243.149.156 1 1 32465 20190427024826
2400:cb00:36:1028::a29e:4357 1 4 536771 20190420072552
92.240.130.107 5 5 197671 20190403045036
168.91.91.84 1 1 41855 20190415110050
144.168.162.250 1 1 32479 20190420024858
46.229.168.33 1 1 32461 20190429101318
123.231.71.130 3 9 207444 20190412103156
200.118.248.132 1 1 32465 20190429002252
13.52.181.153 0 3 11181 
69.197.162.90 1 1 32461 20190412203505
34.213.139.71 1 1 32460 20190423205811
110.224.33.190 1 1 32465 20190401130828
2a02:c7f:a2a:fa00:24b5:47f:e2cd:7c 1 1 32460 20190412190653
185.19.58.222 3 9 687458 20190404183710
2a02:c7f:223f:6500:a965:c993:eef7:e813 1 1 32465 20190423163020
61.6.233.15 1 1 32465 20190416150806
115.167.49.35 1 1 32465 20190425164530
175.157.243.81 2 3 66772 20190410101854
34.222.253.78 1 1 32460 20190418160922
199.30.228.132 0 1 137300 
197.95.198.160 1 1 32465 20190404192940
52.43.179.152 1 1 32460 20190427183629
165.227.234.13 1 1 32461 20190430001601
151.106.10.137 2 2 85119 20190411131239
61.245.165.10 1 3 174595 20190404152440
37.25.112.160 0 1 137536 
14.215.176.9 0 2 109895 
2400:cb00:36:1009::a29e:4105 0 8 51719 
2402:4000:2080:47ad:b0fd:1ac2:8e52:817f 1 1 32465 20190402170953
116.255.153.245 1 1 32465 20190415035136
117.97.174.99 1 6 438132 20190401105222
42.51.196.39 1 1 32479 20190403013035
91.224.48.48 1 1 32465 20190413205629
2402:4000:2180:9480:6425:25c4:3dbd:d212 4 5 115323 20190419113907
221.213.75.185 1 1 32479 20190430134733
2402:4000:2081:8322:1c2d:3c41:9a22:434c 5 7 179545 20190421133219
217.69.5.32 1 1 41873 20190405201907
2a03:2880:11ff:13::face:b00c 0 1 94574 
123.231.121.43 1 1 32465 20190412100907
122.255.9.131 2 3 69434 20190417135001
106.120.173.143 2 2 79088 20190403015255
175.157.168.242 2 4 388383 20190407150626
115.239.212.139 1 1 32465 20190416012816
191.37.5.77 4 4 120102 20190401155814
190.151.168.156 1 1 32465 20190402085437
103.26.83.214 1 1 32465 20190414030834
103.2.150.77 2 64 9560191 20190407150806
66.102.6.80 1 1 32479 20190401085607
175.157.28.39 2 2 64930 20190419205058
203.189.72.155 1 1 32465 20190401132056
37.59.55.45 1 1 32464 20190423055928
110.10.129.209 1 1 32465 20190428212858
165.225.106.90 2 2 64930 20190418125934
185.189.113.44 2 2 84069 20190404075158
45.77.249.108 1 1 32461 20190414022828
2402:4000:2081:94db:995f:5e08:7c02:6539 0 1 80372 
112.135.114.93 2 2 64944 20190404114108
123.2.211.47 5 6 194175 20190414050757
2402:d000:a200:6fac:2056:a8ac:dbbf:2e6d 1 1 25546 20190403121636
27.61.191.216 2 2 70697 20190419150614
2402:4000:2181:477a:8c7d:8956:a31b:d6f8 1 1 24783 20190412202509
151.68.109.172 1 5 175892 20190418172011
23.226.211.31 1 1 32461 20190417181514
112.134.38.184 0 1 50428 
203.133.168.241 5 10 649432 20190406220039
2001:980:4e92:1:e43b:76e7:4a14:6945 1 1 0 20190412010134
81.92.206.134 3 3 117912 20190411071342
112.134.210.89 2 2 58066 20190414115557
68.205.219.77 0 1 94913 
123.231.124.111 3 3 97395 20190403182457
65.155.30.101 1 1 32465 20190402232534
89.100.8.78 1 2 31490 20190421164046
129.205.195.3 1 1 32465 20190429112053
112.5.248.168 1 1 32479 20190412023849
54.165.90.203 2 2 64925 20190425073254
89.149.175.8 1 1 26801 20190403185844
2a02:a03f:5296:5400:6146:e50f:45d0:6091 1 2 170001 20190408120942
185.105.43.119 6 15 1120057 20190414202832
203.94.90.2 6 6 204193 20190430093345
52.25.234.0 1 1 32460 20190402162233
38.100.21.69 1 1 32465 20190411064428
123.231.106.230 7 7 199205 20190405170825
175.157.73.181 1 11 2866262 20190427075626
34.220.40.173 1 1 32461 20190405071326
112.135.10.18 1 6 158464 20190427151506
42.111.31.83 2 5 70692 20190419085839
34.214.98.93 1 1 32460 20190420204205
112.135.168.17 2 2 64925 20190430114833
51.15.103.203 2 2 64930 20190417055850
2400:cb00:36:1010::a29e:412a 0 1 20219 
82.102.18.139 2 2 84069 20190407163224
123.231.86.68 6 6 180324 20190413114342
122.179.159.110 3 5 91746 20190416201510
124.43.11.224 2 2 64930 20190408120517
113.193.38.203 1 1 32479 20190401150128
203.81.99.131 2 2 32460 20190417171739
34.222.160.86 1 1 32460 20190413152604
123.231.122.193 1 1 32465 20190402152137
3.122.59.156 1 1 32465 20190416202625
2405:201:1800:c463:c8c2:e633:91c6:e48d 1 1 38232 20190419135125
46.239.38.107 1 1 32465 20190402163645
92.28.74.146 1 1 32460 20190411175711
121.244.91.23 1 1 32461 20190402023446
46.17.84.31 3 10 396384 20190423195450
2a02:c7f:a2a:fa00:455b:cc88:16f3:c205 2 2 64920 20190402195118
84.74.168.90 1 1 32460 20190407121834
46.147.156.89 1 17 846723 20190401214846
83.132.167.198 11 11 295663 20190418184119
2402:d000:a200:66c6:a44b:834b:4296:dc14 3 3 85450 20190418162737
104.198.97.22 2 76 10087982 20190403064854
43.250.242.165 1 1 32465 20190417080825
42.236.10.84 2 3 173256 20190404083707
42.236.10.107 1 1 32460 20190420011214
103.48.101.36 1 1 32465 20190411120747
120.131.10.157 4 4 129860 20190404223551
112.134.224.69 2 2 64925 20190418123710
168.187.161.57 1 1 32465 20190422114834
49.205.47.74 1 68 10148316 20190416135309
171.48.24.16 1 1 32465 20190416164607
123.231.13.164 2 2 64925 20190402120933
112.134.37.20 2 3 51427 20190419195102
5.102.222.226 5 5 129234 20190409223008
175.157.117.17 1 1 32460 20190413165231
42.236.10.83 2 2 64929 20190428180723
203.143.8.46 0 2 88877 
2408:8214:7a00:8ae5:f455:743a:22fe:4e14 4 4 129860 20190421080202
124.43.23.136 3 3 85450 20190418142342
112.134.39.161 2 2 61062 20190429061807
54.184.51.78 1 1 32461 20190429161917
2606:6000:f581:1200:3d14:275b:9db5:c732 2 2 64930 20190410015127
5.196.31.237 2 2 64930 20190426023935
42.236.10.113 1 1 32464 20190402030029
122.57.245.0 1 1 32465 20190405040028
175.157.219.196 1 2 497535 20190421075825
202.47.50.98 1 1 32465 20190401162834
109.166.139.239 1 1 32465 20190408030828
14.215.176.15 1 1 32465 20190417021350
93.56.164.212 1 1 32465 20190410213047
122.170.175.181 1 1 32465 20190419140512
68.183.136.17 1 1 32465 20190402224832
2600:6c51:4280:87:2006:52b4:743a:a3d 0 2 169292 
180.97.35.58 1 1 32465 20190408023557
86.142.65.191 1 64 10104319 20190414193803
123.231.74.250 0 1 852 
2402:4000:11c5:20a7:c35:8a71:1439:f53f 2 11 1100297 20190425153557
54.213.202.240 2 2 64930 20190405021618
124.43.19.89 3 4 136982 20190430160900
34.217.193.199 1 1 32461 20190404131540
111.224.220.25 1 1 32461 20190430134254
106.201.239.114 8 8 243012 20190411113331
1.215.44.157 1 1 32465 20190410200028
14.0.154.117 9 10 263068 20190404130923
41.26.206.216 2 4 210786 20190408125010
112.135.116.141 1 1 25268 20190414113055
124.43.10.28 1 1 32465 20190425143618
31.184.194.114 12 12 389528 20190411032737
142.93.71.141 1 1 32465 20190404142112
112.135.8.234 1 1 38232 20190427100414
103.21.165.75 1 1 32465 20190424145810
2402:4000:2180:3233:c0:7948:1a5e:854 1 5 91004 20190403093943
51.144.173.136 2 2 64926 20190413223602
104.36.17.229 1 1 32461 20190403183504
2402:4000:10c4:1304:2:1:c728:447e 6 6 165349 20190415201856
123.231.61.254 1 1 32465 20190410201004
106.69.49.85 2 9 202897 20190405185621
111.223.158.125 2 6 810130 20190412234932
113.193.37.27 6 6 164090 20190408154445
116.255.152.184 1 1 32465 20190428052137
112.135.109.122 2 2 64925 20190418154312
2402:4000:1080:2933:2:2:f2c6:c63a 5 87 11646740 20190424071033
2400:cb00:36:1043::a29e:4317 0 6 128197 
112.134.156.18 3 3 97380 20190411102526
52.64.156.81 6 6 194874 20190417135002
124.121.213.156 1 1 32465 20190420131911
103.247.50.180 1 1 32465 20190424175330
185.104.185.81 1 1 32461 20190421073601
31.204.181.238 2 2 84720 20190406003423
112.134.44.101 3 3 89713 20190406154348
113.63.125.44 1 1 32461 20190430040457
123.231.110.222 2 2 74333 20190408095147
59.102.78.210 3 13 298946 20190414105749
37.126.110.48 1 1 32465 20190417225305
120.17.200.104 4 8 252305 20190406085829
2a00:1028:8384:20e2:cc15:d71a:df5c:49be 1 1 32465 20190404185212
66.160.140.183 1 1 32465 20190418061046
52.43.246.200 1 1 32461 20190423163114
128.127.104.80 1 1 32460 20190411233345
175.157.23.157 2 2 57096 20190413225700
112.135.230.253 2 2 74333 20190412133548
23.108.45.117 2 2 64920 20190429174030
78.128.123.176 1 1 32465 20190425191343
165.227.234.115 1 1 32461 20190408001601
8.28.16.254 3 3 97437 20190417095430
182.185.38.150 1 1 32465 20190404184406
2400:cb00:36:1010::a29e:4131 1 1 32464 20190428204132
2a00:1178:1:43:8000:0:b269:7db1 1 1 32465 20190423153729
203.171.228.159 1 1 32465 20190421114706
106.120.173.98 0 1 126000 
2402:4000:2082:bbdb:5ded:3ba5:8503:b4fe 1 1 25243 20190420092436
123.231.125.96 1 1 32465 20190423111252
2402:4000:11c4:4177:ddb7:7ae1:b123:b489 1 1 41873 20190416211842
195.158.101.52 1 1 32465 20190416144253
2402:4000:10c4:478f:2:2:d4d1:c459 1 1 32465 20190418154757
42.236.10.89 1 1 32464 20190411010559
64.233.172.219 1 1 32465 20190425003031
123.249.7.34 2 2 64930 20190404085729
51.36.32.3 1 2 32465 20190417202635
188.48.212.208 3 3 83427 20190402214439
112.135.178.207 1 1 32465 20190412120130
82.102.18.146 2 2 84069 20190407163224
2402:4000:2180:b5f5:1c91:d8d5:9931:997a 1 1 32465 20190416073452
123.231.127.94 1 11 1151486 20190423214216
185.212.168.189 2 2 84069 20190402163330
178.149.220.43 1 1 32465 20190420100407
178.162.203.168 2 2 85991 20190415175644
46.229.161.131 6 6 188441 20190425030705
89.148.19.66 0 6 224139 
17.110.171.17 1 1 32465 20190405165752
54.37.78.0 1 1 32465 20190420153828
111.206.36.16 0 2 10059 
5.30.203.163 1 1 32465 20190413175316
123.231.107.46 1 1 32465 20190424130503
185.12.7.66 1 1 32461 20190424174520
165.225.104.107 1 1 32465 20190411163826
27.54.161.134 3 6 84508 20190418113805
124.43.69.11 1 1 32465 20190412153752
34.220.116.124 1 1 32460 20190417192722
124.43.17.147 2 2 64925 20190410123157
2402:4000:2082:c1d8:1cb6:881c:5e7e:2f73 1 1 32465 20190417103109
112.135.124.135 2 2 64930 20190420114927
18.194.88.110 2 2 64920 20190402064608
66.7.149.135 3 3 97383 20190406213907
112.134.224.10 1 1 32465 20190426144159
103.89.64.18 1 1 32465 20190402202818
18.236.248.211 1 1 32461 20190403164855
203.115.13.10 1 1 32465 20190418193212
2400:cb00:36:1034::a29e:44d5 2 2 64929 20190424045024
185.152.66.226 3 3 118313 20190424153353
2a03:2880:21ff:28::face:b00c 0 1 20215 
2400:cb00:36:1005::a29e:4091 0 4 117176 
2402:4000:11c4:2663:bc20:2f30:8235:b064 6 8 398679 20190415163001
222.117.242.122 1 1 32465 20190415062033
123.176.23.178 0 1 137536 
160.219.10.250 3 44 3361190 20190412201714
2602:306:b8ed:44c0:cd8b:1924:57f0:2f76 3 24 1225173 20190430120758
52.27.47.99 1 1 32461 20190417152536
5.62.61.173 1 1 32461 20190417004609
88.198.39.184 1 1 32460 20190413105020
50.56.81.58 3 3 97395 20190418171303
213.200.235.94 11 27 1212958 20190420082417
112.134.192.38 1 1 32465 20190406210053
185.17.149.137 2 2 84069 20190419134223
54.185.205.84 1 1 32461 20190402115612
138.197.96.182 1 1 32465 20190421012341
2400:cb00:36:1002::a29e:4031 1 1 32461 20190407032051
105.227.103.236 1 1 32465 20190423064407
2409:4042:2212:30b4:b96a:2c0:1bdf:f555 1 1 32465 20190406155332
175.45.118.198 0 1 137536 
176.166.142.218 1 2 33331 20190426214443
82.102.18.148 4 4 168692 20190428112430
5.171.104.198 0 1 116 
125.209.235.179 0 2 1028838 
112.134.5.90 3 3 106793 20190416130952
175.157.64.26 1 1 29902 20190418155212
203.81.96.5 1 7 575109 20190417161013
203.217.243.130 1 1 32479 20190407070316
103.80.1.37 1 1 32465 20190427103327
2402:4000:2181:8cf3:6485:9ff7:62df:6923 2 2 64928 20190417163823
46.118.157.179 1 1 32461 20190418154806
123.63.203.52 8 14 256899 20190401154854
123.231.122.130 9 12 405955 20190428171844
182.161.18.140 6 6 190783 20190413160920
18.237.87.26 1 1 32461 20190420154907
38.132.117.195 1 1 32465 20190415142415
112.135.47.48 1 1 26126 20190408080403
142.93.191.243 0 4 141460 
175.157.149.89 1 4 541644 20190409154423
113.59.213.46 1 1 32465 20190404094525
66.102.6.94 0 1 8311 
34.219.24.153 1 1 32461 20190410140350
47.111.17.168 2 2 64930 20190419055846
2001:4ca0:108:42::5 3 3 97382 20190426230235
79.183.84.157 1 1 32465 20190419190849
83.49.150.221 1 1 24783 20190401170652
46.101.73.75 1 1 32461 20190422001606
2a03:2880:21ff:17::face:b00c 1 1 32461 20190420144633
54.185.107.252 1 1 32461 20190418123755
162.158.65.154 0 1 137536 
61.245.170.234 1 1 32465 20190418161939
159.69.107.166 3 3 97395 20190425093631
112.135.255.191 1 1 32465 20190403093301
54.69.250.23 1 1 32460 20190404170049
182.16.156.65 1 1 32465 20190413131117
162.243.171.95 1 1 32461 20190422233732
162.158.68.209 0 1 137536 
66.102.6.207 2 2 64958 20190412113745
42.236.10.122 1 1 32464 20190420011234
104.155.79.59 1 1 32461 20190407120720
54.218.18.22 1 1 32461 20190425161416
112.135.183.161 2 2 52402 20190408160621
2001:4c4e:2501:a00:1d14:5762:2d83:8c50 1 1 32465 20190428192600
182.161.2.129 1 1 32465 20190429104446
54.244.194.141 1 1 32461 20190415135052
185.189.113.46 2 2 84069 20190402160643
124.43.94.30 2 2 61062 20190417141844
93.160.60.32 3 3 97395 20190425222919
134.209.164.104 1 1 32464 20190404144537
209.250.231.61 1 1 32461 20190421001554
37.47.203.127 2 2 64930 20190401181323
185.127.181.48 3 3 97395 20190420130520
2401:4900:2759:b5b3:3d7c:a27:292e:5ec9 1 1 24783 20190408154449
175.157.246.38 5 5 167774 20190405124520
2804:14d:5c2f:9706:7df3:90fa:efe:3918 1 1 32465 20190428124711
112.135.232.40 3 3 102835 20190428134056
112.134.68.64 1 1 32479 20190415083643
175.157.173.54 8 9 306795 20190410141719
112.134.4.175 3 3 90201 20190429214232
109.67.212.111 1 1 32465 20190421154820
203.192.233.231 1 1 32465 20190420062932
123.231.93.34 3 3 116211 20190425133746
14.215.176.138 1 1 32465 20190428050810
89.133.236.254 1 1 32465 20190402104453
188.165.196.25 1 1 32465 20190418184505
178.128.81.230 1 8 128987 20190429115751
175.157.165.132 1 1 32465 20190415165758
184.71.131.30 1 1 32465 20190403073716
43.250.241.136 1 1 32465 20190414200236
103.86.109.41 2 2 64944 20190427234529
123.231.84.185 7 7 196505 20190401011018
198.52.133.208 0 9 457497 
112.135.162.201 1 1 32465 20190401093544
128.14.227.182 1 1 32465 20190430030150
165.225.106.104 1 1 41873 20190418125937
2405:204:93ab:a62f:c997:95a5:8be:ab67 1 2 48498 20190405115039
2401:4900:3149:8059:0:1e:bb49:4a01 3 5 227911 20190425135046
213.202.68.215 2 3 27717 20190412204152
2600:1700:87d0:4630:8550:5701:e59b:5d48 3 5 108716 20190403084037
60.215.24.146 3 3 97395 20190414065048
64.233.172.210 1 1 32465 20190422032115
106.76.80.174 2 2 57243 20190410150310
112.134.105.23 2 2 64925 20190417121538
72.80.29.181 1 1 32461 20190424015050
52.53.185.124 1 1 32461 20190418052759
202.124.188.185 1 1 32465 20190411111633
2402:4000:1180:3082:20d0:7ac:b74c:66e8 1 2 32460 20190427095202
222.221.154.135 1 1 32479 20190429232302
175.157.13.227 1 1 24783 20190412231723
47.94.223.32 2 2 64930 20190412081842
34.221.203.72 1 1 32461 20190413153212
112.134.153.8 1 1 32465 20190408093018
125.209.235.170 0 4 1189995 
59.97.7.235 4 9 323405 20190426171251
31.215.112.61 0 3 103533 
112.134.85.1 1 1 32465 20190405103723
112.134.82.48 1 1 32465 20190406214601
180.44.58.55 1 1 32465 20190405200655
88.157.202.143 2 13 1926076 20190423201820
2402:4000:10c4:8d2c:2052:3ecf:304f:cf44 1 4 191584 20190416112843
2401:4900:270b:1ed7:0:6f:5215:c01 1 9 498371 20190428112612
1.202.70.97 1 1 32465 20190429225003
2402:4000:2081:7e4b:4085:2ac2:5088:afa4 7 8 204240 20190409192151
77.111.246.70 0 12 1090520 
47.88.2.245 1 1 32465 20190426013434
185.130.184.208 2 2 84069 20190408113642
95.70.168.253 1 1 32465 20190407163824
213.32.113.76 1 1 32461 20190417001557
2402:4000:2181:e122:10a:8382:d309:5020 2 2 64930 20190418161803
168.167.79.91 1 1 32465 20190418002420
124.191.101.207 1 4 533497 20190416110800
112.134.87.21 6 6 204188 20190401162149
34.220.57.56 1 1 32460 20190405211939
138.197.111.124 0 2 17676 
175.157.156.254 2 2 62863 20190419090914
180.97.35.164 1 1 32465 20190424060932
66.102.6.65 0 1 137300 
27.56.145.198 1 2 170001 20190406131534
175.157.56.70 1 1 28597 20190410220607
123.231.126.159 1 1 32465 20190411095415
120.92.33.51 3 3 97395 20190426020816
112.134.175.248 2 2 62367 20190401111852
49.245.66.246 1 1 32465 20190404225624
162.243.184.225 1 1 32461 20190413005437
2400:cb00:36:1039::a29e:4719 1 2 34890 20190420072552
165.227.234.17 1 1 32461 20190410001715
122.255.29.26 13 16 451764 20190430105520
112.135.160.79 2 3 77334 20190406140208
43.250.241.158 1 1 32465 20190403104234
112.135.10.218 2 32 5978739 20190426152721
2001:41d0:403:2635:: 5 5 162320 20190426174943
112.134.47.59 1 1 32465 20190426205742
185.189.113.38 2 2 84069 20190407163223
125.209.235.185 0 2 562524 
2400:cb00:36:1008::a29e:40e8 1 2 35549 20190415131623
123.125.71.97 1 1 25294 20190416222820
83.232.59.88 2 3 57915 20190421233648
103.21.166.135 1 1 32465 20190428074029
51.77.152.216 10 14 571855 20190430104951
106.120.173.158 1 2 165544 20190401055529
111.223.160.72 1 1 32465 20190420183350
2402:d000:a000:f002:30de:f45:4ebd:cd90 1 1 32479 20190418144003
5.62.159.22 1 1 32461 20190428082538
54.242.113.30 1 1 32465 20190402112523
203.175.73.90 1 1 32465 20190402121219
188.29.164.91 5 17 890031 20190415224947
124.43.33.239 1 9 675013 20190401110132
46.235.158.196 1 1 32479 20190430145133
177.18.138.246 1 1 32465 20190420035800
2402:4000:2081:5b53:81f:e60f:f090:99ee 3 3 89426 20190416171800
85.115.60.202 1 2 169997 20190416110745
112.135.123.243 2 2 64925 20190423104838
178.137.17.250 10 10 324650 20190408004413
178.162.208.239 3 3 118331 20190406161843
119.39.46.30 1 1 32461 20190430055259
92.115.164.73 1 3 36319 20190426105405
203.143.11.18 1 1 32465 20190418140525
54.202.187.252 1 1 32460 20190422212339
103.241.27.11 9 17 555383 20190418103414
2a00:23c4:931a:a00:6921:eb91:543e:5713 1 1 32479 20190409163127
124.43.17.1 1 1 41873 20190430101624
193.34.52.218 1 1 32465 20190406150645
112.134.29.82 1 1 32479 20190405130145
175.157.14.245 2 2 64925 20190422135828
109.190.229.35 1 2 170000 20190415185942
203.143.27.52 2 3 81281 20190404164612
23.106.194.96 1 1 28465 20190415110044
46.101.80.192 5 5 150980 20190410184712
36.79.251.128 1 1 32465 20190402202506
203.115.20.212 3 3 97395 20190402124038
112.66.103.115 1 1 32464 20190430013202
112.134.160.160 1 1 32465 20190410170159
124.195.209.3 1 1 32479 20190426161239
13.231.9.183 2 2 64921 20190421065615
95.178.177.253 1 1 32465 20190428113647
112.134.134.0 1 1 32465 20190420154923
124.43.16.103 1 1 32460 20190408151629
175.157.24.228 2 2 64925 20190410145003
112.135.181.77 2 2 74338 20190430122838
66.160.140.184 1 1 32465 20190401041920
185.17.149.136 2 2 84069 20190410082202
94.96.149.11 1 1 32465 20190411211307
64.233.173.130 3 3 97380 20190419212244
2a02:8084:42c1:3200:58d0:51bf:1e1c:c58f 3 5 190211 20190414001103
107.6.171.130 2 2 64922 20190410090152
43.250.242.34 2 4 60171 20190415101916
192.116.166.6 3 4 94962 20190402014640
2a01:cb14:8566:de00:230:1bff:febe:7d78 2 2 58066 20190409233904
125.209.235.169 0 2 670996 
1.126.111.202 1 1 32460 20190427101344
112.135.249.147 1 1 32465 20190404150153
171.79.20.17 0 9 14977 
203.115.27.18 1 1 32465 20190426115349
119.235.0.196 1 2 68422 20190430123559
23.252.165.109 2 2 64930 20190420063935
175.157.167.188 8 60 8557679 20190409194141
13.57.233.99 9 9 292178 20190427061116
185.130.184.206 2 2 84069 20190410090518
79.106.17.46 1 1 32465 20190410094140
123.231.106.212 1 1 32465 20190426125622
77.111.246.61 1 1 32465 20190403134136
123.231.123.238 3 3 86300 20190401195247
2402:4000:13d1:3ec5:a03b:396a:c7:a9c6 4 7 206629 20190410174032
222.186.10.142 2 2 64930 20190410204025
129.213.91.213 3 3 97391 20190417175236
2400:cb00:36:1008::a29e:40ec 0 2 415980 
42.236.10.76 1 1 32461 20190422225603
2400:cb00:36:1001::a29e:451a 0 2 415980 
122.182.240.8 1 1 32465 20190419165745
82.201.92.134 1 1 0 20190418155327
217.33.17.226 1 1 32465 20190411153329
66.102.6.77 0 1 26540 
197.232.61.238 1 1 32465 20190420133052
49.207.49.32 1 1 32465 20190424155213
115.239.212.198 1 1 32465 20190401235718
43.250.241.48 1 1 32460 20190416134156
59.41.108.114 3 3 94841 20190410065145
49.7.58.28 1 1 32465 20190417152737
78.151.83.218 2 2 59266 20190401230618
134.209.118.241 1 1 32465 20190407151021
182.70.61.114 7 11 812371 20190420111746
139.59.20.176 2 2 64922 20190427123251
2402:4000:2181:996c:f8a1:15af:dc4:f32d 8 68 9644870 20190401092428
43.228.108.243 1 1 25268 20190425134435
2001:ce8:117:caa9:81:e522:b183:3c37 1 1 32465 20190415171522
106.45.1.126 2 2 64930 20190430004942
112.134.39.40 2 2 74338 20190411112524
46.165.220.246 2 2 64922 20190426080614
2001:8003:d43c:1400:a994:e608:dd6e:5f4b 3 3 97409 20190410170710
112.134.104.171 2 2 64925 20190416121957
165.227.227.77 1 1 32461 20190428001553
35.167.3.65 1 1 32460 20190430194811
37.115.184.19 2 2 52242 20190408043907
94.206.11.70 1 2 68422 20190414193536
119.94.176.78 1 1 32465 20190413095821
2a02:a445:6c75:1:3923:1c0a:aadc:11a6 1 1 38232 20190415164942
185.130.184.218 2 2 84564 20190404120055
212.32.245.142 2 2 64930 20190414052350
128.72.191.102 0 16 813649 
220.247.252.27 6 6 195971 20190417171740
144.217.99.65 0 3 9701 
138.68.147.194 1 1 32461 20190426001558
178.62.127.156 1 1 32461 20190429001557
176.23.8.5 1 1 32465 20190401165412
165.227.234.14 1 1 32461 20190420001553
112.134.160.117 1 1 32465 20190424145626
34.221.140.25 1 1 32461 20190414153722
27.106.2.254 3 3 84044 20190403170535
93.140.12.135 4 4 158084 20190408160902
35.166.234.62 1 1 32461 20190402134019
174.127.188.38 1 1 32465 20190427113902
14.210.192.182 3 3 97395 20190430204712
175.157.64.193 6 61 8276118 20190423231449
35.162.62.223 1 1 32460 20190424191214
37.47.13.120 1 1 32465 20190415203558
162.158.64.232 0 1 137536 
85.18.30.41 1 8 47442 20190420203933
42.236.10.77 1 1 32464 20190404032201
106.77.69.93 9 10 413352 20190410060706
197.224.99.47 1 1 32465 20190417235536
123.231.106.240 5 5 136826 20190418221227
138.68.157.168 1 1 32461 20190406001602
112.135.171.6 0 1 0 
124.43.104.120 1 1 32465 20190404132106
123.163.114.63 1 1 32465 20190430121756
139.99.222.34 1 1 32479 20190418001241
182.69.92.35 1 1 32465 20190410174903
192.241.144.72 4 5 154885 20190428223753
178.197.236.84 2 2 64930 20190424002821
5.79.121.159 2 2 64922 20190411105600
124.127.200.22 0 1 185783 
2402:4000:2381:240f:640f:3d:ba0e:2c85 1 1 32465 20190416133857
46.26.129.250 4 4 115897 20190412033501
182.161.12.225 1 1 32465 20190429141345
34.211.2.146 1 1 32461 20190429150736
223.227.25.210 3 3 85693 20190408145557
115.239.212.200 1 1 32465 20190430130403
2003:e1:ebd6:cf01:715f:c2f3:9b0:962b 1 18 381558 20190407213237
31.184.238.175 1 1 29860 20190401111134
112.134.37.88 3 4 105890 20190427181957
165.225.104.106 1 1 32465 20190403113740
123.231.105.125 1 1 32465 20190424091458
2402:4000:2080:941f:8c7d:8956:a31b:d6f8 2 35 4605065 20190412092038
37.211.215.78 1 1 32465 20190413232909
2402:4000:2180:2df2:f9aa:f74f:fb77:fe3 1 1 32465 20190401215602
120.60.253.136 2 2 64930 20190423170213
2402:4000:2081:f70b:86:f159:45ee:cdcd 1 1 32465 20190405165126
175.157.77.232 1 1 41873 20190428194704
142.169.78.7 2 5 91306 20190416170837
213.2.60.242 11 12 333336 20190416181508
83.97.23.118 3 3 117676 20190421200242
42.107.64.137 1 14 340607 20190411134547
111.206.36.17 1 1 32465 20190430164713
34.209.175.187 1 2 59000 20190403103632
159.147.51.66 2 2 53602 20190403185851
182.65.210.77 1 1 32465 20190424153547
111.223.147.119 1 5 113949 20190410220249
112.134.1.211 1 1 32460 20190418153637
111.206.36.10 1 1 32465 20190406004612
193.164.156.200 3 3 97380 20190405204909
42.236.10.108 1 1 32465 20190422230040
112.135.197.154 2 2 64930 20190429130003
34.217.125.63 1 1 32460 20190426001956
112.135.69.1 10 10 267316 20190415183432
101.100.156.150 1 1 32465 20190416091605
112.134.37.151 1 1 32460 20190416113402
193.106.30.98 4 4 129842 20190402134650
112.134.83.250 1 2 37727 20190405100009
2a03:2880:11ff:b::face:b00c 1 2 169996 20190403151914
2402:4000:2081:a6db:299b:9c6f:f2a9:198e 1 1 32465 20190422134457
112.134.141.202 2 2 74338 20190403132847
112.134.39.169 1 1 32465 20190417143959
2a01:4f8:121:22c7::2 1 1 32461 20190411214659
180.97.35.8 1 1 32465 20190422191625
167.99.244.226 0 1 562189 
86.98.47.134 1 1 32465 20190410133223
221.0.17.6 1 1 32461 20190430040452
124.43.67.103 3 3 82334 20190422111958
2402:4000:2180:f220:5cbb:c01b:9eeb:bc4 6 6 190244 20190401150428
106.38.241.178 0 1 3007 
27.104.138.255 1 1 32465 20190428105755
103.100.136.50 1 1 32465 20190401154206
23.226.211.36 1 1 32461 20190404124050
172.104.251.182 1 1 32465 20190402085751
88.219.62.76 1 1 32460 20190403001001
59.144.160.221 5 9 904880 20190410175623
27.106.115.246 1 1 32465 20190423150018
69.58.178.57 3 3 102790 20190407005651
80.197.39.130 1 1 32465 20190401164405
51.68.80.235 1 1 32465 20190416204126
2402:4000:2082:4b3f:a56f:96d4:fdaf:cd47 3 3 80051 20190423172541
193.130.234.15 10 14 321355 20190409194905
112.134.159.9 1 1 32465 20190402124008
2402:4000:2082:a29e:e983:7173:5507:60b3 1 1 32460 20190411133118
58.8.171.249 1 1 32465 20190406071828
151.36.243.133 1 1 32465 20190420164123
105.235.134.239 1 1 32465 20190404033426
2400:cb00:36:1016::a29e:41f0 1 1 32479 20190424110831
5.188.217.211 2 2 51466 20190420213426
49.146.230.91 1 1 32465 20190413084012
2402:d000:a200:66c6:5949:fbe0:76b9:d17e 1 1 26801 20190418164546
43.250.243.96 1 2 153092 20190408121232
109.74.199.112 1 1 32461 20190405001552
43.250.243.109 1 8 917063 20190415122650
37.210.200.173 0 14 309918 
2402:4000:2381:459b:94f8:d10b:d2e5:3e13 3 3 97395 20190412113412
80.60.115.164 1 7 677772 20190417120546
122.170.144.79 1 1 32465 20190415110748
94.252.122.156 3 12 305695 20190428163014
123.231.114.14 8 8 229939 20190415114208
103.79.216.67 1 1 32465 20190420231933
182.161.5.123 2 2 70697 20190421211659
94.197.121.30 1 1 32460 20190404004513
220.247.243.114 3 3 97395 20190404162149
112.134.38.21 1 1 28483 20190420135300
42.236.10.90 1 1 32460 20190402032403
106.120.173.92 1 1 39544 20190404075232
185.13.112.188 0 7 222380 
123.136.177.27 1 1 32479 20190408163425
109.64.252.75 1 3 173092 20190417000009
112.134.82.158 1 1 41873 20190430121045
2402:4000:1081:44c8:2530:8297:4a62:e945 1 1 32460 20190415210138
94.23.255.34 1 1 32479 20190419134944
123.231.84.27 5 11 375063 20190404114620
86.135.159.230 1 1 38232 20190416014001
195.140.213.224 1 1 32465 20190404184438
178.22.216.8 1 1 32465 20190415212351
112.135.197.41 4 4 129850 20190424130125
3.81.96.220 2 2 64926 20190424220917
183.100.209.182 1 1 32465 20190417120154
112.134.80.66 0 2 21067 
204.13.201.137 0 4 121123 
124.43.122.240 1 1 32465 20190410163758
118.209.169.239 6 9 348838 20190417150708
112.134.39.255 1 1 24631 20190416090157
106.51.39.21 1 1 32465 20190416125221
95.211.246.234 1 1 32461 20190422085909
34.221.179.82 1 1 32460 20190407165525
27.106.60.124 13 16 549307 20190420152254
5.188.211.21 1 1 32465 20190404045751
49.206.13.179 1 6 216879 20190401133615
112.66.101.70 1 1 32464 20190430013154
195.95.137.98 4 6 118407 20190425135456
83.223.225.21 1 1 32465 20190417132038
45.119.29.160 1 1 32465 20190402224600
110.225.17.201 2 7 1068063 20190404142939
217.73.129.218 4 4 139258 20190417011054
183.184.27.34 1 1 32465 20190429185857
185.185.177.16 1 2 35553 20190408095218
124.43.96.144 5 5 149772 20190404115044
2a00:ee2:1500:8200:387d:909e:60e1:ad43 1 1 32465 20190403001133
90.42.79.38 2 2 70692 20190405225344
117.213.16.231 1 1 32465 20190410155148
191.91.139.135 1 1 32465 20190421064706
178.137.82.32 1 1 32465 20190430064506
2402:4000:11c4:5c94:3915:799a:53ed:9c79 1 1 24783 20190410054643
79.85.2.48 2 4 63932 20190428163814
5.61.36.87 1 1 32461 20190419234502
175.157.84.203 8 40 3984287 20190412101118
103.98.16.190 1 1 32479 20190430162646
163.47.155.82 1 1 32465 20190430090152
116.193.133.10 2 2 41473 20190417093112
138.68.188.16 1 1 32461 20190419001551
2800:a4:41f:7300:d844:6f4a:4b4:2835 1 1 32465 20190405082419
124.195.203.82 1 5 83160 20190406162817
209.99.132.21 2 2 64920 20190405184602
109.190.218.155 5 9 183765 20190424174115
103.58.74.58 1 1 32465 20190411171820
202.124.161.166 4 4 139258 20190416143932
43.250.158.103 1 1 32479 20190419231619
18.237.234.165 1 1 32461 20190419173403
64.246.165.10 1 1 32465 20190411145158
117.242.147.89 1 1 32465 20190415211118
78.46.94.83 2 2 71456 20190406121458
111.223.160.247 1 1 32465 20190413091852
112.135.178.52 0 2 21067 
123.119.117.102 5 144 12541298 20190404083305
2402:4000:2080:4986:6c14:7124:2214:8b78 1 1 32465 20190422102340
178.216.48.96 3 3 97383 20190406171405
51.36.17.80 3 3 97395 20190418154153
124.43.102.214 2 2 64930 20190413140725
120.29.112.248 1 1 32465 20190403122737
138.197.111.47 0 1 14977 
54.91.139.157 1 1 32465 20190402011333
41.33.79.146 6 6 172279 20190425224019
2402:4000:2081:b5ef:604c:ac14:a653:8d3e 1 1 32460 20190420125520
103.59.185.6 4 4 112394 20190404130234
123.231.124.92 2 2 64930 20190405141157
64.233.173.152 2 2 64930 20190428112542
112.135.104.191 2 3 81295 20190418132557
162.158.66.11 0 1 137536 
18.236.240.217 1 1 32461 20190422140521
185.130.184.224 2 2 84069 20190415080504
172.84.113.130 1 14 804983 20190415110005
112.134.6.133 3 3 83911 20190403150718
192.243.53.51 3 3 97400 20190426114629
2400:cb00:36:1018::a29e:4215 0 2 38307 
2402:d000:a000:ec24:1832:8fec:bd7c:69d 1 1 32465 20190412093239
111.223.156.119 6 10 944316 20190419212438
138.197.111.113 1 1 32465 20190417031244
116.206.244.147 2 2 57194 20190412125906
2a03:2880:30ff:f::face:b00c 0 1 8311 
112.134.210.137 1 1 32465 20190422183733
103.53.164.154 2 14 542560 20190426181907
220.247.246.152 1 1 32479 20190417155714
104.162.78.178 2 5 61570 20190404084806
112.135.9.57 1 6 32465 20190415154534
178.197.234.71 2 4 229006 20190416163813
2400:cb00:36:1034::a29e:44de 0 1 7322 
159.203.172.186 1 1 32461 20190404145440
178.197.232.103 0 12 470661 
46.105.61.249 4 4 129842 20190430232116
34.74.114.223 1 1 32461 20190429180520
112.134.224.12 1 1 32465 20190404113231
43.250.243.60 1 1 32465 20190401222619
216.145.14.142 1 1 32464 20190411134331
112.134.153.221 2 2 57110 20190415214717
203.133.168.51 3 3 85748 20190418050653
61.245.160.189 3 3 90795 20190420132244
66.249.91.205 1 1 32479 20190413144104
125.209.235.176 1 5 822791 20190426101250
5.62.155.23 3 3 97383 20190428082336
2400:cb00:36:1031::a29e:441d 0 1 3088 
35.222.65.93 5 5 127036 20190430132429
175.157.112.122 1 1 32460 20190425131530
194.39.218.10 4 7 122475 20190430145215
92.97.183.38 1 2 47442 20190408013555
204.4.142.180 1 1 32465 20190423135001
125.209.235.172 0 1 404361 
180.97.35.81 1 1 32465 20190423205905
117.192.101.193 1 1 32465 20190401155315
2a03:2880:30ff:10::face:b00c 1 2 169997 20190420140637
2400:cb00:36:1002::a29e:402e 0 2 1847 
175.157.142.225 8 58 7121607 20190415124737
112.135.170.158 1 1 32465 20190418133349
185.221.69.42 0 1 852 
85.118.21.197 1 1 32465 20190413190925
112.135.206.205 1 1 32465 20190401090116
123.231.39.17 1 1 32465 20190404131935
199.116.173.196 0 1 3007 
202.166.206.49 1 3 27833 20190412111238
103.58.76.159 0 3 0 
124.43.18.186 2 2 64925 20190430122236
120.92.90.154 4 4 129860 20190424102945
128.1.49.53 1 1 32465 20190430030217
159.65.17.193 1 1 32461 20190424001556
84.227.104.216 3 24 615569 20190409200622
66.240.236.119 1 1 32465 20190413123804
179.61.128.150 1 1 32461 20190411064124
112.135.32.221 0 4 252312 
207.172.142.146 2 3 106248 20190425164352
220.247.214.147 2 2 64930 20190420180732
112.135.221.176 3 3 106817 20190429173410
116.50.59.180 2 3 80982 20190418162736
220.247.242.109 2 2 64930 20190410101735
162.158.64.116 0 2 275072 
185.92.223.17 1 1 32479 20190428130437
122.161.237.91 1 1 32460 20190423190751
66.249.88.48 1 1 32460 20190428220714
175.157.35.116 1 1 32465 20190418110707
139.99.79.221 2 2 64928 20190402160922
209.212.219.237 0 1 137536 
111.206.36.142 0 2 97780 
2600:1f18:65b9:df01:5bdc:6bb0:ffa9:a2be 1 1 32461 20190401165536
42.106.32.30 1 1 32460 20190430085656
176.9.148.17 1 1 32465 20190423051155
2402:4000:2181:eb6:842e:8072:18a9:b7b 1 1 32465 20190416174910
42.60.215.36 1 1 32465 20190419153435
195.46.6.226 2 4 189944 20190417192027
202.124.179.76 3 3 97395 20190418102525
103.119.50.118 1 1 32465 20190424012426
119.235.6.118 1 1 32465 20190403124032
125.209.235.182 0 1 20215 
42.107.94.67 1 1 32460 20190411134217
112.135.182.120 1 1 32460 20190401211417
80.252.95.196 1 1 32465 20190415175601
2400:cb00:36:1003::a29e:4054 0 2 424432 
103.114.133.65 3 3 97395 20190414202934
202.46.54.97 1 1 32464 20190429145952
64.233.173.153 1 1 32465 20190415200349
122.169.101.148 1 1 32460 20190419132228
112.135.173.226 1 8 63768 20190413144509
124.43.27.135 1 1 32460 20190404161422
82.181.159.125 0 6 89314 
2a03:2880:30ff:e::face:b00c 0 1 26540 
43.231.58.48 1 1 32460 20190418171016
112.134.160.1 1 1 32465 20190405125125
118.211.131.141 1 1 32943 20190412170509
59.47.72.160 3 3 97395 20190402105433
203.99.199.167 0 4 44252 
62.84.19.18 1 1 32465 20190428002540
54.212.48.169 1 1 32461 20190401161537
134.209.164.240 1 1 32479 20190404144530
54.149.18.247 1 1 32460 20190425195946
124.18.210.153 0 4 619435 
159.146.101.214 1 1 32465 20190410014653
54.191.122.213 1 1 32461 20190428143124
165.227.236.113 1 1 32461 20190427001558
218.157.166.40 1 1 32461 20190404153853
82.132.214.85 1 5 115053 20190422120033
2402:4000:1180:5434:31cb:ec71:8488:f398 3 6 114028 20190415122819
54.148.63.87 1 1 32460 20190426160733
185.153.196.157 2 2 64921 20190406074335
103.250.68.186 1 1 32465 20190425183104
2402:4000:1080:3762:14fd:1842:5763:9fce 1 2 32460 20190407180105
112.135.198.188 1 1 24783 20190410141031
62.210.83.78 4 4 129843 20190429201431
116.255.164.149 1 1 32465 20190410044114
139.81.248.22 1 1 32461 20190418073951
109.175.101.117 1 1 32465 20190424125658
125.209.235.178 0 2 808722 
2402:d000:a200:5af5:98f4:7f85:889d:eb 0 1 80372 
61.245.170.239 1 62 9675124 20190405214559
41.202.160.14 1 1 32465 20190401031844
112.134.70.47 2 2 62362 20190404093116
42.200.198.148 2 3 58649 20190412102004
173.244.200.170 1 2 35792 20190424102851
121.57.226.183 1 1 32460 20190430005427
106.45.0.108 1 1 32465 20190430151606
64.233.173.143 4 4 129840 20190427164036
35.178.103.19 1 1 32479 20190407202134
194.93.59.17 5 5 162302 20190430210451
69.13.39.34 1 1 3241 20190418175515
199.203.8.2 7 24 883791 20190423122248
2001:1c02:1406:5700:dce3:e968:4621:baff 4 68 10711025 20190411005552
2402:4000:10c3:7974:c1c1:647b:6dbc:1dd1 1 1 32465 20190418150100
150.249.214.254 1 1 32460 20190402191945
112.134.49.210 3 3 97385 20190411120645
86.172.63.3 3 65 10398810 20190410113728
178.32.62.219 1 1 32461 20190423001558
175.157.230.10 12 15 339490 20190417153103
145.239.87.173 3 3 97395 20190417055851
59.120.18.103 1 1 41873 20190422144530
124.43.93.58 1 1 32465 20190410155817
2400:cb00:36:1009::a29e:410a 1 1 32479 20190415195221
54.203.7.122 1 1 32461 20190416154100
112.135.111.3 2 2 64925 20190430135203
197.3.7.85 1 3 177323 20190425123704
173.205.33.30 1 1 32465 20190418093211
123.136.184.55 4 15 678416 20190418140748
42.236.10.116 1 1 32460 20190425081101
104.155.3.85 3 3 97395 20190401184708
54.71.187.124 0 1 8311 
112.135.88.238 2 2 58644 20190422123502
175.157.131.123 5 39 4608168 20190417205735
2402:8100:30ae:d541:e2d4:5cde:7873:104b 1 1 41873 20190412150342
61.69.249.36 1 1 32465 20190420174029
14.215.176.149 1 1 32479 20190408115610
2a01:cb19:7ad:8f00:f43c:175a:e45d:133 1 7 684309 20190408024504
2402:4000:2181:b181:51fb:f599:949c:c5a5 1 1 32465 20190406121935
112.134.31.91 1 1 25601 20190416073000
42.236.10.91 1 1 32461 20190405204740
123.231.120.210 1 5 64784 20190429205208
112.134.38.110 2 2 53206 20190427183647
116.212.176.182 2 2 64930 20190419211013
124.43.108.238 2 2 83746 20190402093912
124.43.95.186 1 1 32465 20190403143222
124.43.79.36 2 2 64925 20190408170856
2400:cb00:36:1034::a29e:44d2 0 3 436199 
80.104.78.221 1 1 32465 20190414195809
35.227.162.135 1 1 32465 20190428132148
125.209.235.183 0 1 424988 
37.145.56.99 1 1 25243 20190422175715
2600:1f14:b62:9e03:1d72:b581:201c:6c22 1 1 32460 20190403095321
5.188.210.47 1 1 32461 20190403212646
163.172.137.135 1 1 41859 20190408092155
188.99.31.173 1 4 32465 20190411214734
167.99.132.120 7 7 227255 20190430053005
175.157.128.91 2 2 64925 20190404122503
14.215.176.20 1 1 32465 20190407170738
61.245.170.32 1 1 32460 20190412235757
105.98.121.32 1 1 32465 20190401092707
202.124.179.178 15 20 469751 20190419175830
66.160.140.179 1 1 32465 20190419012610
61.151.207.205 1 14 741273 20190401062242
111.206.198.119 0 1 137536 
103.212.142.50 5 6 168759 20190416173715
223.166.74.227 1 1 32465 20190429185848
54.153.91.52 1 1 32461 20190424023803
93.120.136.77 2 2 84069 20190419164744
46.176.6.181 1 1 32465 20190408133320
61.245.170.175 1 1 32460 20190419213541
2402:4000:2180:1962:888b:a245:7e45:713f 1 4 201330 20190404225122
66.249.93.28 1 1 32460 20190411001909
63.33.65.84 2 2 64921 20190417084813
185.130.184.237 2 2 84069 20190402160620
54.86.72.36 1 1 32465 20190420050639
94.43.106.212 1 1 32465 20190422184857
2402:4000:2180:8db1:457:edb5:17b7:dc0c 4 6 441611 20190418082538
148.122.135.23 1 1 32465 20190402190226
113.193.35.155 3 4 106946 20190416173239
175.157.68.254 1 1 28597 20190412221114
2402:4000:2380:aa09:b08c:a8:652b:cc8a 10 19 1413838 20190413160812
2a02:587:3904:f500:5192:6802:36cf:1406 0 2 139383 
123.231.123.8 2 2 70697 20190427125947
157.45.63.248 0 1 1847 
134.249.48.131 3 3 97383 20190412214020
144.178.12.12 6 8 198438 20190425170927
5.171.105.103 5 5 167774 20190411154903
52.12.199.60 1 1 32461 20190426140857
39.111.208.132 2 2 64924 20190415075228
2400:cb00:36:1018::a29e:420a 0 3 181619 
197.101.23.166 1 1 32479 20190418143713
35.246.19.1 2 2 64920 20190403162049
66.70.134.139 4 4 129859 20190430060801
49.206.5.18 1 1 32465 20190416115147
82.217.76.182 2 2 64925 20190410184333
149.200.238.61 1 1 32465 20190403003626
175.157.144.132 6 6 167474 20190406091409
112.135.194.97 2 3 104522 20190403131758
124.43.90.216 2 2 64925 20190417153539
2a06:2ec0:1::111 1 1 32465 20190415051711
36.110.199.49 1 1 32465 20190418192852
31.178.50.45 1 1 32465 20190422013053
93.146.194.162 1 1 32465 20190414164237
35.230.21.10 1 1 32460 20190402230110
112.135.163.56 1 1 25243 20190416083124
112.134.2.77 8 8 244971 20190411142812
125.209.235.167 1 2 449277 20190410233340
118.127.15.83 1 1 32461 20190411053032
2402:4000:2181:a830:60b3:ba62:d99f:609a 2 14 2213443 20190413183100
2402:4000:2181:518a:25a9:f9f4:a453:eec1 1 1 32465 20190402152546
185.130.184.243 2 2 84069 20190413125401
124.43.77.220 3 3 90033 20190418181850
89.190.117.167 2 17 539227 20190427151700
66.102.6.221 1 1 32479 20190403111320
156.204.181.168 1 1 32465 20190411200820
209.97.146.173 1 1 32465 20190430234358
162.158.70.134 0 1 137536 
158.69.26.144 3 3 68658 20190427065625
180.163.220.3 1 1 3241 20190404083620
167.99.155.250 1 1 32464 20190414231231
124.43.16.250 4 4 158079 20190410154425
103.246.29.18 3 17 664974 20190411100041
83.83.130.230 7 10 351269 20190407154620
54.70.53.60 0 1 12409 
49.149.148.81 5 17 667513 20190410131327
2400:cb00:36:1013::a29e:4792 0 2 31986 
82.102.18.41 2 2 84633 20190404084348
66.249.84.60 1 1 32460 20190403064757
112.134.66.107 3 3 97423 20190404091420
104.222.33.170 1 1 32461 20190403155626
183.82.17.57 2 7 194714 20190420155136
79.184.101.66 1 1 32465 20190402000342
83.83.105.2 9 12 677831 20190412163726
124.43.11.168 1 1 32465 20190404105548
79.98.220.83 0 4 203308 
2402:4000:2381:240f:d567:8088:95d7:8c5e 1 1 32465 20190416132739
2402:4000:2080:4979:b1cc:d1b3:2ff8:9de9 16 17 833175 20190419194159
2a02:c7f:2c51:9f00:842c:3f5c:ee04:d49d 1 1 32465 20190414020527
2402:4000:2180:f21:8dd6:3a0f:4e25:cd75 5 24 3863746 20190403151242
197.156.117.58 5 23 717376 20190406233431
112.134.224.67 3 3 91109 20190405112823
123.231.85.135 1 1 32465 20190403141825
217.164.107.87 3 13 1955374 20190403143915
111.73.46.48 8 8 259720 20190430103236
124.43.102.196 6 8 316161 20190420202004
66.102.6.95 1 4 35999 20190425003028
178.18.135.100 3 5 372462 20190404183516
2001:579:c180:32:592e:63e5:36e5:27e4 2 16 905284 20190424074157
51.68.92.193 1 1 32461 20190401163146
147.147.165.154 6 15 437143 20190407194723
54.149.50.153 1 1 32460 20190429190102
77.136.87.222 1 1 32460 20190415025232
43.250.240.108 2 11 370763 20190430171306
62.163.200.50 2 16 551795 20190414154021
2001:d08:1ae1:f2cd:f507:19ad:7704:17ae 1 1 32460 20190419195830
95.150.86.33 1 2 32570 20190401201516
165.227.226.214 1 1 32461 20190413001559
162.158.64.250 0 1 137536 
43.250.242.38 5 7 287289 20190414181000
124.43.18.61 2 2 64925 20190405151214
154.85.82.90 1 1 32465 20190415193923
125.209.235.171 0 1 852 
1.128.104.46 2 57 7547562 20190427061954
2a02:1811:9c0a:6f00:3447:8991:9923:71bc 8 8 127221 20190410000548
121.200.10.72 3 16 563806 20190402045317
66.102.6.193 1 1 32479 20190402093716
221.229.204.71 13 13 422045 20190424091858
112.134.141.130 2 2 64925 20190404084431
193.115.74.66 6 80 11120186 20190408033404
24.203.243.5 2 4 204896 20190419175132
183.14.132.241 1 1 32465 20190414023717
175.157.42.205 1 1 32460 20190413133112
175.157.59.54 2 15 1913576 20190413190528
125.209.235.173 1 3 863923 20190427154018
220.181.51.107 1 1 32461 20190412112258
184.94.240.92 2 2 60934 20190411124714
2804:7f5:180:5d87:95fc:5736:1b98:a4e3 1 1 32465 20190407220503
54.245.145.219 1 1 32461 20190406143707
112.134.152.4 0 1 3007 
18.207.245.182 2 2 64922 20190417211634
37.204.19.176 1 1 28597 20190423232956
27.34.68.32 1 1 32460 20190412215153
2a02:120b:2c4f:a140:d4e0:65b:1032:6961 3 35 1770052 20190422170213
103.59.185.7 1 1 32465 20190404130110
2001:67c:2660:425:6::3a1 2 2 64930 20190418104052
104.199.114.206 2 2 64930 20190421132052
203.81.96.4 2 6 260014 20190426104320
122.174.169.190 4 4 110247 20190411130738
203.115.11.84 1 1 32479 20190421081515
124.253.248.105 1 4 56859 20190404175245
222.186.46.122 2 2 64930 20190416065646
93.86.77.95 1 1 32465 20190410112723
123.231.109.228 5 5 153029 20190408131528
66.102.6.209 1 1 32479 20190411130812
124.43.109.215 1 1 32465 20190417121947
2402:4000:11c4:a7c6:8cf8:20f3:9426:1fe 0 1 16038 
45.112.203.70 1 1 32465 20190429154732
108.62.96.36 3 3 97408 20190419113954
2402:4000:2180:1e3c:79e3:67ee:804a:2177 5 5 165772 20190418110812
103.212.146.59 1 1 32465 20190403134533
112.134.210.126 9 9 281961 20190414130849
109.184.230.178 2 2 84069 20190412054148
115.111.223.59 1 1 41873 20190401134238
222.186.57.109 2 2 64930 20190405193700
162.158.68.213 0 1 137536 
113.59.203.99 1 1 32465 20190411105600
82.208.101.166 2 2 84069 20190403144307
120.78.0.254 2 2 64930 20190406171816
175.157.175.149 1 1 38232 20190421182938
2001:8003:d43c:1400:d1a6:d02a:d8d7:76d0 4 18 722991 20190404154154
112.135.2.77 1 1 38232 20190429114956
178.137.163.23 3 3 97395 20190430115426
165.227.177.186 17 34 1292268 20190430015633
2402:d000:a200:3b6f:89ea:8ead:1969:903a 1 1 32465 20190429003845
109.184.162.197 2 2 84069 20190421185906
112.134.224.18 1 1 32465 20190430123046
202.124.179.74 2 2 64925 20190417143433
2a00:23c5:9a3:9700:81f1:d9f2:e9dc:3625 8 8 225733 20190419201559
112.134.104.224 2 2 64925 20190408155148
79.106.164.230 1 1 32465 20190425184124
43.250.240.151 1 1 32465 20190424123430
86.99.1.166 1 1 32465 20190417231022
112.134.96.211 9 9 242137 20190407135746
79.36.100.97 1 1 32465 20190427173304
64.233.172.221 1 2 169997 20190418153421
125.18.28.214 1 1 32465 20190408153850
49.206.11.163 0 1 26540 
111.206.36.147 0 1 29113 
120.88.187.138 7 8 211277 20190420162546
203.171.234.32 1 1 32465 20190402133251
185.130.184.219 2 2 84069 20190426124049
35.162.156.112 1 1 32461 20190421141723
159.203.172.7 1 1 32461 20190421010003
2604:9980:0:12a:225:90ff:fe7c:41cc 2 2 64921 20190403234040
34.221.25.154 1 1 32460 20190428162417
52.37.235.207 2 2 64930 20190419052818
124.43.17.82 1 1 32465 20190417140756
34.66.163.223 1 1 32465 20190421143847
193.230.5.32 1 1 32465 20190424170545
86.98.214.251 1 3 28906 20190416115707
119.235.7.122 1 2 170015 20190430134212
112.135.108.106 1 1 32465 20190405114324
112.134.83.234 3 3 106798 20190425150249
125.16.230.16 3 3 91114 20190416133611
112.134.106.103 1 1 32465 20190416143158
66.249.88.46 1 1 32460 20190428223613
202.46.58.84 1 1 32460 20190421124339
175.157.43.234 3 3 108929 20190419184328
2405:204:1407:f61d::ba2:80ac 2 2 76464 20190401205056
175.157.192.24 1 1 32465 20190424194404
27.254.201.142 1 1 32465 20190424000848
113.110.186.154 3 3 97395 20190410032943
202.124.179.218 7 12 383051 20190415010132
103.7.82.131 1 7 625910 20190410113246
43.250.240.60 1 1 32460 20190408150638
221.2.44.75 4 4 129860 20190405092119
2402:4000:1080:4c3a:3954:6f3a:f43a:1874 1 1 32479 20190418104556
112.134.39.60 1 1 32465 20190415123412
182.138.158.202 2 2 64958 20190429200357
134.159.168.73 1 1 32465 20190404152116
185.2.196.196 1 1 32479 20190423135001
185.138.241.88 1 1 32465 20190426032750
112.134.192.74 3 31 5632949 20190406212405
112.134.154.116 1 1 32465 20190405134656
192.248.43.10 1 1 32465 20190417144639
124.43.104.211 1 1 32465 20190416103735
112.135.9.69 2 2 76464 20190428145352
83.43.242.193 1 1 32465 20190416004111
165.227.78.136 1 1 32465 20190428233121
149.202.86.127 2 2 64920 20190422222229
116.206.244.15 1 1 32460 20190412084658
123.231.124.9 3 3 91114 20190405094718
141.168.0.69 1 8 575769 20190411060506
150.249.214.253 3 3 97384 20190415093442
2a02:aa14:5481:6300:19dd:8c4f:562:7220 1 6 173003 20190405181800
2405:204:5022:c157:6c98:8ccb:7e76:909b 0 1 465075 
49.44.85.68 1 1 32460 20190417154414
138.68.141.22 1 1 32461 20190401001426
184.154.189.90 1 1 32465 20190421100913
195.38.105.222 3 3 84049 20190418175054
2402:4000:2181:4d30:39f4:ae57:46b3:d11 2 2 64925 20190411151413
123.231.106.111 1 1 32465 20190426114026
123.231.61.92 3 3 112229 20190417093341
124.43.74.43 1 1 32465 20190410172941
2003:ea:fbd4:ab00:b8ed:fdec:6057:f504 3 10 154775 20190423132000
87.59.128.6 1 8 258367 20190429151728
183.87.88.192 3 3 84049 20190416162308
89.211.122.62 4 63 9621762 20190418193618
157.230.53.219 5 5 162325 20190401231810
2a02:8070:41a9:4200:996e:c521:ad18:7d8d 1 1 32465 20190424231019
178.137.160.9 1 1 32465 20190430191052
34.221.100.182 1 1 32465 20190424025836
2400:cb00:36:1018::a29e:4212 1 1 32479 20190407093832
138.68.177.34 1 1 32461 20190403001300
154.124.72.46 1 1 32465 20190419180257
2a03:2880:11ff:2::face:b00c 0 12 724096 
219.77.118.26 4 72 11080237 20190408103239
87.250.109.110 1 1 32465 20190423184801
111.223.135.139 1 1 32465 20190423235635
32.42.131.36 6 9 176743 20190412115430
2a02:c7f:223f:6500:3cac:9e3:39ef:369d 1 1 32465 20190421154518
104.238.136.50 1 1 32461 20190422222104
95.211.209.158 2 2 64930 20190402072602
35.155.227.129 4 4 125982 20190411162401
82.102.18.145 2 2 84069 20190420150104
2402:4000:1080:5126:2d18:41cd:813f:f000 2 4 91064 20190414122711
114.143.236.218 1 1 32465 20190417181233
66.102.6.79 1 1 32479 20190417104404
112.135.7.246 1 1 32465 20190403131944
125.209.235.177 0 1 137536 
52.43.252.70 1 1 32461 20190427154017
144.76.72.104 3 4 99813 20190402185015
2402:4000:1380:3093:1:0:6be7:b131 1 2 48816 20190417134858
120.51.101.21 12 13 323238 20190410063956
34.220.58.244 1 1 32461 20190424144230
112.134.37.200 2 2 56966 20190414070251
66.96.196.25 3 6 226383 20190424152021
2607:fea8:1c20:375:c448:c775:ac41:4b18 2 20 688899 20190420225116
122.247.184.187 3 3 97395 20190420115052
54.201.18.106 0 1 39996 
54.188.109.181 1 1 32461 20190420185942
175.157.215.26 1 1 28597 20190412194141
137.74.85.74 1 1 32461 20190422124823
59.110.242.185 2 2 64930 20190402171517
13.52.101.145 1 1 32464 20190401205508
92.40.249.252 1 1 25268 20190427075939
119.76.186.250 0 12 910054 
123.231.126.201 2 3 74449 20190408105853
46.101.73.40 1 1 32461 20190414001556
116.249.23.233 2 2 64930 20190430103701
112.135.166.36 1 1 32465 20190401012603
93.72.93.35 1 1 32460 20190418082743
103.251.215.4 2 2 64958 20190402121447
107.150.99.198 1 1 32479 20190430162727
124.43.85.42 2 2 53865 20190408151808
180.97.35.91 1 1 32479 20190407122029
82.132.222.178 1 1 32460 20190402222626
180.163.220.5 1 1 32461 20190404083506
240e:360:7200:6e87:a4ff:12b3:be04:dcf8 2 2 64930 20190405002007
222.186.150.193 1 1 32465 20190411192949
112.134.39.202 1 1 32465 20190408112627
54.188.96.72 1 1 32465 20190404083940
2604:1380:2000:e800::1 1 1 32461 20190406155815
144.122.4.5 1 1 32465 20190412204418
222.165.152.50 1 1 32465 20190416153718
2402:4000:2080:4979:18ab:72e1:96d9:968d 2 2 57091 20190419170629
2a02:8084:42c1:3200:18c0:705c:9ef6:507d 2 24 1096335 20190402132657
178.137.84.233 1 1 32460 20190404113435
217.85.83.238 2 22 4101021 20190415160606
106.201.188.122 1 1 32465 20190418010558
34.74.62.1 1 1 32461 20190429211825
175.157.218.51 6 8 482635 20190409194417
52.70.146.155 16 16 519424 20190430153858
112.135.35.223 1 1 32465 20190406092312
175.157.103.96 0 2 132722 
2003:c1:7718:aa00:c9c4:9f11:6e87:b8ba 4 72 10382569 20190425170147
123.231.123.168 1 1 32465 20190404155311
86.85.218.229 1 1 32460 20190421121158
165.225.106.137 1 4 641006 20190418123540
213.33.60.10 1 1 32465 20190408095222
85.220.19.160 1 1 32465 20190424090304
222.186.10.28 2 2 64930 20190427030407
197.3.244.88 1 1 32465 20190416205926
124.43.120.168 5 5 141465 20190409170716
121.211.61.17 1 1 32460 20190414135432
203.143.14.232 2 2 74333 20190405123137
2400:cb00:36:1011::a29e:4686 1 1 32460 20190412025859
109.184.218.58 4 4 169415 20190404022708
82.102.18.62 2 2 84438 20190407010832
112.135.122.13 1 1 32465 20190404103827
37.9.46.95 1 1 32479 20190420212313
2a00:23c4:931a:a00:8526:ed3e:1a19:afcd 1 1 32465 20190426125305
202.153.87.80 1 2 35472 20190410142828
2402:4000:2181:9492:e0ee:d088:e801:6718 0 1 23936 
60.215.30.252 1 1 32465 20190419025506
112.135.203.101 1 1 32465 20190403131201
13.58.71.204 2 2 64926 20190401205418
52.40.194.226 1 1 32460 20190416185553
188.23.226.51 5 5 151616 20190415172052
59.56.241.218 1 1 32461 20190404041854
104.238.116.21 1 1 32465 20190417223046
162.158.67.87 0 1 137536 
37.115.187.223 6 6 194790 20190406113641
203.94.71.129 1 1 25243 20190401150058
112.134.192.78 4 5 142352 20190413081753
175.157.34.187 1 1 32465 20190423160930
119.153.156.180 1 1 32465 20190403191531
113.59.217.114 1 1 32465 20190405181540
2402:4000:2082:a29e:b5c4:10a0:4fcc:dbd 2 3 202225 20190411133111
183.171.80.139 2 96 11720383 20190419210938
54.71.195.22 1 1 32460 20190415162247
106.120.173.113 0 1 126000 
124.43.124.42 1 1 32465 20190411160433
113.59.222.41 3 3 80056 20190422083002
2402:d000:a000:c6ec:395b:7ae2:b8eb:80f2 1 1 32465 20190413123749
112.134.105.124 2 2 64925 20190411132253
35.192.84.7 7 7 177015 20190423013831
37.115.184.170 7 7 220916 20190408062611
112.135.109.117 6 8 449273 20190410133830
61.205.87.44 1 3 142360 20190414060912
3.81.42.223 3 3 97405 20190413171846
43.250.243.43 2 4 319418 20190411002551
112.134.45.205 1 1 32465 20190427193824
124.43.70.89 2 2 64925 20190418113050
124.43.11.245 1 1 32465 20190402162136
42.236.10.121 2 2 64924 20190411012508
203.115.12.114 2 2 64939 20190412163318
185.130.184.252 2 2 84069 20190423134909
2402:4000:2082:8936:fcd8:90b8:5dc2:68fb 2 5 253861 20190401105634
64.62.252.162 1 1 32465 20190421215620
42.236.10.110 1 1 32464 20190425080245
112.135.199.183 1 1 24783 20190410095459
43.250.241.7 3 7 821464 20190408170351
64.233.173.132 2 2 64920 20190417093033
175.157.52.66 4 4 156569 20190409224829
43.250.165.214 4 4 129888 20190403182454
64.233.173.128 6 6 194760 20190418181322
123.231.92.218 2 2 64920 20190418153647
124.43.11.167 1 1 32465 20190404181207
112.118.107.59 4 4 117298 20190408143924
54.184.110.118 1 1 32460 20190414184755
112.135.6.97 2 2 57096 20190401193253
54.190.141.82 1 1 32460 20190406174321
122.255.14.208 1 1 32465 20190410092940
108.61.197.30 3 3 97395 20190412191735
94.207.185.66 1 4 152612 20190406175349
94.114.198.226 8 8 227595 20190407193744
61.245.171.103 7 12 395517 20190420113229
61.149.198.232 1 1 32465 20190414220327
54.244.42.195 1 1 32461 20190417155605
37.152.250.89 3 3 82045 20190403020944
112.134.47.174 1 1 25243 20190418213850
64.233.173.144 3 4 234916 20190413160710
128.77.0.255 0 14 677920 
178.62.99.196 1 1 32461 20190416001557
13.77.170.230 1 1 32464 20190401070854
185.3.156.218 2 5 342467 20190424144855
177.43.49.244 2 2 64930 20190412234708
51.15.61.228 1 1 32461 20190411125217
87.200.50.51 0 1 278 
204.236.251.155 1 1 32465 20190404053036
18.212.79.160 1 1 32465 20190405121240
46.119.126.51 2 2 64930 20190407145037
178.62.98.225 1 1 32461 20190412003307
61.245.161.152 1 1 32465 20190418143648
178.79.182.100 1 1 32461 20190411013848
122.255.11.188 9 10 162110 20190409165617
111.206.36.133 1 2 497540 20190406234542
182.237.160.149 2 2 64925 20190418135942
52.12.189.56 1 1 32461 20190412144037
34.221.50.88 1 1 32461 20190428135423
112.134.135.201 11 12 757751 20190412120849
2400:cb00:36:1046::a29e:4293 0 2 424432 
112.134.224.85 3 3 106798 20190417094352
115.97.117.240 7 7 200406 20190417011303
2402:4000:2082:4e07:e9e8:1674:298a:aa45 2 2 64925 20190406053159
46.101.39.238 1 1 32461 20190402001419
2400:cb00:36:1011::a29e:4690 1 1 32460 20190428204132
186.15.224.194 0 1 11767 
175.157.63.97 1 1 32479 20190418122000
43.250.240.175 1 1 32465 20190428210116
199.127.56.236 0 6 198149 
2402:4000:2082:2bbd:78f5:90f3:7e0d:798a 2 3 76804 20190411192157
125.209.235.174 0 2 812940 
112.134.98.189 2 2 64920 20190407135024
185.130.184.209 2 2 84069 20190403141633
219.147.98.102 1 1 32465 20190414170102
2a03:2880:21ff:4::face:b00c 0 1 3327 
2402:4000:2180:77fe:e830:6c4f:967b:e84 2 2 64930 20190417134632
196.178.98.196 1 1 32465 20190425151211
92.40.249.155 1 12 641218 20190426111149
85.159.215.181 1 1 32461 20190402175406
34.219.38.16 1 1 32460 20190413161851
103.206.123.241 3 3 97395 20190419031924
202.124.179.78 1 1 32465 20190427142455
221.229.210.59 3 3 97395 20190408002643
124.43.114.192 2 2 64925 20190412094232
46.46.193.209 1 1 24631 20190419114126
124.43.77.219 3 3 106812 20190410171823
116.206.244.67 1 1 25601 20190415142803
112.135.11.222 1 1 38232 20190426165217
175.157.35.231 1 1 32465 20190419053613
203.0.76.55 1 3 170298 20190408102417
14.215.176.8 1 1 32465 20190427145937
141.226.217.152 1 1 32465 20190425115105
84.42.146.229 8 8 226127 20190412180051
52.40.171.234 1 1 32460 20190410181945
151.80.246.221 2 2 64920 20190420081022
112.134.32.198 1 4 183391 20190424195531
219.101.165.78 8 27 934643 20190418112623
124.43.117.249 7 7 197941 20190416123951
134.209.172.204 1 1 32460 20190404150012
37.56.38.101 1 1 32465 20190421163359
46.118.153.33 2 2 64930 20190430203808
185.130.184.236 2 2 84069 20190413131856
192.248.73.5 2 2 64930 20190411103855
103.72.56.104 3 3 125577 20190401103241
91.79.27.72 2 2 118262 20190426110537
34.208.90.222 1 1 32461 20190416004752
125.160.124.72 1 1 32465 20190413214118
112.134.38.154 1 1 32465 20190418160708
180.179.142.108 8 8 251577 20190416133328
180.97.35.204 0 1 20215 
2402:4000:2181:bd63:89d5:e309:3dab:da8c 16 18 435506 20190415184057
112.134.38.135 1 1 32465 20190405081731
18.237.87.131 1 1 32461 20190418141014
2001:8003:318a:3e00:9c3:f8dc:5b10:e186 8 103 12217388 20190421144926
62.4.55.19 1 4 69415 20190405014224
42.236.10.70 2 2 64930 20190427001547
197.101.89.36 1 1 32465 20190415003902
52.41.187.186 1 1 32465 20190403155031
206.189.82.215 4 14 868123 20190427114128
125.209.235.184 1 1 24289 20190418091714
124.43.12.41 14 25 973755 20190410164631
175.157.82.157 2 2 64920 20190406214810
175.157.28.150 1 1 32460 20190416221508
66.102.6.157 1 1 32465 20190401085605
139.214.254.86 0 3 140545 
116.255.150.21 2 2 64930 20190407173723
42.236.10.74 1 1 32465 20190428192109
175.157.224.170 2 2 83746 20190401133049
112.134.68.95 2 4 62311 20190418120807
195.206.106.110 3 3 117051 20190421063104
112.135.89.216 5 5 147209 20190418143342
175.157.133.255 4 4 123925 20190412115250
112.135.232.160 1 1 32465 20190408105132
35.197.114.112 1 1 32460 20190421093831
115.114.69.94 1 1 32465 20190401111920
32.214.107.50 1 4 64668 20190416061653
2607:fb90:2463:47e5:692e:d698:9c73:7c9f 2 16 535635 20190401134209
112.134.149.79 1 1 32465 20190418121121
118.185.126.149 2 19 704209 20190425114335
123.231.106.54 7 14 1077661 20190426222506
125.209.235.168 1 1 24289 20190403184841
2a01:7a7:2:1a01:216:3eff:feb5:768c 2 2 64928 20190410064959
115.239.212.72 2 2 64930 20190419043439
52.53.201.78 16 16 519430 20190428040906
2a00:23c4:931a:a00:19e7:1306:11e4:58e1 1 1 32465 20190410000548
112.134.32.115 1 1 32465 20190417114629
89.147.1.101 1 1 32465 20190402174546
120.149.140.1 4 6 250028 20190419151740
222.230.95.233 1 3 53532 20190408091314
158.69.247.45 4 4 129916 20190430015332
203.115.28.190 1 1 25546 20190403110406
80.83.21.95 1 1 32465 20190413151601
124.43.70.230 1 1 32465 20190404120820
39.33.245.191 1 1 32465 20190424114317
112.135.33.13 1 1 32465 20190430101536
112.245.154.174 1 1 32465 20190405071928
176.74.124.174 1 1 32465 20190416231258
54.183.149.15 1 1 32479 20190430011038
124.43.117.182 3 16 1207925 20190425145053
188.165.118.89 4 4 129844 20190422203623
151.106.8.36 1 1 32461 20190407005918
111.206.36.12 1 1 32479 20190424130523
112.134.160.164 1 1 32465 20190425023545
117.93.32.177 1 1 41873 20190426215228
3.0.163.208 1 1 32479 20190404152122
112.134.4.255 2 2 64925 20190416154054
163.172.24.113 2 2 64922 20190401070711
111.13.102.134 1 1 32465 20190423145103
111.206.36.132 0 1 14977 
138.68.178.229 2 2 64922 20190418001605
111.206.36.135 0 1 35957 
111.223.157.120 1 1 32465 20190410213743
175.157.242.64 2 2 61057 20190424140958
123.231.121.144 7 9 263002 20190404125006
89.232.55.38 1 1 32465 20190404212117
112.134.154.238 5 5 162310 20190417114220
168.62.244.168 1 2 47437 20190420075605
96.43.168.192 1 1 32465 20190412145554
2402:4000:2380:1c56:2c98:de6f:a16:425e 1 1 25243 20190416014826
61.245.160.191 1 1 32465 20190415223906
91.207.102.163 3 3 97401 20190412033254
112.134.135.49 7 7 195127 20190405170543
52.74.22.169 4 4 113174 20190412185203
2001:e68:4445:fb22:1d64:5f2c:40d0:3276 0 2 52125 
END_VISITOR

# Date - Pages - Hits - Bandwidth - Visits
BEGIN_DAY 30
20190401 171 337 19586822 82
20190402 158 208 8252918 78
20190403 129 280 24297727 73
20190404 170 361 21092806 101
20190405 94 193 14002200 57
20190406 99 234 21435984 43
20190407 110 215 14746789 37
20190408 139 315 28426214 58
20190409 61 156 12218635 14
20190410 193 342 23316220 76
20190411 148 271 17593733 77
20190412 205 358 20398520 67
20190413 73 171 17150044 44
20190414 64 176 14590503 34
20190415 192 353 21179194 62
20190416 145 266 16633174 73
20190417 136 214 10942202 81
20190418 168 279 20522497 87
20190419 268 429 23535856 62
20190420 125 202 7797011 54
20190421 66 178 14760466 39
20190422 45 105 4304605 33
20190423 92 241 14934464 39
20190424 129 251 17653821 56
20190425 84 220 17389299 39
20190426 77 186 14740672 36
20190427 49 145 13611767 36
20190428 81 109 3879076 45
20190429 49 74 2180991 40
20190430 119 178 6489862 63
END_DAY

# Session range - Number of visits
BEGIN_SESSION 7
1h+ 6
15mn-30mn 28
30mn-1h 39
30s-2mn 143
0s-30s 1364
2mn-5mn 58
5mn-15mn 48
END_SESSION

# URL - Pages - Bandwidth - Entry - Exit
# The 25 first Pages must be first (order not required for others)
BEGIN_SIDER 86
/ 1769 57236997 1383 1190
/contact-us 233 9819582 67 97
/accommodation/standard 139 3444499 19 37
/accommodation/super-deluxe 128 3351223 9 29
/manage-gallery 99 3784968 34 54
/accommodation/delux-mountain-view 95 2545933 11 26
/cuisine/buffet 82 2098958 4 23
/promotions.php 72 2058715 10 13
/accommodation 61 1793826 9 8
//index.php 57 1850505 10 16
/about-us 55 1537752 5 12
/facilities/spa 52 1313648 6 16
/index.php 46 1493476 27 20
/infinity-pool 42 1034502 8 16
/facilities 42 1473958 3 5
/honeymoon.php 41 1034847 8 12
/facilities/infinity-pool 39 960321 0 3
/cuisine/bar 39 959463 2 4
/promotions 33 943701 9 9
/cuisine.php 32 908906 1 1
/facilities/fitness-centre 30 752830 2 2
/facilities/shopping-boutique 30 738697 1 1
/cuisine/signature-dinning 29 749951 2 4
/facilities/badminton-n-table-tennis 26 656018 2 1
/facilities/squash-court 26 644954 0 4
/cuisine/about-us 4 113740 0 0
/facilities/business-centre 24 592818 0 7
/accommodation/privacy-policy 5 147833 0 0
/facilities/facilities 2 69280 0 0
/privacy-policy 18 532282 0 2
//index.php/component/users/ 3 97395 0 0
/index.php/admin/ 1 32461 1 1
/facilities/wedding 1 31481 0 0
/signature_dining.php 3 79018 1 0
/privacy-policy.php 2 59716 2 1
/contact-us/ 12 505691 6 6
/squash-court.php 4 100956 1 0
/contact-us.php 10 419672 5 6
/index.php/api/Uploadify/preview 10 324650 0 7
/accommodation/about-us 5 142178 0 0
/facilities/downloads 1 24005 0 0
/cuisine/accommodation 2 57028 0 0
/cuisine/downloads 2 48014 0 0
/terms-and-conditions 13 416927 0 0
/fitness-centre.php 3 63865 0 0
/about-us.php 4 113900 2 1
/honeymoon 14 353402 3 6
/index.php/Home/AppUpload/commentUpload 1 32465 0 0
/facilities/about-us 3 85310 0 0
/assets/360/lobbyview.html 4 13004 0 0
/assets/fonts/itcedscr_0-webfont.eot 4 158176 4 4
/facilities/conferences-and-workshops 26 662948 1 1
/site-map 17 412797 7 7
/search-results.php 2 44921 0 0
/shopping-boutique.php 3 75382 1 1
/business-centre.php 4 99100 2 1
/sitemap.xml 1 3728 0 0
/assets/360/gymview.html 4 12988 0 2
/accommodation/facilities 3 103922 0 0
/spa.php 3 76894 0 1
/cuisine/terms-and-conditions 4 127736 0 0
/facilities.php 3 105246 1 0
//index.php/Home/Uploadify/preview 1 32465 0 1
/badminton-and-table-tennis.php 6 153244 4 3
/infinity-pool.php 3 75040 1 1
/bar.php 4 101186 1 1
/accommodation/accommodation 3 85544 0 0
/assets/360/restaurantview.html 5 16310 0 2
/accommodation/downloads 3 72023 0 0
/deluxe_m_view.php 3 81619 1 0
/cuisine/privacy-policy 4 118264 0 1
/deluxe.php 4 104708 2 2
/assets/360/lobbyview.swf 1 120824 0 1
/cuisine/facilities 2 69280 0 0
/facilities/accommodation 2 57028 0 0
/facilities/privacy-policy 3 88703 0 0
/accommodation/terms-and-conditions 5 159673 0 0
/downloads 21 468625 1 5
/map_pop.html 3 4845 0 1
/conferences-and-workshops.php 3 77029 0 1
//index.php/Home/AppUpload/commentUpload 3 97395 0 0
/buffet.php 4 103064 1 1
/facilities/terms-and-conditions 3 95807 0 0
/wedding.php 4 131782 1 2
/assets/360/poolview.swf 2 241490 0 1
/assets/360/poolview.html 25 81025 5 6
END_SIDER
