AWSTATS DATA FILE 7.7 (build 20180105)
# If you remove this file, all statistics for date 201907 will be lost/reset.
# Last config file used to build this data file was /home2/fyfxamvcmvss/tmp/awstats/awstats.cms.freudenbergleisure.com.conf.

# Position (offset in bytes) in this file for beginning of each section for
# direct I/O access. If you made changes somewhere in this file, you should
# also remove completely the MAP section (AWStats will rewrite it at next
# update).
BEGIN_MAP 28
POS_GENERAL 2028                
POS_TIME 2706                
POS_VISITOR 6074                
POS_DAY 7173                
POS_DOMAIN 3210                
POS_LOGIN 3447                
POS_ROBOT 3602                
POS_WORMS 3734                
POS_EMAILSENDER 3865                
POS_EMAILRECEIVER 4008                
POS_SESSION 7338                
POS_SIDER 7495                
POS_FILETYPES 4143                
POS_DOWNLOADS 4279                
POS_OS 4327                
POS_BROWSER 4406                
POS_SCREENSIZE 4485                
POS_UNKNOWNREFERER 4559                
POS_UNKNOWNREFERERBROWSER 4971                
POS_ORIGIN 5053                
POS_SEREFERRALS 5186                
POS_PAGEREFS 5330                
POS_SEARCHWORDS 5478                
POS_KEYWORDS 5630                
POS_MISC 2370                
POS_ERRORS 5689                
POS_CLUSTER 3303                
POS_SIDER_404 5765                
END_MAP

# LastLine    = Date of last record processed - Last record line number in last log - Last record offset in last log - Last record signature value
# FirstTime   = Date of first visit for history file
# LastTime    = Date of last visit for history file
# LastUpdate  = Date of last update - Nb of parsed records - Nb of parsed old records - Nb of parsed new records - Nb of parsed corrupted - Nb of parsed dropped
# TotalVisits = Number of visits
# TotalUnique = Number of unique visitors
# MonthHostsKnown   = Number of hosts known
# MonthHostsUnKnown = Number of hosts unknown
BEGIN_GENERAL 8
LastLine 20190715094520 18 4360 22091948495587
FirstTime 20190701042429
LastTime 20190715094520
LastUpdate 20190715174811 18 0 18 0 0
TotalVisits 16                  
TotalUnique 16                  
MonthHostsKnown 0                   
MonthHostsUnknown 22                  
END_GENERAL

# Misc ID - Pages - Hits - Bandwidth
BEGIN_MISC 10
RealPlayerSupport 0 0 0
PDFSupport 0 0 0
WindowsMediaPlayerSupport 0 0 0
FlashSupport 0 0 0
QuickTimeSupport 0 0 0
JavascriptDisabled 0 0 0
TotalMisc 0 0 0
AddToFavourites 0 0 0
JavaEnabled 0 0 0
DirectorSupport 0 0 0
END_MISC

# Hour - Pages - Hits - Bandwidth - Not viewed Pages - Not viewed Hits - Not viewed Bandwidth
BEGIN_TIME 24
0 0 0 0 0 0 0
1 0 0 0 0 0 0
2 0 0 0 0 0 0
3 0 0 0 0 0 0
4 6 18 737058 0 0 0
5 0 0 0 0 0 0
6 0 0 0 0 0 0
7 6 18 737058 0 0 0
8 0 0 0 0 0 0
9 6 18 737058 0 0 0
10 0 0 0 0 0 0
11 0 0 0 0 0 0
12 0 0 0 0 0 0
13 0 0 0 0 0 0
14 0 0 0 0 0 0
15 0 0 0 0 0 0
16 0 0 0 0 0 0
17 1 1 3747 0 0 0
18 0 0 0 0 0 0
19 0 0 0 0 0 0
20 1 1 3747 0 0 0
21 0 0 0 0 0 0
22 0 0 0 0 0 0
23 2 2 7494 0 0 0
END_TIME

# Domain - Pages - Hits - Bandwidth
# The 25 first Pages must be first (order not required for others)
BEGIN_DOMAIN 2
us 18 54 2226162
ip 4 4 0
END_DOMAIN

# Cluster ID - Pages - Hits - Bandwidth
BEGIN_CLUSTER 0
END_CLUSTER

# Login - Pages - Hits - Bandwidth - Last visit
# The 10 first Pages must be first (order not required for others)
BEGIN_LOGIN 0
END_LOGIN

# Robot ID - Hits - Bandwidth - Last visit - Hits on robots.txt
# The 25 first Hits must be first (order not required for others)
BEGIN_ROBOT 0
END_ROBOT

# Worm ID - Hits - Bandwidth - Last visit
# The 5 first Hits must be first (order not required for others)
BEGIN_WORMS 0
END_WORMS

# EMail - Hits - Bandwidth - Last visit
# The 20 first Hits must be first (order not required for others)
BEGIN_EMAILSENDER 0
END_EMAILSENDER

# EMail - Hits - Bandwidth - Last visit
# The 20 first hits must be first (order not required for others)
BEGIN_EMAILRECEIVER 0
END_EMAILRECEIVER

# Files type - Hits - Bandwidth - Bandwidth without compression - Bandwidth after compression
BEGIN_FILETYPES 4
css 18 1279206 0 0
woff 6 140544 0 0
html 16 37470 0 0
js 18 768942 0 0
END_FILETYPES

# Downloads - Hits - Bandwidth
BEGIN_DOWNLOADS 0
END_DOWNLOADS

# OS ID - Hits
BEGIN_OS ID - Hits - Pages 1
Unknown 58 22
END_OS

# Browser ID - Hits - Pages
BEGIN_BROWSER 2
cloudflare 54 18
mozilla 4 4
END_BROWSER

# Screen size - Hits
BEGIN_SCREENSIZE 0
END_SCREENSIZE

# Unknown referer OS - Last visit date
BEGIN_UNKNOWNREFERER 3
Mozilla/5.0_(compatible;_CloudFlare-AlwaysOnline/1.0;__http://www.cloudflare.com/always-online)_AppleWebKit/534.34 20190715094520
Mozilla/5.0_(compatible;_NetcraftSurveyAgent/1.0;__info@netcraft.com) 20190704201854
Mozilla/5.0_(compatible;_CloudFlare-AlwaysOnline/1.0;_http://www.cloudflare.com/always-online) 20190715094512
END_UNKNOWNREFERER

# Unknown referer Browser - Last visit date
BEGIN_UNKNOWNREFERERBROWSER 0
END_UNKNOWNREFERERBROWSER

# Origin - Pages - Hits 
BEGIN_ORIGIN 6
From0 16 16
From1 0 0
From2 0 0
From3 0 0
From4 6 42
From5 0 0
END_ORIGIN

# Search engine referers ID - Pages - Hits
BEGIN_SEREFERRALS 0
END_SEREFERRALS

# External page referers - Pages - Hits
# The 25 first Pages must be first (order not required for others)
BEGIN_PAGEREFS 0
END_PAGEREFS

# Search keyphrases - Number of search
# The 10 first number of search must be first (order not required for others)
BEGIN_SEARCHWORDS 0
END_SEARCHWORDS

# Search keywords - Number of search
# The 25 first number of search must be first (order not required for others)
BEGIN_KEYWORDS 0
END_KEYWORDS

# Errors - Hits - Bandwidth
BEGIN_ERRORS 0
END_ERRORS

# URL with 404 errors - Hits - Last URL referrer
BEGIN_SIDER_404 0
END_SIDER_404

# Host - Pages - Hits - Bandwidth - Last visit date - [Start date of last visit] - [Last page of last visit]
# [Start date of last visit] and [Last page of last visit] are saved only if session is not finished
# The 25 first Hits must be first (order not required for others)
BEGIN_VISITOR 22
162.158.65.236 2 8 368529 20190715094519 20190715094514 /assets/bootstrap-3.3.7-dist/fonts/glyphicons-halflings-regular.woff
162.158.167.59 2 2 7494 20190708070418
162.158.64.109 2 8 368529 20190715094520 20190715094516 /assets/bootstrap-3.3.7-dist/fonts/glyphicons-halflings-regular.woff
162.158.167.233 2 2 46848 20190708070419
162.158.64.73 2 8 368529 20190701042431
162.158.64.116 2 8 368529 20190701042432
2400:cb00:36:1004::a29e:406d 1 1 0 20190715094512 20190715094512 /
2400:cb00:36:1003::a29e:4049 1 1 0 20190701042429
167.71.184.216 1 1 3747 20190703232150
167.71.182.240 1 1 3747 20190704201854
165.22.33.60 1 1 3747 20190703230230
162.158.166.58 1 1 0 20190708070417
165.227.109.7 1 1 3747 20190704175127
2400:cb00:36:1050::a29e:41ec 1 1 0 20190715094512 20190715094512 /
172.68.144.252 1 1 0 20190708070304
2400:cb00:36:1004::a29e:4074 1 1 0 20190701042430
162.158.165.5 0 2 74090 
172.68.144.102 0 2 242400 
172.69.135.123 0 2 173192 
172.68.144.36 0 2 3222 
162.158.165.153 0 2 180780 
172.68.144.198 0 2 9032 
END_VISITOR

# Date - Pages - Hits - Bandwidth - Visits
BEGIN_DAY 5
20190701 6 18 737058 4
20190703 2 2 7494 2
20190704 2 2 7494 2
20190708 6 18 737058 4
20190715 6 18 737058 4
END_DAY

# Session range - Number of visits
BEGIN_SESSION 2
0s-30s 10
30s-2mn 2
END_SESSION

# URL - Pages - Bandwidth - Entry - Exit
# The 25 first Pages must be first (order not required for others)
BEGIN_SIDER 2
/ 16 37470 15 9
/assets/bootstrap-3.3.7-dist/fonts/glyphicons-halflings-regular.woff 6 140544 1 3
END_SIDER
