AWSTATS DATA FILE 7.6 (build 20161204)
# If you remove this file, all statistics for date 201808 will be lost/reset.
# Last config file used to build this data file was /home2/fyfxamvcmvss/tmp/awstats/awstats.cms.freudenbergleisure.com.conf.

# Position (offset in bytes) in this file for beginning of each section for
# direct I/O access. If you made changes somewhere in this file, you should
# also remove completely the MAP section (AWStats will rewrite it at next
# update).
BEGIN_MAP 28
POS_GENERAL 2028                
POS_TIME 2700                
POS_VISITOR 6056                
POS_DAY 7102                
POS_DOMAIN 3202                
POS_LOGIN 3430                
POS_ROBOT 3585                
POS_WORMS 3717                
POS_EMAILSENDER 3848                
POS_EMAILRECEIVER 3991                
POS_SESSION 7268                
POS_SIDER 7415                
POS_FILETYPES 4126                
POS_DOWNLOADS 4260                
POS_OS 4308                
POS_BROWSER 4387                
POS_SCREENSIZE 4466                
POS_UNKNOWNREFERER 4540                
POS_UNKNOWNREFERERBROWSER 4953                
POS_ORIGIN 5035                
POS_SEREFERRALS 5168                
POS_PAGEREFS 5312                
POS_SEARCHWORDS 5460                
POS_KEYWORDS 5612                
POS_MISC 2364                
POS_ERRORS 5671                
POS_CLUSTER 3286                
POS_SIDER_404 5747                
END_MAP

# LastLine    = Date of last record processed - Last record line number in last log - Last record offset in last log - Last record signature value
# FirstTime   = Date of first visit for history file
# LastTime    = Date of last visit for history file
# LastUpdate  = Date of last update - Nb of parsed records - Nb of parsed old records - Nb of parsed new records - Nb of parsed corrupted - Nb of parsed dropped
# TotalVisits = Number of visits
# TotalUnique = Number of unique visitors
# MonthHostsKnown   = Number of hosts known
# MonthHostsUnKnown = Number of hosts unknown
BEGIN_GENERAL 8
LastLine 20180903100814 1 0 10777075869800
FirstTime 20180805125222
LastTime 20180827070728
LastUpdate 20180903174248 1 0 0 0 0
TotalVisits 15                  
TotalUnique 14                  
MonthHostsKnown 0                   
MonthHostsUnknown 32                  
END_GENERAL

# Misc ID - Pages - Hits - Bandwidth
BEGIN_MISC 10
DirectorSupport 0 0 0
JavaEnabled 0 0 0
FlashSupport 0 0 0
WindowsMediaPlayerSupport 0 0 0
TotalMisc 0 0 0
PDFSupport 0 0 0
JavascriptDisabled 0 0 0
QuickTimeSupport 0 0 0
RealPlayerSupport 0 0 0
AddToFavourites 0 0 0
END_MISC

# Hour - Pages - Hits - Bandwidth - Not viewed Pages - Not viewed Hits - Not viewed Bandwidth
BEGIN_TIME 24
0 4 10 368529 0 0 0
1 0 0 0 0 0 0
2 0 0 0 0 0 0
3 0 0 0 0 0 0
4 0 0 0 0 0 0
5 0 0 0 0 0 0
6 0 0 0 0 0 0
7 4 10 368529 0 0 0
8 1 1 3747 0 0 0
9 0 0 0 0 0 0
10 0 0 0 0 0 0
11 0 0 0 0 0 0
12 3 9 368529 0 0 0
13 0 0 0 0 0 0
14 0 0 0 0 0 0
15 3 9 368529 0 0 0
16 0 0 0 0 0 0
17 0 0 0 0 0 0
18 0 0 0 0 0 0
19 0 0 0 0 0 0
20 0 0 0 0 0 0
21 0 0 0 0 0 0
22 0 0 0 0 0 0
23 0 0 0 0 0 0
END_TIME

# Domain - Pages - Hits - Bandwidth
# The 25 first Pages must be first (order not required for others)
BEGIN_DOMAIN 1
us 15 39 1477863
END_DOMAIN

# Cluster ID - Pages - Hits - Bandwidth
BEGIN_CLUSTER 0
END_CLUSTER

# Login - Pages - Hits - Bandwidth - Last visit
# The 10 first Pages must be first (order not required for others)
BEGIN_LOGIN 0
END_LOGIN

# Robot ID - Hits - Bandwidth - Last visit - Hits on robots.txt
# The 25 first Hits must be first (order not required for others)
BEGIN_ROBOT 0
END_ROBOT

# Worm ID - Hits - Bandwidth - Last visit
# The 5 first Hits must be first (order not required for others)
BEGIN_WORMS 0
END_WORMS

# EMail - Hits - Bandwidth - Last visit
# The 20 first Hits must be first (order not required for others)
BEGIN_EMAILSENDER 0
END_EMAILSENDER

# EMail - Hits - Bandwidth - Last visit
# The 20 first hits must be first (order not required for others)
BEGIN_EMAILRECEIVER 0
END_EMAILRECEIVER

# Files type - Hits - Bandwidth - Bandwidth without compression - Bandwidth after compression
BEGIN_FILETYPES 4
css 12 852804 0 0
js 12 512628 0 0
html 11 18735 0 0
woff 4 93696 0 0
END_FILETYPES

# Downloads - Hits - Bandwidth
BEGIN_DOWNLOADS 0
END_DOWNLOADS

# OS ID - Hits
BEGIN_OS ID - Hits - Pages 1
Unknown 39 15
END_OS

# Browser ID - Hits - Pages
BEGIN_BROWSER 2
mozilla 1 1
cloudflare 38 14
END_BROWSER

# Screen size - Hits
BEGIN_SCREENSIZE 0
END_SCREENSIZE

# Unknown referer OS - Last visit date
BEGIN_UNKNOWNREFERER 3
Mozilla/5.0_(compatible;_CloudFlare-AlwaysOnline/1.0;__http://www.cloudflare.com/always-online) 20180827070722
Mozilla/5.0_(compatible;_NetcraftSurveyAgent/1.0;__info@netcraft.com) 20180810085353
Mozilla/5.0_(compatible;_CloudFlare-AlwaysOnline/1.0;__http://www.cloudflare.com/always-online)_AppleWebKit/534.34 20180827070728
END_UNKNOWNREFERER

# Unknown referer Browser - Last visit date
BEGIN_UNKNOWNREFERERBROWSER 0
END_UNKNOWNREFERERBROWSER

# Origin - Pages - Hits 
BEGIN_ORIGIN 6
From0 11 11
From1 0 0
From2 0 0
From3 0 0
From4 4 28
From5 0 0
END_ORIGIN

# Search engine referers ID - Pages - Hits
BEGIN_SEREFERRALS 0
END_SEREFERRALS

# External page referers - Pages - Hits
# The 25 first Pages must be first (order not required for others)
BEGIN_PAGEREFS 0
END_PAGEREFS

# Search keyphrases - Number of search
# The 10 first number of search must be first (order not required for others)
BEGIN_SEARCHWORDS 0
END_SEARCHWORDS

# Search keywords - Number of search
# The 25 first number of search must be first (order not required for others)
BEGIN_KEYWORDS 0
END_KEYWORDS

# Errors - Hits - Bandwidth
BEGIN_ERRORS 0
END_ERRORS

# URL with 404 errors - Hits - Last URL referrer
BEGIN_SIDER_404 0
END_SIDER_404

# Host - Pages - Hits - Bandwidth - Last visit date - [Start date of last visit] - [Last page of last visit]
# [Start date of last visit] and [Last page of last visit] are saved only if session is not finished
# The 25 first Hits must be first (order not required for others)
BEGIN_VISITOR 32
172.69.62.81 2 2 46848 20180827070728
108.162.219.15 1 1 3747 20180810085353
172.69.22.49 1 1 0 20180805125222
172.69.23.104 1 1 0 20180827070722
108.162.246.112 1 1 0 20180812152610
162.158.106.209 1 1 0 20180820000219
172.69.62.33 1 1 3747 20180812152624
172.68.65.41 1 1 23424 20180805125227
162.158.79.154 1 1 3747 20180805125223
172.69.62.111 1 1 3747 20180827070722
162.158.78.111 1 1 3747 20180820000220
108.162.245.45 1 1 0 20180827070722
172.69.62.15 1 1 23424 20180812152625
162.158.255.177 1 1 0 20180820000219
162.158.79.160 0 1 1611 
162.158.78.57 0 2 3222 
162.158.78.63 0 1 86596 
172.69.62.51 0 1 121200 
172.68.65.173 0 1 121200 
172.69.62.75 0 1 4516 
162.158.78.237 0 1 86596 
172.68.65.65 0 2 242400 
162.158.78.129 0 1 90390 
172.69.62.147 0 2 74090 
162.158.79.166 0 1 1611 
162.158.79.190 0 1 37045 
173.245.54.6 0 1 37045 
162.158.79.124 0 2 173192 
172.68.65.29 0 1 4516 
162.158.78.39 0 2 180780 
173.245.54.42 0 2 9032 
162.158.79.148 0 1 90390 
END_VISITOR

# Date - Pages - Hits - Bandwidth - Visits
BEGIN_DAY 5
20180805 3 9 368529 3
20180810 1 1 3747 1
20180812 3 9 368529 3
20180820 4 10 368529 4
20180827 4 10 368529 4
END_DAY

# Session range - Number of visits
BEGIN_SESSION 1
0s-30s 15
END_SESSION

# URL - Pages - Bandwidth - Entry - Exit
# The 25 first Pages must be first (order not required for others)
BEGIN_SIDER 2
/ 11 18735 11 11
/assets/bootstrap-3.3.7-dist/fonts/glyphicons-halflings-regular.woff 4 93696 4 4
END_SIDER
