AWSTATS DATA FILE 7.7 (build 20180105)
# If you remove this file, all statistics for date 201904 will be lost/reset.
# Last config file used to build this data file was /home2/fyfxamvcmvss/tmp/awstats/awstats.randholeeresort.freudenbergleisure.lk.conf.

# Position (offset in bytes) in this file for beginning of each section for
# direct I/O access. If you made changes somewhere in this file, you should
# also remove completely the MAP section (AWStats will rewrite it at next
# update).
BEGIN_MAP 28
POS_GENERAL 2039                
POS_TIME 2703                
POS_VISITOR 6714                
POS_DAY 7198                
POS_DOMAIN 3353                
POS_LOGIN 3619                
POS_ROBOT 3774                
POS_WORMS 4378                
POS_EMAILSENDER 4509                
POS_EMAILRECEIVER 4652                
POS_SESSION 7468                
POS_SIDER 7615                
POS_FILETYPES 4787                
POS_DOWNLOADS 4887                
POS_OS 4935                
POS_BROWSER 5042                
POS_SCREENSIZE 5241                
POS_UNKNOWNREFERER 5315                
POS_UNKNOWNREFERERBROWSER 5597                
POS_ORIGIN 5679                
POS_SEREFERRALS 5810                
POS_PAGEREFS 5954                
POS_SEARCHWORDS 6102                
POS_KEYWORDS 6254                
POS_MISC 2367                
POS_ERRORS 6313                
POS_CLUSTER 3475                
POS_SIDER_404 6405                
END_MAP

# LastLine    = Date of last record processed - Last record line number in last log - Last record offset in last log - Last record signature value
# FirstTime   = Date of first visit for history file
# LastTime    = Date of last visit for history file
# LastUpdate  = Date of last update - Nb of parsed records - Nb of parsed old records - Nb of parsed new records - Nb of parsed corrupted - Nb of parsed dropped
# TotalVisits = Number of visits
# TotalUnique = Number of unique visitors
# MonthHostsKnown   = Number of hosts known
# MonthHostsUnKnown = Number of hosts unknown
BEGIN_GENERAL 8
LastLine 20190501000413 12 1826 9762595608267
FirstTime 0
LastTime 20190426130132
LastUpdate 20190501174757 12 0 11 0 0
TotalVisits 11                  
TotalUnique 9                   
MonthHostsKnown 0                   
MonthHostsUnknown 10                  
END_GENERAL

# Misc ID - Pages - Hits - Bandwidth
BEGIN_MISC 10
WindowsMediaPlayerSupport 0 0 0
JavaEnabled 0 0 0
RealPlayerSupport 0 0 0
PDFSupport 0 0 0
DirectorSupport 0 0 0
FlashSupport 0 0 0
AddToFavourites 0 0 0
QuickTimeSupport 0 0 0
TotalMisc 0 0 0
JavascriptDisabled 0 0 0
END_MISC

# Hour - Pages - Hits - Bandwidth - Not viewed Pages - Not viewed Hits - Not viewed Bandwidth
BEGIN_TIME 24
0 0 0 0 5 10 390734
1 0 0 0 3 28 1096344
2 0 0 0 6 45 1119576
3 0 0 0 1 5 123286
4 0 0 0 3 11 279050
5 0 0 0 5 17 434814
6 1 2 170014 3 6 165540
7 0 0 0 4 8 220720
8 0 0 0 4 10 266124
9 1 2 170014 21 23 541698
10 0 0 0 6 26 648908
11 0 0 0 1 2 55180
12 1 2 170014 1 2 46990
13 1 1 32478 2 7 178466
14 1 1 32478 5 10 266124
15 1 1 32478 4 9 243422
16 1 1 32478 4 11 298220
17 1 1 32478 0 0 0
18 0 0 0 2 4 110360
19 0 0 0 5 13 341519
20 0 0 0 2 6 155764
21 0 0 0 6 16 421888
22 1 1 32478 3 4 120136
23 2 2 64956 9 26 1262703
END_TIME

# Domain - Pages - Hits - Bandwidth
# The 25 first Pages must be first (order not required for others)
BEGIN_DOMAIN 4
us 7 7 227346
ip 2 2 64956
lk 2 4 340028
ru 0 1 137536
END_DOMAIN

# Cluster ID - Pages - Hits - Bandwidth
BEGIN_CLUSTER 0
END_CLUSTER

# Login - Pages - Hits - Bandwidth - Last visit
# The 10 first Pages must be first (order not required for others)
BEGIN_LOGIN 0
END_LOGIN

# Robot ID - Hits - Bandwidth - Last visit - Hits on robots.txt
# The 25 first Hits must be first (order not required for others)
BEGIN_ROBOT 11
Googlebot/ 79 3077136 20190430190256 0
YandexBot/ 18 584604 20190430234411 0
Baiduspider/ 7 227346 20190429220416 0
Mail\.RU_Bot/ 7 332404 20190429162941 0
bot[\s_+:,\.\;\/\\-] 2 64956 20190402191305 0
bingbot/ 2 170014 20190408021042 0
HubSpot[\x20]Webcrawler 1 32478 20190416052330 0
netEstate[\x20]NE[\x20]Crawler 1 32478 20190407130916 0
Googlebot\-Image/ 1 137536 20190424233610 0
no_user_agent 1 32478 20190426002743 0
[\s_+:,\.\;\/\\-]bot 1 32478 20190409232950 0
END_ROBOT

# Worm ID - Hits - Bandwidth - Last visit
# The 5 first Hits must be first (order not required for others)
BEGIN_WORMS 0
END_WORMS

# EMail - Hits - Bandwidth - Last visit
# The 20 first Hits must be first (order not required for others)
BEGIN_EMAILSENDER 0
END_EMAILSENDER

# EMail - Hits - Bandwidth - Last visit
# The 20 first hits must be first (order not required for others)
BEGIN_EMAILRECEIVER 0
END_EMAILRECEIVER

# Files type - Hits - Bandwidth - Bandwidth without compression - Bandwidth after compression
BEGIN_FILETYPES 2
png 3 412608 0 0
html 11 357258 0 0
END_FILETYPES

# Downloads - Hits - Bandwidth
BEGIN_DOWNLOADS 0
END_DOWNLOADS

# OS ID - Hits
BEGIN_OS ID - Hits - Pages 4
Unknown 5 5
win10 6 4
linux 2 2
winxp 1 0
END_OS

# Browser ID - Hits - Pages
BEGIN_BROWSER 8
chrome73.0.3683.86 4 2
chrome49.0.2623.112 1 0
firefox64.0 1 1
mozilla 3 3
edge18 1 1
cloudflare 2 2
chrome69.0.3497.100 1 1
chrome60.0.3112.101 1 1
END_BROWSER

# Screen size - Hits
BEGIN_SCREENSIZE 0
END_SCREENSIZE

# Unknown referer OS - Last visit date
BEGIN_UNKNOWNREFERER 2
Mozilla/5.0_(compatible;_NetcraftSurveyAgent/1.0;__info@netcraft.com) 20190404151424
Mozilla/5.0_(compatible;_CloudFlare-AlwaysOnline/1.0;_http://www.cloudflare.com/always-online) 20190426130132
END_UNKNOWNREFERER

# Unknown referer Browser - Last visit date
BEGIN_UNKNOWNREFERERBROWSER 0
END_UNKNOWNREFERERBROWSER

# Origin - Pages - Hits 
BEGIN_ORIGIN 6
From0 9 12
From1 0 0
From2 0 0
From3 0 0
From4 2 2
From5 0 0
END_ORIGIN

# Search engine referers ID - Pages - Hits
BEGIN_SEREFERRALS 0
END_SEREFERRALS

# External page referers - Pages - Hits
# The 25 first Pages must be first (order not required for others)
BEGIN_PAGEREFS 0
END_PAGEREFS

# Search keyphrases - Number of search
# The 10 first number of search must be first (order not required for others)
BEGIN_SEARCHWORDS 0
END_SEARCHWORDS

# Search keywords - Number of search
# The 25 first number of search must be first (order not required for others)
BEGIN_KEYWORDS 0
END_KEYWORDS

# Errors - Hits - Bandwidth
BEGIN_ERRORS 1
302 179 4063658
END_ERRORS

# URL with 404 errors - Hits - Last URL referrer
BEGIN_SIDER_404 0
END_SIDER_404

# Host - Pages - Hits - Bandwidth - Last visit date - [Start date of last visit] - [Last page of last visit]
# [Start date of last visit] and [Last page of last visit] are saved only if session is not finished
# The 25 first Hits must be first (order not required for others)
BEGIN_VISITOR 10
52.70.146.155 3 3 97434 20190423234130
159.203.87.119 1 1 32478 20190404141225
2400:cb00:36:1034::a29e:44de 1 1 32478 20190426130132
124.43.17.1 1 2 170014 20190402120559
18.202.228.79 1 1 32478 20190421064822
159.203.168.116 1 1 32478 20190404151424
2400:cb00:36:1039::a29e:4719 1 1 32478 20190417220945
68.183.62.114 1 1 32478 20190402175215
182.161.14.142 1 2 170014 20190405095901
95.84.203.166 0 1 137536 
END_VISITOR

# Date - Pages - Hits - Bandwidth - Visits
BEGIN_DAY 10
20190402 2 3 202492 2
20190404 2 2 64956 2
20190405 1 2 170014 1
20190417 1 1 32478 1
20190420 1 1 32478 1
20190421 1 1 32478 1
20190422 1 1 32478 1
20190423 1 1 32478 1
20190426 1 1 32478 1
20190427 0 1 137536 0
END_DAY

# Session range - Number of visits
BEGIN_SESSION 1
0s-30s 11
END_SESSION

# URL - Pages - Bandwidth - Entry - Exit
# The 25 first Pages must be first (order not required for others)
BEGIN_SIDER 1
/ 11 357258 11 11
END_SIDER
