AWSTATS DATA FILE 7.6 (build 20161204)
# If you remove this file, all statistics for date 201801 will be lost/reset.
# Last config file used to build this data file was /home2/fyfxamvcmvss/tmp/awstats/awstats.freudenbergleisure.com.conf.

# Position (offset in bytes) in this file for beginning of each section for
# direct I/O access. If you made changes somewhere in this file, you should
# also remove completely the MAP section (AWStats will rewrite it at next
# update).
BEGIN_MAP 28
POS_GENERAL 2024                
POS_TIME 2669                
POS_VISITOR 7553                
POS_DAY 24114               
POS_DOMAIN 3316                
POS_LOGIN 3563                
POS_ROBOT 3718                
POS_WORMS 3983                
POS_EMAILSENDER 4114                
POS_EMAILRECEIVER 4257                
POS_SESSION 24223               
POS_SIDER 24360               
POS_FILETYPES 4392                
POS_DOWNLOADS 4550                
POS_OS 5472                
POS_BROWSER 5685                
POS_SCREENSIZE 6095                
POS_UNKNOWNREFERER 6169                
POS_UNKNOWNREFERERBROWSER 6412                
POS_ORIGIN 6520                
POS_SEREFERRALS 6654                
POS_PAGEREFS 6809                
POS_SEARCHWORDS 6957                
POS_KEYWORDS 7109                
POS_MISC 2333                
POS_ERRORS 7168                
POS_CLUSTER 3419                
POS_SIDER_404 7244                
END_MAP

# LastLine    = Date of last record processed - Last record line number in last log - Last record offset in last log - Last record signature value
# FirstTime   = Date of first visit for history file
# LastTime    = Date of last visit for history file
# LastUpdate  = Date of last update - Nb of parsed records - Nb of parsed old records - Nb of parsed new records - Nb of parsed corrupted - Nb of parsed dropped
# TotalVisits = Number of visits
# TotalUnique = Number of unique visitors
# MonthHostsKnown   = Number of hosts known
# MonthHostsUnKnown = Number of hosts unknown
BEGIN_GENERAL 8
LastLine 20180209084214 1 0 9717013656674
FirstTime 0
LastTime 0
LastUpdate 20180209173805 1 0 0 0 0
TotalVisits 0                   
TotalUnique 0                   
MonthHostsKnown 0                   
MonthHostsUnknown 631                 
END_GENERAL

# Misc ID - Pages - Hits - Bandwidth
BEGIN_MISC 10
JavascriptDisabled 0 0 0
RealPlayerSupport 0 0 0
DirectorSupport 0 0 0
WindowsMediaPlayerSupport 0 0 0
PDFSupport 0 0 0
FlashSupport 0 0 0
TotalMisc 0 0 0
JavaEnabled 0 0 0
QuickTimeSupport 0 0 0
AddToFavourites 0 2 0
END_MISC

# Hour - Pages - Hits - Bandwidth - Not viewed Pages - Not viewed Hits - Not viewed Bandwidth
BEGIN_TIME 24
0 0 6 1387062 0 1 338482
1 0 19 251760 0 8 28104
2 0 0 0 0 0 0
3 0 1 5017 0 1 424757
4 0 0 0 0 1 87587
5 0 0 0 0 1 103416
6 0 3 810391 0 22 1552216
7 0 0 0 0 1 271752
8 0 0 0 0 0 0
9 0 1 141958 0 0 0
10 0 0 0 0 0 0
11 0 48 2687701 0 1 16294
12 0 169 22053737 0 8 2059819
13 0 64 10193086 0 5 498884
14 0 53 7516124 0 2 160976
15 0 61 12283574 0 1 167162
16 0 745 83992991 0 1 87587
17 0 60 2535161 0 0 0
18 0 0 0 0 0 0
19 0 41 6685588 0 0 0
20 0 0 0 0 0 0
21 0 0 0 0 1 149499
22 0 40 3989192 0 0 0
23 0 30 1112416 0 0 0
END_TIME

# Domain - Pages - Hits - Bandwidth
# The 25 first Pages must be first (order not required for others)
BEGIN_DOMAIN 2
us 0 1286 147839451
eu 0 55 7806307
END_DOMAIN

# Cluster ID - Pages - Hits - Bandwidth
BEGIN_CLUSTER 0
END_CLUSTER

# Login - Pages - Hits - Bandwidth - Last visit
# The 10 first Pages must be first (order not required for others)
BEGIN_LOGIN 0
END_LOGIN

# Robot ID - Hits - Bandwidth - Last visit - Hits on robots.txt
# The 25 first Hits must be first (order not required for others)
BEGIN_ROBOT 3
bot[\s_+:,\.\;\/\\-] 37 4871115 20180103154941 0
googlebot 11 54390 20180103113159 0
[\s_+:,\.\;\/\\-]bot 4 1011606 20180103164028 0
END_ROBOT

# Worm ID - Hits - Bandwidth - Last visit
# The 5 first Hits must be first (order not required for others)
BEGIN_WORMS 0
END_WORMS

# EMail - Hits - Bandwidth - Last visit
# The 20 first Hits must be first (order not required for others)
BEGIN_EMAILSENDER 0
END_EMAILSENDER

# EMail - Hits - Bandwidth - Last visit
# The 20 first hits must be first (order not required for others)
BEGIN_EMAILRECEIVER 0
END_EMAILRECEIVER

# Files type - Hits - Bandwidth - Bandwidth without compression - Bandwidth after compression
BEGIN_FILETYPES 5
js 203 1358581 0 0
png 67 1252765 0 0
css 76 572291 0 0
txt 23 1745 0 0
jpg 972 152460376 0 0
END_FILETYPES

# Downloads - Hits - Bandwidth
BEGIN_DOWNLOADS 12
/.well-known/pki-validation/844BBFDF080DE2159F5C628270812132.txt 4 0 308
/.well-known/pki-validation/41280382F20D7E036CFC5B332962293C.txt 2 0 154
/.well-known/pki-validation/4FC0B4FE19F510FA07CEC2B595A30C4D.txt 2 0 154
/.well-known/pki-validation/76A761AEFE9FF0ACBE645927AEBF42E3.txt 2 0 154
/.well-known/pki-validation/6ABEAD4AC2D00FF3755462A541CDCFC8.txt 2 0 154
/.well-known/pki-validation/70A61FF85B6ED7E2D04F060F61A4D1CF.txt 2 0 154
/.well-known/pki-validation/71729C8086653537690E28279D25408B.txt 2 0 154
/.well-known/pki-validation/B9CC7589F2A7BDFDC6D6D74B0F3F4F99.txt 2 0 154
/.well-known/pki-validation/1EEA4B72CD435FBED3B17F789A4BFF26.txt 2 0 154
/.well-known/pki-validation/BC26DD5F01F3369371AE9E88B10604CF.txt 1 0 77
/.well-known/pki-validation/70DD7BF000E5EAF2B77CA95D2A4D402D.txt 1 0 64
/.well-known/pki-validation/24B471E41558C734355A898468AB53BB.txt 1 0 64
END_DOWNLOADS

# OS ID - Hits
BEGIN_OS ID - Hits - Pages 11
winnt 166 0
win8 17 0
macosx 100 0
ios_ipad 29 0
linuxubuntu 20 0
ios_iphone 43 0
win8.1 89 0
Unknown 719 0
winxp 36 0
win7 83 0
linuxandroid 39 0
END_OS

# Browser ID - Hits - Pages
BEGIN_BROWSER 18
chrome42.0.2311.90 1 0
chrome54.0.2840.71 13 0
safari11.0 27 0
chrome57.0.2987.133 14 0
firefox43.0 18 0
chrome52.0.2743.116 10 0
opera11.2.3.102637 1 0
safari10.0 45 0
msie11.0 22 0
safari11.0.1 31 0
safari11.0.2 55 0
chrome63.0.3239.111 38 0
Unknown 23 0
cloudflare 696 0
firefox57.0 23 0
chrome63.0.3239.84 184 0
firefox52.0 36 0
chrome63.0.3239.108 104 0
END_BROWSER

# Screen size - Hits
BEGIN_SCREENSIZE 0
END_SCREENSIZE

# Unknown referer OS - Last visit date
BEGIN_UNKNOWNREFERER 2
COMODO_DCV 20180102225328
Mozilla/5.0_(compatible;_CloudFlare-AlwaysOnline/1.0;__http://www.cloudflare.com/always-online)_AppleWebKit/534.34 20180102164603
END_UNKNOWNREFERER

# Unknown referer Browser - Last visit date
BEGIN_UNKNOWNREFERERBROWSER 1
COMODO_DCV 20180102225328
END_UNKNOWNREFERERBROWSER

# Origin - Pages - Hits 
BEGIN_ORIGIN 6
From0 0 24
From1 0 0
From2 0 3
From3 0 0
From4 0 1314
From5 0 0
END_ORIGIN

# Search engine referers ID - Pages - Hits
BEGIN_SEREFERRALS 1
google 0 3
END_SEREFERRALS

# External page referers - Pages - Hits
# The 25 first Pages must be first (order not required for others)
BEGIN_PAGEREFS 0
END_PAGEREFS

# Search keyphrases - Number of search
# The 10 first number of search must be first (order not required for others)
BEGIN_SEARCHWORDS 0
END_SEARCHWORDS

# Search keywords - Number of search
# The 25 first number of search must be first (order not required for others)
BEGIN_KEYWORDS 0
END_KEYWORDS

# Errors - Hits - Bandwidth
BEGIN_ERRORS 0
END_ERRORS

# URL with 404 errors - Hits - Last URL referrer
BEGIN_SIDER_404 0
END_SIDER_404

# Host - Pages - Hits - Bandwidth - Last visit date - [Start date of last visit] - [Last page of last visit]
# [Start date of last visit] and [Last page of last visit] are saved only if session is not finished
# The 25 first Hits must be first (order not required for others)
BEGIN_VISITOR 631
172.68.144.165 0 4 378053 
162.158.202.222 0 1 418133 
162.158.90.38 0 1 357207 
172.68.141.84 0 1 42723 
172.68.202.42 0 6 1131866 
162.158.165.174 0 1 71028 
162.158.178.6 0 1 46250 
162.158.166.133 0 1 0 
172.68.189.111 0 1 46250 
108.162.249.240 0 1 6155 
172.68.142.61 0 1 424757 
162.158.59.102 0 1 33338 
162.158.78.138 0 14 13747328 
162.158.222.102 0 1 266635 
172.68.65.110 0 2 211072 
172.69.62.90 0 3 204213 
162.158.79.127 0 4 350348 
172.68.46.139 0 1 1423 
162.158.165.72 0 1 4097 
162.158.111.81 0 1 698 
162.158.165.234 0 1 4086 
162.158.79.157 0 2 175174 
172.68.144.123 0 2 229218 
162.158.166.13 0 4 549409 
162.158.134.162 0 2 256228 
108.162.246.145 0 1 18802 
172.68.189.219 0 1 6155 
172.68.132.223 0 1 105751 
172.68.144.153 0 2 115779 
108.162.249.90 0 2 132974 
162.158.93.167 0 1 0 
172.68.141.138 0 1 73812 
172.68.142.241 0 1 39305 
162.158.165.6 0 1 78233 
162.158.202.90 0 3 186343 
162.158.134.84 0 1 39693 
172.68.62.132 0 2 583527 
172.69.22.172 0 1 57176 
172.69.62.186 0 8 1697644 
141.101.105.116 0 1 5017 
172.68.144.159 0 3 403785 
108.162.249.222 0 1 153063 
172.68.65.14 0 6 629328 
162.158.30.48 0 1 117448 
172.68.143.20 0 1 5672 
172.69.62.48 0 8 863980 
108.162.246.205 0 1 4097 
172.68.142.205 0 1 4086 
162.158.78.24 0 4 623092 
162.158.166.55 0 1 151969 
172.68.246.64 0 1 1648 
172.68.211.66 0 1 6505 
162.158.165.12 0 2 58574 
141.101.104.211 0 1 72180 
108.162.245.222 0 1 338482 
162.158.166.211 0 1 72180 
162.158.167.68 0 1 164995 
172.68.132.79 0 1 44414 
108.162.249.198 0 1 105067 
172.68.141.156 0 1 53173 
162.158.179.252 0 1 404361 
172.68.253.91 0 1 213965 
162.158.166.151 0 1 139153 
141.101.105.14 0 1 4969 
162.158.167.170 0 1 94913 
172.68.253.103 0 1 293131 
172.69.22.226 0 1 41805 
141.101.105.236 0 1 341606 
172.68.189.159 0 1 335091 
172.68.253.79 0 1 69108 
162.158.165.216 0 3 27475 
162.158.202.138 0 2 478589 
172.68.144.9 0 1 4593 
172.68.202.24 0 8 2444073 
108.162.215.66 0 1 16294 
162.158.167.158 0 1 4967 
162.158.79.241 0 7 854846 
162.158.222.66 0 2 918780 
172.68.142.193 0 2 186684 
108.162.246.121 0 1 5458 
172.69.62.120 0 4 5616 
162.158.79.253 0 10 10596 
172.68.142.211 0 1 114126 
162.158.134.54 0 1 418626 
162.158.166.79 0 3 484809 
162.158.134.150 0 1 150696 
172.68.58.169 0 1 141958 
172.68.133.68 0 1 54668 
172.68.133.236 0 1 5915 
162.158.88.214 0 1 35904 
162.158.179.42 0 1 320089 
172.68.132.235 0 1 109190 
162.158.89.69 0 1 70299 
162.158.78.60 0 4 211620 
141.101.105.74 0 1 2777 
162.158.167.86 0 1 16294 
162.158.134.222 0 1 29927 
162.158.202.6 0 1 56736 
162.158.111.99 0 1 5221 
172.69.23.29 0 1 95532 
141.101.76.18 0 1 216025 
172.68.246.214 0 1 8148 
162.158.222.48 0 2 283073 
172.68.189.27 0 2 314617 
162.158.166.193 0 4 327346 
172.68.142.31 0 1 58206 
162.158.78.252 0 2 175174 
172.68.144.189 0 3 257648 
162.158.78.36 0 3 4269 
172.69.22.4 0 2 240984 
173.245.54.51 0 8 752324 
162.158.111.213 0 1 365066 
162.158.78.96 0 6 5592 
172.68.253.199 0 2 74675 
162.158.167.176 0 1 40646 
162.158.79.199 0 6 16662 
172.68.142.247 0 1 49014 
172.69.22.208 0 1 48348 
172.68.146.28 0 1 128567 
172.68.63.61 0 1 213965 
172.68.133.176 0 1 144433 
141.101.77.40 0 1 73585 
162.158.165.90 0 2 230049 
172.69.22.46 0 1 52552 
162.158.134.108 0 1 42810 
162.158.58.23 0 1 68071 
162.158.167.62 0 1 312194 
162.158.106.68 0 1 179948 
162.158.78.246 0 10 214621 
108.162.246.85 0 1 377644 
172.68.133.212 0 1 73359 
162.158.111.225 0 2 57460 
172.68.142.223 0 1 78588 
172.68.144.219 0 1 377644 
141.101.77.58 0 1 68071 
162.158.255.240 0 1 128567 
141.101.77.6 0 1 4818 
162.158.111.9 0 1 2313 
162.158.179.48 0 2 94420 
172.68.141.78 0 2 36638 
162.158.134.126 0 2 471968 
172.68.253.241 0 1 406470 
141.101.77.196 0 1 1648 
162.158.91.205 0 1 49900 
162.158.92.24 0 1 298444 
162.158.165.162 0 1 6673 
172.68.144.213 0 3 274402 
141.101.104.199 0 1 1844 
162.158.234.78 0 2 140863 
108.162.249.168 0 1 78291 
172.68.143.92 0 4 190169 
172.68.10.96 0 1 33338 
162.158.234.12 0 1 406470 
162.158.167.242 0 1 6505 
162.158.165.132 0 3 140154 
162.158.167.32 0 3 482040 
162.158.165.144 0 1 252085 
108.162.246.55 0 1 276025 
108.162.249.54 0 2 126219 
172.68.65.236 0 6 4188 
172.68.244.122 0 1 1796 
172.69.62.96 0 7 50040 
172.68.144.33 0 1 49014 
172.68.143.200 0 1 59538 
162.158.79.133 0 4 247672 
162.158.88.88 0 2 343247 
172.68.143.224 0 1 3973 
108.162.246.43 0 1 164995 
172.68.202.12 0 6 472810 
173.245.54.9 0 6 9888 
172.69.62.150 0 6 910608 
162.158.255.138 0 1 59415 
162.158.165.66 0 1 42641 
162.158.166.175 0 1 216025 
172.68.146.16 0 3 223072 
162.158.255.102 0 1 66064 
162.158.91.199 0 1 320254 
172.68.47.8 0 1 5017 
108.162.246.61 0 1 5529 
172.68.189.9 0 1 45947 
162.158.165.138 0 2 50000 
141.101.105.182 0 1 252085 
172.68.246.208 0 1 3478 
162.158.91.139 0 1 77 
172.68.141.252 0 1 92614 
162.158.167.26 0 5 88468 
162.158.78.144 0 3 294786 
162.158.106.62 0 1 67159 
162.158.79.7 0 6 837338 
173.245.48.65 0 1 6673 
172.68.202.18 0 6 2360807 
172.68.253.187 0 1 212986 
162.158.79.145 0 4 147206 
162.158.88.142 0 1 243858 
172.68.144.207 0 2 68802 
172.68.144.249 0 1 46324 
172.68.63.31 0 1 59963 
162.158.202.36 0 1 213965 
172.68.253.229 0 1 357207 
162.158.202.78 0 1 49014 
162.158.93.107 0 1 31072 
172.68.144.147 0 2 135824 
172.69.23.65 0 1 4275 
108.162.245.54 0 1 252085 
108.162.246.235 0 1 102903 
162.158.179.102 0 1 43665 
172.68.143.68 0 1 4969 
141.101.104.193 0 1 1377 
172.68.65.50 0 4 313536 
162.158.202.30 0 1 38229 
172.68.141.144 0 1 37787 
162.158.167.200 0 3 211641 
172.68.141.42 0 1 23188 
172.68.144.69 0 2 169214 
172.68.141.114 0 1 31704 
108.162.250.55 0 2 70370 
172.68.47.140 0 1 698 
172.68.253.163 0 1 42810 
172.69.22.94 0 1 4364 
141.101.77.238 0 1 1829 
162.158.255.180 0 1 36423 
172.68.245.51 0 1 19753 
162.158.166.73 0 4 549636 
172.68.132.7 0 2 314005 
162.158.79.139 0 6 947692 
162.158.89.21 0 1 63807 
172.68.133.26 0 2 145765 
172.68.62.162 0 1 82866 
172.68.141.96 0 1 59415 
172.68.132.121 0 2 134884 
172.68.133.194 0 1 74155 
162.158.79.55 0 2 13346 
162.158.78.54 0 8 28886 
172.68.142.175 0 1 54618 
162.158.166.121 0 1 60944 
172.68.143.62 0 1 29030 
172.68.142.127 0 1 21722 
108.162.249.30 0 1 103416 
172.69.62.126 0 7 247372 
162.158.90.116 0 1 72370 
108.162.245.246 0 1 271752 
172.68.143.104 0 1 46720 
172.68.62.108 0 1 424988 
172.68.65.116 0 8 14662 
172.69.22.148 0 2 94260 
172.69.62.72 0 4 225924 
172.69.22.214 0 1 44476 
108.162.250.37 0 1 120417 
172.68.132.55 0 1 120417 
162.158.79.211 0 13 1498242 
162.158.134.60 0 1 119532 
162.158.79.25 0 2 211072 
162.158.167.182 0 2 53470 
108.162.249.120 0 1 89490 
172.68.143.86 0 1 42810 
162.158.222.12 0 1 406470 
108.162.246.103 0 1 378439 
108.162.249.24 0 3 186203 
162.158.166.49 0 1 40513 
141.101.105.230 0 3 238354 
141.101.76.150 0 2 862803 
172.68.132.205 0 1 26239 
162.158.90.74 0 1 64243 
172.69.62.174 0 2 312528 
172.68.253.157 0 1 233538 
172.68.133.182 0 1 216025 
162.158.179.222 0 1 351590 
172.69.62.60 0 5 32525 
162.158.167.236 0 5 404332 
141.101.105.248 0 2 703374 
162.158.58.191 0 1 1648 
108.162.250.43 0 2 150080 
162.158.165.108 0 4 348156 
162.158.78.30 0 2 253466 
172.68.143.74 0 1 44417 
172.68.146.22 0 2 672587 
172.68.144.141 0 1 1796 
162.158.134.204 0 2 361698 
172.69.22.70 0 2 124751 
162.158.90.152 0 1 351590 
172.69.62.162 0 10 1084440 
162.158.78.90 0 7 582883 
172.68.253.73 0 1 266635 
172.68.65.56 0 1 163154 
172.68.144.45 0 2 236827 
172.68.141.228 0 1 35981 
141.101.104.163 0 2 11522 
141.101.76.102 0 1 932 
172.68.141.216 0 1 72370 
172.68.254.134 0 1 48579 
108.162.215.96 0 1 3478 
172.68.144.99 0 3 159199 
172.68.11.103 0 1 1377 
172.68.133.92 0 2 104258 
172.68.144.57 0 4 619572 
162.158.91.241 0 1 46250 
172.68.245.153 0 1 16294 
162.158.234.42 0 2 918780 
162.158.166.97 0 1 56736 
172.68.146.40 0 2 5274 
162.158.167.80 0 2 340326 
162.158.78.102 0 4 712780 
162.158.166.43 0 2 572588 
172.68.254.170 0 1 59963 
162.158.166.139 0 1 4873 
172.68.144.105 0 3 197156 
108.162.249.114 0 2 65352 
162.158.234.102 0 2 547657 
162.158.111.159 0 2 4016 
172.69.62.168 0 6 1824 
162.158.167.134 0 1 49235 
108.162.249.126 0 3 156167 
162.158.178.179 0 2 597405 
173.245.48.101 0 1 5017 
172.69.22.16 0 1 55462 
172.68.144.15 0 2 128137 
172.68.65.248 0 6 761198 
172.68.133.230 0 1 51521 
162.158.90.134 0 1 130261 
172.68.132.49 0 1 67415 
162.158.202.204 0 1 460457 
162.158.79.109 0 6 292646 
162.158.88.220 0 1 49235 
162.158.90.146 0 1 234797 
172.68.133.122 0 1 327193 
172.69.62.144 0 8 12178132 
162.158.167.188 0 2 333058 
172.68.133.128 0 1 56736 
108.162.249.192 0 2 76787 
162.158.111.219 0 1 37519 
172.68.189.105 0 1 47186 
108.162.245.156 0 1 5797 
162.158.234.72 0 1 266635 
172.68.132.19 0 1 37023 
172.68.202.30 0 5 1129125 
172.68.62.18 0 1 404361 
162.158.165.30 0 1 49955 
172.68.142.133 0 2 464291 
172.68.133.74 0 2 185495 
141.101.104.223 0 1 6673 
172.69.62.6 0 2 312528 
162.158.202.12 0 1 266635 
162.158.134.186 0 2 466712 
108.162.245.18 0 1 5748 
141.101.77.178 0 1 932 
172.68.133.104 0 1 137087 
162.158.178.83 0 2 554112 
162.158.134.120 0 1 128567 
172.68.65.200 0 3 2982 
162.158.78.114 0 4 15614 
162.158.134.90 0 3 397143 
172.68.143.248 0 1 100147 
172.68.142.55 0 1 71028 
172.68.189.21 0 3 266545 
172.68.133.50 0 1 67645 
172.68.144.231 0 1 89490 
172.68.141.234 0 1 114473 
172.68.146.10 0 4 569650 
162.158.134.102 0 2 140393 
172.68.144.87 0 1 531485 
108.162.249.162 0 2 79987 
162.158.111.231 0 1 77329 
172.68.144.195 0 1 360207 
172.68.142.145 0 1 39851 
162.158.91.253 0 1 58206 
108.162.246.79 0 1 77329 
172.68.202.6 0 8 2946868 
172.68.253.61 0 2 490454 
141.101.104.187 0 3 583409 
162.158.167.212 0 2 301392 
108.162.245.138 0 1 213960 
162.158.166.199 0 2 128488 
141.101.76.132 0 2 394214 
172.68.143.38 0 1 94913 
162.158.165.240 0 3 73906 
172.68.63.79 0 1 266635 
172.68.211.60 0 1 278 
162.158.166.247 0 1 72370 
162.158.93.5 0 1 60944 
172.68.132.85 0 3 187773 
172.68.141.102 0 2 98332 
162.158.179.132 0 1 229403 
141.101.104.241 0 2 7544 
172.68.141.66 0 1 73038 
162.158.166.205 0 2 303293 
172.68.211.108 0 1 932 
172.68.10.36 0 1 278 
172.68.144.27 0 2 218400 
108.162.249.84 0 2 76640 
172.68.46.127 0 1 304 
172.68.65.8 0 6 665404 
172.68.244.230 0 2 10034 
108.162.249.36 0 2 9583 
162.158.202.156 0 2 918780 
162.158.255.120 0 1 5832 
162.158.165.150 0 3 309285 
172.69.22.166 0 1 85206 
173.245.52.189 0 1 328603 
141.101.76.84 0 1 4097 
162.158.202.54 0 1 424988 
162.158.167.254 0 2 335874 
172.68.46.235 0 1 1844 
172.68.144.51 0 1 103416 
172.68.144.135 0 1 253503 
162.158.165.96 0 3 88942 
172.68.65.38 0 8 847368 
141.101.105.158 0 1 211904 
172.68.143.152 0 1 65337 
173.245.54.33 0 2 237632 
108.162.246.127 0 2 298248 
162.158.134.42 0 1 46628 
172.68.141.210 0 1 63807 
162.158.165.222 0 2 809920 
172.68.144.63 0 1 68071 
172.68.142.109 0 1 5368 
162.158.165.24 0 3 287728 
172.69.62.54 0 2 111464 
162.158.255.174 0 1 5311 
173.245.54.45 0 13 832028 
172.69.22.184 0 2 44799 
172.69.62.24 0 7 1673702 
172.68.189.135 0 1 4342 
162.158.79.175 0 4 336798 
108.162.246.139 0 1 253503 
162.158.166.163 0 1 26496 
173.245.54.21 0 8 281792 
172.68.245.213 0 1 1844 
108.162.249.150 0 1 4275 
172.68.65.182 0 3 10434 
162.158.111.135 0 2 322730 
162.158.167.230 0 4 623193 
172.68.253.223 0 2 214741 
173.245.48.239 0 1 8148 
162.158.89.159 0 1 54668 
108.162.245.132 0 1 229745 
162.158.89.9 0 1 137087 
162.158.165.168 0 1 213960 
172.68.141.126 0 1 31072 
172.68.65.194 0 4 465798 
162.158.222.90 0 2 140863 
162.158.165.84 0 2 78373 
162.158.134.144 0 2 91841 
162.158.165.42 0 2 615952 
162.158.167.110 0 3 232887 
162.158.134.12 0 3 435745 
108.162.250.7 0 1 3914 
172.68.144.93 0 1 5915 
162.158.90.20 0 1 37787 
162.158.134.180 0 1 49014 
162.158.166.109 0 1 5672 
141.101.77.166 0 1 152735 
108.162.249.66 0 1 73812 
162.158.75.108 0 11 834 
162.158.90.32 0 1 114126 
141.101.76.198 0 4 762040 
108.162.245.228 0 1 360207 
162.158.166.91 0 4 33506 
172.68.141.24 0 1 40646 
162.158.167.194 0 1 6160 
172.68.65.20 0 9 1198216 
162.158.165.120 0 1 4818 
172.68.46.97 0 1 19753 
162.158.106.8 0 1 365066 
162.158.134.138 0 1 460457 
172.68.65.206 0 5 13885 
141.101.76.192 0 1 1377 
162.158.165.156 0 3 156462 
162.158.111.207 0 2 583438 
172.68.65.80 0 4 668648 
162.158.88.10 0 1 51901 
162.158.134.168 0 1 320089 
162.158.78.48 0 4 70948 
162.158.179.246 0 1 46402 
108.162.249.252 0 2 120145 
172.68.132.97 0 2 413272 
162.158.111.111 0 1 2777 
172.68.253.31 0 2 90973 
162.158.92.246 0 1 65466 
162.158.165.48 0 3 282642 
172.68.202.36 0 7 1030367 
108.162.245.6 0 2 9813 
162.158.79.235 0 3 59259 
162.158.89.177 0 1 43115 
172.68.65.158 0 9 391898 
162.158.78.132 0 10 230930 
162.158.111.75 0 1 4995 
162.158.111.33 0 2 38477 
173.245.54.15 0 18 1866508 
162.158.58.233 0 1 2777 
162.158.92.216 0 2 113998 
108.162.250.19 0 2 9053 
172.68.143.110 0 1 89461 
162.158.165.54 0 1 6155 
172.68.253.25 0 1 31072 
172.68.132.211 0 1 37585 
108.162.249.216 0 1 67415 
162.158.167.122 0 1 40252 
172.69.62.108 0 10 1024702 
172.68.146.4 0 1 994 
141.101.105.110 0 2 234426 
172.68.143.8 0 1 78233 
162.158.78.156 0 4 521044 
162.158.78.186 0 2 260522 
172.69.62.102 0 8 720876 
162.158.134.192 0 2 263308 
172.68.144.39 0 2 121139 
108.162.249.204 0 2 144112 
172.68.253.115 0 1 298444 
141.101.76.138 0 2 123129 
162.158.78.6 0 12 1633964 
162.158.234.24 0 1 424988 
172.69.62.138 0 5 8980 
162.158.79.205 0 4 175244 
172.69.62.42 0 3 20019 
162.158.79.37 0 8 12266 
172.68.65.140 0 2 1988 
172.68.143.50 0 1 141467 
162.158.167.128 0 1 78291 
172.68.144.183 0 1 37023 
172.68.62.138 0 1 406470 
172.68.254.80 0 1 191461 
141.101.77.70 0 1 304 
162.158.166.61 0 4 554647 
162.158.178.17 0 2 311111 
162.158.90.200 0 1 340734 
162.158.88.112 0 1 59745 
162.158.178.113 0 1 340734 
172.69.62.66 0 9 1143310 
172.68.189.75 0 2 123524 
172.68.132.127 0 1 53470 
162.158.92.204 0 1 51521 
141.101.104.67 0 1 300844 
162.158.202.228 0 1 406470 
108.162.246.49 0 2 598632 
172.68.144.177 0 3 235788 
162.158.111.39 0 2 3559 
162.158.111.21 0 1 4764 
172.69.23.77 0 1 43983 
108.162.249.210 0 1 110827 
172.68.141.108 0 1 70872 
108.162.246.109 0 2 536040 
108.162.245.12 0 1 4800 
172.68.189.165 0 1 108139 
162.158.167.206 0 2 64821 
172.68.253.205 0 1 44414 
162.158.79.217 0 13 333916 
162.158.106.20 0 3 81273 
162.158.165.18 0 4 159184 
162.158.167.248 0 2 72634 
162.158.167.218 0 1 932 
162.158.179.144 0 1 318952 
162.158.178.77 0 1 35458 
162.158.111.105 0 1 43811 
162.158.165.126 0 1 160780 
172.68.142.13 0 1 4306 
172.68.142.85 0 2 94129 
162.158.166.85 0 1 100368 
162.158.234.108 0 1 59963 
172.68.142.7 0 1 39693 
172.68.189.123 0 1 38229 
162.158.92.126 0 1 41805 
108.162.249.18 0 1 57176 
162.158.167.56 0 1 77329 
172.68.133.32 0 1 3914 
172.68.253.55 0 1 43983 
172.68.144.129 0 1 246721 
172.68.141.36 0 1 43115 
162.158.134.156 0 1 44414 
162.158.78.228 0 6 270494 
141.101.105.8 0 2 669476 
162.158.93.149 0 2 319242 
172.69.22.22 0 2 121914 
172.68.146.52 0 2 96692 
162.158.78.168 0 4 288720 
162.158.134.6 0 2 396360 
108.162.219.24 0 1 319699 
162.158.165.78 0 4 711058 
162.158.255.30 0 1 58574 
108.162.246.19 0 2 7935 
108.162.246.193 0 1 88118 
172.69.22.64 0 1 84511 
162.158.134.66 0 1 59538 
172.69.62.84 0 7 382681 
172.69.23.107 0 2 72994 
172.68.65.128 0 5 8980 
141.101.105.152 0 1 236024 
162.158.166.235 0 1 1423 
172.68.133.14 0 1 5749 
108.162.249.186 0 2 178258 
172.68.132.103 0 1 294873 
162.158.134.96 0 1 36423 
172.68.58.79 0 10 757 
108.162.246.67 0 1 96609 
162.158.90.8 0 1 49955 
108.162.245.174 0 1 4818 
162.158.202.72 0 1 69108 
162.158.222.84 0 1 424988 
162.158.166.67 0 1 242760 
162.158.79.229 0 8 243224 
162.158.134.132 0 3 440981 
162.158.165.192 0 2 343221 
172.68.141.6 0 1 25912 
141.101.76.156 0 1 1796 
172.68.144.117 0 3 152181 
172.68.254.128 0 1 82866 
172.68.246.106 0 1 5221 
162.158.91.133 0 1 56879 
108.162.245.192 0 1 5392 
162.158.167.44 0 1 156264 
141.101.105.164 0 1 424757 
162.158.234.96 0 3 517361 
162.158.167.38 0 3 576447 
172.68.62.114 0 1 57997 
141.101.77.154 0 1 493799 
162.158.106.38 0 1 4593 
162.158.78.222 0 3 15051 
162.158.111.183 0 2 251029 
172.69.62.156 0 2 127886 
162.158.166.169 0 3 251546 
162.158.91.151 0 1 77 
162.158.111.87 0 1 5873 
162.158.179.90 0 1 34552 
108.162.249.138 0 1 5749 
172.68.65.92 0 2 81026 
162.158.222.114 0 1 59963 
141.101.76.240 0 2 332011 
172.69.22.238 0 1 5017 
162.158.58.125 0 1 994 
162.158.167.152 0 1 5017 
108.162.249.12 0 2 126704 
162.158.255.132 0 2 135074 
END_VISITOR

# Date - Pages - Hits - Bandwidth - Visits
BEGIN_DAY 2
20180102 0 935 103917246 0
20180103 0 406 51728512 0
END_DAY

# Session range - Number of visits
BEGIN_SESSION 0
END_SESSION

# URL - Pages - Bandwidth - Entry - Exit
# The 25 first Pages must be first (order not required for others)
BEGIN_SIDER 0
END_SIDER
