AWSTATS DATA FILE 7.7 (build 20180105)
# If you remove this file, all statistics for date 201810 will be lost/reset.
# Last config file used to build this data file was /home2/fyfxamvcmvss/tmp/awstats/awstats.firs.freudenbergleisure.com.conf.

# Position (offset in bytes) in this file for beginning of each section for
# direct I/O access. If you made changes somewhere in this file, you should
# also remove completely the MAP section (AWStats will rewrite it at next
# update).
BEGIN_MAP 28
POS_GENERAL 2029                
POS_TIME 2709                
POS_VISITOR 15817               
POS_DAY 52677               
POS_DOMAIN 3613                
POS_LOGIN 3896                
POS_ROBOT 4051                
POS_WORMS 5814                
POS_EMAILSENDER 5945                
POS_EMAILRECEIVER 6088                
POS_SESSION 53560               
POS_SIDER 53766               
POS_FILETYPES 6223                
POS_DOWNLOADS 6465                
POS_OS 6513                
POS_BROWSER 6949                
POS_SCREENSIZE 10211               
POS_UNKNOWNREFERER 10285               
POS_UNKNOWNREFERERBROWSER 11878               
POS_ORIGIN 12508               
POS_SEREFERRALS 12655               
POS_PAGEREFS 13185               
POS_SEARCHWORDS 15177               
POS_KEYWORDS 15336               
POS_MISC 2372                
POS_ERRORS 15402               
POS_CLUSTER 3752                
POS_SIDER_404 15508               
END_MAP

# LastLine    = Date of last record processed - Last record line number in last log - Last record offset in last log - Last record signature value
# FirstTime   = Date of first visit for history file
# LastTime    = Date of last visit for history file
# LastUpdate  = Date of last update - Nb of parsed records - Nb of parsed old records - Nb of parsed new records - Nb of parsed corrupted - Nb of parsed dropped
# TotalVisits = Number of visits
# TotalUnique = Number of unique visitors
# MonthHostsKnown   = Number of hosts known
# MonthHostsUnKnown = Number of hosts unknown
BEGIN_GENERAL 8
LastLine 20181101000708 53 11798 11530242453214
FirstTime 20181001005054
LastTime 20181031220911
LastUpdate 20181101174106 53 0 52 0 0
TotalVisits 1292                
TotalUnique 537                 
MonthHostsKnown 0                   
MonthHostsUnknown 1152                
END_GENERAL

# Misc ID - Pages - Hits - Bandwidth
BEGIN_MISC 10
QuickTimeSupport 0 0 0
AddToFavourites 0 84 0
DirectorSupport 0 0 0
FlashSupport 0 0 0
JavaEnabled 0 0 0
PDFSupport 0 0 0
RealPlayerSupport 0 0 0
JavascriptDisabled 0 0 0
WindowsMediaPlayerSupport 0 0 0
TotalMisc 0 0 0
END_MISC

# Hour - Pages - Hits - Bandwidth - Not viewed Pages - Not viewed Hits - Not viewed Bandwidth
BEGIN_TIME 24
0 64 117 3966325 67 134 3571760
1 45 128 3362934 107 177 3911069
2 42 103 2892117 61 109 2377223
3 12 14 261883 46 112 2910823
4 35 50 1508177 70 101 2287833
5 32 97 2478396 45 106 2522653
6 41 93 2097237 59 132 2976118
7 44 74 1959804 66 103 2105383
8 79 100 2280633 67 115 2357166
9 63 103 3272487 82 139 2815703
10 119 241 4721584 85 179 3911638
11 89 175 5226034 83 149 3025804
12 133 258 6399476 97 169 4023266
13 83 218 4539313 62 114 2354726
14 82 222 5853778 60 129 3101463
15 113 376 9526459 81 152 3100675
16 97 287 7722855 59 114 2867663
17 47 114 2652344 40 98 1862744
18 65 146 2963150 68 147 3151957
19 62 84 2700957 58 111 2333222
20 83 223 6658552 90 151 3826993
21 92 214 5005613 43 116 2509598
22 83 197 5118003 79 135 2869546
23 50 94 2460715 65 109 2254176
END_TIME

# Domain - Pages - Hits - Bandwidth
# The 25 first Pages must be first (order not required for others)
BEGIN_DOMAIN 4
us 1535 3375 84196604
eu 109 309 9947424
hk 9 10 231843
sc 2 34 1252955
END_DOMAIN

# Cluster ID - Pages - Hits - Bandwidth
BEGIN_CLUSTER 0
END_CLUSTER

# Login - Pages - Hits - Bandwidth - Last visit
# The 10 first Pages must be first (order not required for others)
BEGIN_LOGIN 0
END_LOGIN

# Robot ID - Hits - Bandwidth - Last visit - Hits on robots.txt
# The 25 first Hits must be first (order not required for others)
BEGIN_ROBOT 41
bingbot/ 348 9975065 20181031233046 0
Googlebot/ 340 10350423 20181031124913 0
bingpreview 120 2437927 20181030090505 0
Baiduspider/ 63 1581886 20181030173115 0
YandexBot/ 46 1245864 20181031230245 0
no_user_agent 38 1003130 20181030025640 0
MegaIndex\.ru/ 30 653262 20181009204414 0
Sogou[\x20]web[\x20]spider/ 27 742350 20181031220304 0
SeznamBot/ 21 607693 20181025110621 0
AhrefsBot/ 19 469217 20181031203516 0
BLEXBot/ 15 166676 20181030174434 0
Apache\-HttpClient/ 15 425460 20181030090310 0
CCBot/ 15 357009 20181019094758 0
360Spider 13 368677 20181026213633 0
DotBot/ 13 293613 20181031214526 0
Mail\.RU_Bot/ 12 267094 20181031231123 0
Exabot/ 11 276809 20181029230830 0
SemrushBot/ 10 277392 20181031071044 0
archive\.org_bot 9 167803 20181024043541 0
bot[\s_+:,\.\;\/\\-] 8 219535 20181031193752 0
MJ12bot/ 5 148292 20181015142952 0
Deepnet[\x20]Explorer 5 141765 20181028022239 0
Uptimebot/ 4 0 20181031224709 0
DuckDuckGo\-Favicons\-Bot/ 4 38796 20181031040041 0
Applebot/ 3 81928 20181027174014 0
Babya[\x20]Discoverer 1 28353 20181002161856 0
facebookexternalhit/ 2 30485 20181013130705 0
CMS[\x20]Crawler 2 56719 20181007212659 0
SafeDNSBot 1 28364 20181008112112 0
oBot/ 1 28364 20181004134710 0
MojeekBot/ 3 76777 20181029013027 0
YisouSpider 1 31900 20181002235651 0
Cliqzbot/ 1 28353 20181002184816 0
baidu 2 4172 20181007155954 0
YandexImages/ 1 360207 20181003161728 0
CFNetwork 1 3481 20181006225149 0
nutch\-1\.4/ 1 28353 20181030025329 0
MSIECrawler 1 28353 20181029144129 0
(firefox/)([0-9]\.|[0-1][0]\.) 3 28364 20181008224916 0
crawl 1 28353 20181026151508 0
Googlebot\-Image/ 3 86541 20181013152135 0
END_ROBOT

# Worm ID - Hits - Bandwidth - Last visit
# The 5 first Hits must be first (order not required for others)
BEGIN_WORMS 0
END_WORMS

# EMail - Hits - Bandwidth - Last visit
# The 20 first Hits must be first (order not required for others)
BEGIN_EMAILSENDER 0
END_EMAILSENDER

# EMail - Hits - Bandwidth - Last visit
# The 20 first hits must be first (order not required for others)
BEGIN_EMAILRECEIVER 0
END_EMAILRECEIVER

# Files type - Hits - Bandwidth - Bandwidth without compression - Bandwidth after compression
BEGIN_FILETYPES 9
gif 31 42228 0 0
jpg 33 1655130 0 0
Unknown 621 16920202 0 0
html 959 25415303 0 0
js 1237 40669474 0 0
png 360 2548717 0 0
php 73 2077768 0 0
xml 2 4950 0 0
css 412 6295054 0 0
END_FILETYPES

# Downloads - Hits - Bandwidth
BEGIN_DOWNLOADS 0
END_DOWNLOADS

# OS ID - Hits
BEGIN_OS ID - Hits - Pages 28
macosx6 2 2
ios_iphone 193 50
win98 2 2
unix 3 3
linuxubuntu 1 1
win8 7 7
macosx9 4 4
linux 466 215
win7 515 254
winme 1 1
macosx8 1 1
linuxandroid 509 144
win8.1 120 67
winlong 15 13
winnt 9 9
winunknown 2 0
macosx11 14 11
win95 6 6
Unknown 529 190
macosx12 91 44
win2003 19 19
macosx10 65 24
winxp 90 88
ios_ipad 89 52
win10 876 414
win2000 9 9
win16 1 1
macosx 89 24
END_OS

# Browser ID - Hits - Pages
BEGIN_BROWSER 161
msie5.0 6 6
chrome64.0.3282.119 1 1
chrome44.0.2403.133 1 1
chrome70.0.3538.77 78 37
firefox48.0 9 4
opera6.01 4 4
chrome30.0.1599.82 7 0
chrome68.0.3440.106 2 2
opera53.0.2907.68 2 2
chrome40.0.2214.93 2 2
opera9.01 2 2
chrome34.0.1847.116 9 9
chrome26.0.1410.63 2 2
firefox44.0 3 3
firefox45.0 10 10
chrome30.0.0.0 1 1
chrome35.0.1916.47 1 1
chrome66.0.3359.181 19 19
chrome66.0.3359.117 10 10
firefox53.0 4 4
chrome60.0.3112.90 1 1
safari11.0 144 56
chrome42.0.2311.90 1 1
opera56.0.3051.52 1 1
firefox52.0 5 3
chrome55.0.2883.87 7 7
firefox36.0 1 1
cloudflare 395 58
opera18.0.2254.106200 1 1
firefox52.56.19 1 1
chrome49.0.2623.112 1 1
chrome61.0.3163.98 31 0
chrome50.0.2661.102 9 9
chrome56.0.2924.87 22 2
chrome43.0.2357.93 1 1
safari11.0.1 2 1
chrome68.0.3440.59 4 4
safari12.0 118 36
chrome14.0.792.0 1 1
Unknown 80 78
msie5.5 2 2
firefox15.0 1 1
edge16 5 5
chrome41.0.2228.0 4 4
netscape 2 2
chrome67.0.3396.103 1 1
firefox42.0 1 1
opera54.0.2952.64 2 2
chrome49.0.2623.110 1 1
chrome45.0.2454.94 2 2
chrome51.0.2704.106 3 3
chrome52.0.2743.116 13 0
chrome61.0.3163.100 28 28
chrome41.0.2225.0 1 1
msie7.0 19 18
chrome45.0.2454.101 8 7
firefox62.0 108 39
chrome70.0.3538.67 39 21
chrome58.0.3029.110 10 10
chrome34.0.1847.114 56 36
edge17 20 5
edge14 8 7
safari6.0 1 1
android 25 9
chrome62.0.3202.94 5 5
opera8.50 1 1
safari11.1.2 22 8
opera11.2.3.102637 25 2
firefox27.0 2 1
firefox43.0 3 3
chrome32.0.1667.0 1 1
chrome66.0.3359.126 5 2
netscape4.61 3 3
opera9.0 6 6
chrome39.0.3529.252 1 1
opera36.0.2130.32 2 2
chrome64.0.3282.140 1 1
opera7.60 1 1
chrome57.0.5321.636 1 1
firefox58.0 2 2
opera7.54 3 3
msie6.0 61 61
chrome30.0.1599.101 1 1
firefox22.0 3 3
chrome41.0.2227.1 1 1
chrome69.0.3497.100 965 379
firefox63.0 44 10
firefox40.1 9 9
chrome63.0.3239.132 6 6
chrome34.0.1847.131 2 2
chrome50.0.2661.89 1 1
chrome55.0.2883.95 1 1
msie8.0 6 6
msie4.01 2 2
opera9.00 5 5
chrome59.0.3071.125 6 5
netscape5.0 3 2
chrome43.0.2357.124 3 0
chrome67.0.3396.99 27 27
chrome52.0.8182.163 1 1
msie10.0 1 1
msie11.0 52 19
safari5.1 1 1
chrome52.0.2743.83 3 3
chrome70.0.3538.64 31 7
mozilla 58 55
firefox61.0 41 21
safari10.1.2 34 7
opera50.0.2762.67 1 1
safari11.0.3 1 1
safari6.0.4 1 1
chrome60.0.3112.113 26 23
firefox26.0 1 1
chrome60.0.3112.101 7 7
chrome46.0.2490.80 1 1
safari 74 7
chrome14.0.802.30 1 1
opera8.01 5 5
safari5.1.9 1 1
chrome38.0.2125.111 3 3
opera53.0.2907.99 1 1
chrome42.0.2311.152 3 3
firefox37.0 1 1
firefox38.0 2 0
netscape4.76 1 1
firefox24.0 3 3
chrome68.0.3440.91 16 1
safari4.7.2 1 1
chrome53.0.2785.104 2 0
chrome49.0.2623.75 26 23
firefox57.0 5 5
chrome65.0.3325.109 13 0
msie9.0 17 6
chrome53.0.2785.143 1 1
firefox50.0 61 10
chrome65.0.3325.181 442 198
chrome57.0.2987.132 40 4
opera8.00 6 6
chrome45.0.3243.493 1 1
safari10.0 1 1
chrome12.0.742.100 1 1
chrome44.0.2403.89 2 2
chrome48.0.9666.250 1 1
chrome68.0.3440.85 1 1
chrome66.0.3359.158 18 10
chrome55.0.7834.916 1 1
chrome63.0.3223.8 3 3
firefox59.0 3 3
chrome68.0.3440.84 1 1
safari5.0.2 1 1
chrome36.0.1985.143 2 2
chrome54.0.2840.85 2 2
chrome40.0.2214.85 14 14
chrome67.0.3396.87 8 3
chrome45.0.2454.93 1 1
firefox 1 1
iphone 5 5
firefox56.0 19 6
chrome38.0.1025.166 44 3
firefox27.3 7 7
opera12.16 17 1
END_BROWSER

# Screen size - Hits
BEGIN_SCREENSIZE 0
END_SCREENSIZE

# Unknown referer OS - Last visit date
BEGIN_UNKNOWNREFERER 25
Mozilla/5.0_zgrab/0.x_(compatible;_Researchscan/t12ca;__http://researchscan.comsys.rwth-aachen.de) 20181031005114
WhatsApp/2.18.306_A 20181023221822
Mozilla/5.0_(compatible;_Dataprovider.com) 20181025035537
Mozilla/5.0_(compatible;_CloudFlare-AlwaysOnline/1.0;__http://www.cloudflare.com/always-online)_AppleWebKit/534.34 20181031120737
Scrapy/1.5.1_(_https://scrapy.org) 20181018184831
python-requests/2.18.4 20181002221440
Mozilla/5.0_zgrab/0.x_(compatible;_Researchscan/t12sns;__http://researchscan.comsys.rwth-aachen.de) 20181022080820
Mozilla/5.0_(compatible;_Qwantify/2.4w;__https://www.qwant.com/)/2.4w 20181031125930
Mozilla/5.0_(compatible;_Daum/4.1;__http://cs.daum.net/faq/15/4118.html?faqId=28966) 20181012065307
Go-http-client/2.0 20181017210449
ia_archiver 20181016221942
Mozilla/5.0_AppleWebKit/537.36_(KHTML,_like_Gecko)_Chrome/55.0.2883.95_Safari/537.36/ 20181004205004
Ruby 20181024224040
python-requests/2.10.0 20181007100617
Mozilla/5.0_Firefox/26.0 20181008115535
Mozilla/5.0_(compatible;_CloudFlare-AlwaysOnline/1.0;__http://www.cloudflare.com/always-online) 20181028062126
python-requests/2.9.1 20181009085707
python-requests/2.19.1 20181030124206
WhatsApp/2.18.165_A 20181004095342
Mozilla 20181013052744
Foo 20181016122447
python-requests/2.20.0 20181028063842
null 20181019135331
Mozilla/5.0_(compatible;_NetcraftSurveyAgent/1.0;__info@netcraft.com) 20181009085809
Mozilla/5.0_zgrab/0.x_(compatible;_Researchscan/t13rl;__http://researchscan.comsys.rwth-aachen.de) 20181029054235
END_UNKNOWNREFERER

# Unknown referer Browser - Last visit date
BEGIN_UNKNOWNREFERERBROWSER 15
python-requests/2.10.0 20181007100617
WhatsApp/2.18.306_A 20181023221822
python-requests/2.9.1 20181009085707
python-requests/2.18.4 20181002221440
python-requests/2.19.1 20181030124206
Scrapy/1.5.1_(_https://scrapy.org) 20181018184831
Surf/1.0_(Linux_4.4.0-116-generic;_go1.10) 20181023234454
ia_archiver 20181016221942
Foo 20181016122447
python-requests/2.20.0 20181028063842
Go-http-client/2.0 20181017210449
WhatsApp/2.18.165_A 20181004095342
Surf/1.0_(Linux_4.10.0-32-generic;_go1.10.4) 20181031204241
Ruby 20181024224040
null 20181019135331
END_UNKNOWNREFERERBROWSER

# Origin - Pages - Hits 
BEGIN_ORIGIN 6
From0 708 928
From1 4 4
From2 289 289
From3 160 188
From4 494 2319
From5 0 0
END_ORIGIN

# Search engine referers ID - Pages - Hits
BEGIN_SEREFERRALS 20
www_google_co_in 36 36
r_search_yahoo_com 1 1
www_google_nl 1 1
www_google_es 1 1
www_google_com_hk 1 1
www_google_com_pk 2 2
www_google_co_uk 5 5
www_google_com_sg 4 4
yandexru 1 1
www_google_com_au 5 5
www_google_ro 1 1
www_google_co_ao 1 1
www_google_de 5 5
www_google_fr 4 4
www_google_com 57 57
bing 8 8
www_google_it 1 1
www_google_ca 2 2
www_google_lk 151 151
www_google_mu 2 2
END_SEREFERRALS

# External page referers - Pages - Hits
# The 25 first Pages must be first (order not required for others)
BEGIN_PAGEREFS 53
https://www.facebook.com 19 19
https://sucuri.net 8 36
http://komputers-best.ru 7 7
http://www.free-website-traffic.com/firs.freudenbergleisure.com 6 6
http://lider82.ru 6 6
http://hit-kino.ru 5 5
http://resa.monsrilanka.com/DATA/html/proposal.php 5 5
https://ponosanet.com 4 4
https://elonm.ru 4 4
https://buy-meds24.com 4 4
http://www.stroi-24.ru 4 4
https://www.baikaleminer.com 4 4
http://sta-grand.ru 4 4
https://cheappills24h.com 4 4
https://bpro1.top 3 3
http://www.free-website-traffic.com/firs.lk 3 3
https://migronis.com 3 3
http://xn--d1abj0abs9d.in.ua 3 3
https://serdechnic.com 3 3
http://resa.monsrilanka.com/DATA/html/hotels.php 3 3
https://nakozhe.com 3 3
http://magnetic-bracelets.ru 3 3
http://skinali.photo-clip.ru 3 3
http://www.regionshop.biz 2 2
http://kinoprinc.ru 2 2
http://innoslicon.com/html/product/index.htm 1 1
https://x-lime.com 2 2
https://mega-polis.biz.ua 2 2
https://komp-pomosch.ru 1 1
http://phinist.net 2 2
https://vykup-avto-krasnodar.ru 2 2
https://sky-mine.ru 1 1
http://xn----7sbabn5abjehfwi8bj.xn--p1ai 2 2
http://avtointeres.ru 2 2
https://xn--e1aaajzchnkg.ru.com 1 1
https://detskiezabolevaniya.com 2 2
https://veterinariya.com 2 2
https://beclean-nn.ru 1 1
http://zameskino.ru 1 1
https://www.blog4u.top/how-to-generate-traffic-to-your-website-fast/19396191/ 1 1
https://gcup.ru 2 2
http://komputers-best.ru 2 2
https://proartrit.com 2 2
https://www.blogstar.fun/top-five-techniques-to-get-quick-visitors-to-site-and-make-money-quickly/19396191/ 1 1
http://artclipart.ru 1 1
http://www.drugstoreforyou.com 1 1
https://dverirespekt.ru 2 2
https://xn--80aaafbn2bc2ahdfrfkln6l.xn--p1ai 2 2
https://spinanebolit.com 1 1
https://pp-budpostach.com.ua/g835191-stoimost-gazobloka-gazobetona 2 2
https://www.mycheaptraffic.com/firs.freudenbergleisure.com 2 2
http://pornoplen.com 2 2
http://infra-e.ru 2 2
END_PAGEREFS

# Search keyphrases - Number of search
# The 10 first number of search must be first (order not required for others)
BEGIN_SEARCHWORDS 1
bing 8
END_SEARCHWORDS

# Search keywords - Number of search
# The 25 first number of search must be first (order not required for others)
BEGIN_KEYWORDS 1
bing 8
END_KEYWORDS

# Errors - Hits - Bandwidth
BEGIN_ERRORS 2
301 18 4590
302 1780 34231681
END_ERRORS

# URL with 404 errors - Hits - Last URL referrer
BEGIN_SIDER_404 0
END_SIDER_404

# Host - Pages - Hits - Bandwidth - Last visit date - [Start date of last visit] - [Last page of last visit]
# [Start date of last visit] and [Last page of last visit] are saved only if session is not finished
# The 25 first Hits must be first (order not required for others)
BEGIN_VISITOR 1152
172.68.202.45 65 87 1924342 20181031165713
172.68.202.39 38 56 1148506 20181031135429
172.68.202.27 35 51 992355 20181031220911
172.68.202.33 34 52 1000041 20181031135345
172.68.202.15 32 51 983700 20181031160508
172.68.238.81 20 20 567060 20181031191351
172.68.239.106 19 19 538707 20181028002412
172.68.238.177 18 18 510354 20181031191353
172.68.238.141 15 15 425295 20181030115701
172.69.62.177 15 15 362768 20181027202023
108.162.216.189 14 14 396918 20181029193436
172.68.239.40 13 13 368589 20181029082442
172.69.134.80 13 13 372252 20181023162128
172.68.146.127 12 12 321082 20181019124214
162.158.62.158 11 12 290278 20181023223038
162.158.94.79 11 13 314411 20181031210117
172.69.134.104 11 11 273171 20181025071216
173.245.52.186 11 18 323541 20181021232043
162.158.167.35 10 10 270431 20181023165400
141.101.88.135 10 18 320842 20181030182551
172.68.239.124 10 10 283530 20181031072057
162.158.54.153 10 11 308936 20181016122447
172.68.253.58 10 11 276361 20181021085351
162.158.78.15 10 10 264889 20181029124840
172.68.239.208 10 10 283530 20181020003346
162.158.167.89 5 5 141765 20181023123058
172.68.10.237 0 1 1847 
162.158.165.231 0 3 9458 
197.234.242.129 0 4 29769 
162.158.58.248 0 3 5229 
162.158.59.75 0 4 87339 
108.162.245.183 2 8 62217 20181027191509
162.158.10.27 0 4 70109 
108.162.238.22 3 3 85092 20181024013039
162.158.255.153 3 3 85105 20181029140218
141.101.69.134 3 3 75537 20181026005325
162.158.106.17 1 1 28365 20181027091030
162.158.155.229 2 2 56706 20181031030753
141.101.69.50 1 1 28353 20181030124005
162.158.111.36 0 2 6014 
172.69.22.133 1 1 28353 20181030220835
172.69.134.50 2 2 56706 20181031165514
162.158.79.196 4 4 108515 20181027202024
162.158.59.105 0 3 44931 
108.162.226.190 1 1 28370 20181012065307
162.158.89.126 2 2 49689 20181017083105
162.158.111.120 0 6 75796 
108.162.219.183 0 1 3007 
172.68.47.11 3 3 78906 20181020190828
172.69.134.170 0 1 157295 
162.158.22.177 0 3 5541 
162.158.74.134 0 2 10534 
108.162.246.184 1 1 26867 20181017102351
172.68.150.27 2 2 47277 20181025080213
141.101.76.141 1 1 28370 20181009131459
108.162.246.16 4 4 124244 20181017111244
141.101.104.40 5 5 141770 20181001005200
162.158.224.153 0 1 2136 
162.158.23.34 2 2 72702 20181010160213
162.158.93.50 3 3 56733 20181031204241
162.158.92.3 1 1 28365 20181031204240
172.68.146.31 3 3 85059 20181009112035
172.69.62.57 0 7 74885 
162.158.54.9 0 1 7629 
162.158.167.221 1 1 28353 20181028105224
172.68.246.139 1 1 38362 20181010191231
188.114.103.76 2 3 58842 20181014195413
162.158.2.135 0 2 63800 
172.69.23.44 1 1 28370 20181023175902
172.68.47.77 0 3 95700 
141.101.97.65 0 1 1547 
172.69.54.44 0 2 1076 
108.162.229.81 0 6 41886 
141.101.96.49 1 1 28364 20181007005138
141.101.69.110 0 2 6962 
172.69.33.154 4 4 101786 20181020190829
108.162.245.63 0 1 0 
162.158.142.81 2 2 45093 20181018184831
162.158.179.117 1 2 60270 20181001112454
172.69.135.135 0 1 8188 
162.158.89.240 1 3 15258 20181006021200
172.68.10.81 0 1 31900 
172.68.141.75 1 1 0 20181007142146
172.69.226.52 0 5 35957 
172.68.146.85 7 7 203265 20181009215859
172.69.22.169 0 3 2430 
108.162.237.15 0 2 29954 
162.158.90.83 2 2 28349 20181017213151
162.158.107.18 1 2 185649 20181011092622
172.69.55.93 0 3 7629 
141.101.76.27 0 2 53080 
172.69.54.116 2 2 28354 20181001005158
172.69.62.129 3 9 195418 20181027210827
162.158.91.118 0 2 53080 
162.158.75.243 0 1 3481 
162.158.166.202 0 1 14977 
162.158.92.207 0 2 4860 
172.69.54.8 0 2 3474 
162.158.63.123 2 2 47265 20181017040646
108.162.245.21 0 1 3316 
172.69.54.38 2 2 64245 20181019184135
172.68.142.70 1 1 28349 20181007142140
108.162.219.225 0 4 143828 
108.162.215.69 3 3 95119 20181027152030
172.69.62.123 2 2 2658 20181023202225
172.68.141.27 1 1 28368 20181010070219
162.158.255.81 1 1 0 20181007142153
172.69.55.27 0 3 2568 
108.162.238.178 1 1 21319 20181018021247
162.158.111.198 0 2 63800 
162.158.88.109 1 1 28353 20181002124509
162.158.106.221 0 1 30184 
172.69.33.76 1 1 28349 20181011073707
172.68.162.111 0 1 465075 
162.158.166.238 4 5 116893 20181023223504
162.158.38.57 0 1 2471 
162.158.165.111 0 6 29954 
162.158.93.188 0 1 2136 
172.68.202.9 1 25 959488 20181007213458
162.158.22.219 1 4 33579 20181010010925
162.158.38.111 0 1 1743 
162.158.54.171 0 1 31900 
172.68.146.43 0 2 32120 
172.68.133.53 1 1 28353 20181025134139
172.68.150.33 6 6 161855 20181025080442
162.158.255.9 1 1 28364 20181029054304
172.69.54.200 0 1 20219 
172.68.59.5 1 1 28370 20181005135844
162.158.91.196 2 6 57652 20181015102007
172.69.134.182 9 9 255177 20181023221759
172.68.58.160 0 1 538 
172.69.135.57 0 4 95933 
162.158.78.189 0 2 95933 
172.68.65.113 4 6 253167 20181023202235
141.101.88.9 2 2 56736 20181009220755
162.158.38.201 0 1 35957 
172.68.58.250 1 1 28368 20181011214924
162.158.62.254 2 3 49386 20181002052506
172.68.239.178 1 1 28370 20181008101022
173.245.48.134 1 1 28364 20181012012144
162.158.165.129 7 7 198471 20181023221822
172.69.134.242 1 1 28353 20181029161536
162.158.154.96 0 2 4272 
108.162.245.129 3 5 95225 20181028054430
188.114.103.130 0 2 3486 
172.69.226.34 0 3 6408 
162.158.165.57 1 1 28353 20181003093041
162.158.22.141 0 7 58552 
172.68.51.219 1 1 28353 20181008003450
172.68.254.167 0 1 16038 
141.101.69.74 0 2 4942 
172.69.135.147 0 1 1547 
172.68.142.214 0 7 0 
162.158.106.47 0 2 1847 
172.68.65.239 7 7 145863 20181027042526
162.158.2.183 0 2 27924 
188.114.102.189 0 4 68338 
172.68.146.223 0 2 29113 
172.69.54.98 3 3 28354 20181001005056
162.158.102.189 1 1 28353 20181021064654
141.101.69.230 1 1 22509 20181020110317
108.162.219.147 3 6 349925 20181002052506
162.158.92.141 5 9 143495 20181030141312
108.162.237.177 1 1 28364 20181024013046
173.245.54.48 2 5 86214 20181023202152
172.69.23.74 3 3 0 20181007142157
162.158.167.29 4 4 113423 20181029003807
172.68.246.85 0 1 23936 
162.158.107.48 2 2 56706 20181018191009
162.158.62.20 1 1 38379 20181016083237
172.69.62.87 3 3 69683 20181023202158
162.158.59.183 1 1 28353 20181030115603
108.162.246.100 2 2 56729 20181030123709
172.68.211.9 1 1 28370 20181023215431
188.114.103.142 0 3 5241 
162.158.79.52 0 3 44931 
108.162.237.93 1 1 28364 20181024012817
172.69.55.105 3 3 95119 20181029020026
172.68.253.226 0 1 115 
188.114.103.58 0 3 41886 
172.68.132.94 1 1 0 20181002091159
172.68.253.244 0 1 0 
108.162.216.99 0 1 2471 
172.69.22.223 2 4 95050 20181021182901
162.158.78.99 4 4 114478 20181025124235
172.69.134.176 0 2 824 
162.158.2.57 1 2 197132 20181012061103
162.158.38.27 1 1 28364 20181007061421
172.69.135.201 0 1 92091 
172.68.144.120 5 7 107147 20181028105453
162.158.166.100 0 3 29766 
162.158.2.189 0 3 91426 
162.158.166.178 0 1 19172 
172.69.135.189 0 1 1547 
172.68.146.211 2 2 50940 20181009105705
172.68.65.71 0 2 40438 
172.69.33.124 2 2 55237 20181027152028
141.101.76.135 1 1 28353 20181014010319
197.234.242.99 0 1 1737 
162.158.167.71 0 2 0 
162.158.89.210 4 4 131796 20181027231108
172.68.253.232 1 1 28353 20181001152915
141.101.69.194 0 3 11594 
162.158.89.156 0 2 1648 
172.68.11.214 0 1 3316 
162.158.74.236 0 3 7629 
172.69.62.195 1 1 28368 20181015013634
141.101.104.226 0 2 1648 
172.69.62.9 6 6 173332 20181031124913
162.158.119.10 0 1 19172 
162.158.22.9 0 6 40365 
172.68.245.84 0 1 29113 
172.69.134.14 7 9 200942 20181024021526
162.158.78.69 0 5 5229 
162.158.166.4 0 7 36768 
162.158.106.23 0 1 19172 
172.68.246.67 1 1 0 20181004105515
162.158.91.226 2 10 164099 20181014232704
172.68.254.197 3 3 73449 20181021085339
162.158.154.126 1 1 22549 20181015215957
172.68.143.149 0 5 0 
172.68.245.168 0 1 465075 
141.101.69.242 0 4 76688 
162.158.22.147 0 1 1281 
172.68.146.79 0 4 2430 
172.69.134.254 0 1 35711 
172.68.133.185 0 5 31900 
172.68.10.249 1 1 28353 20181006032830
162.158.167.161 0 2 29954 
162.158.89.108 2 4 386808 20181003222710
162.158.59.9 0 1 3481 
197.234.242.15 0 2 196738 
162.158.78.75 6 6 172805 20181022084232
162.158.62.104 9 9 234077 20181023223037
162.158.111.150 3 3 70884 20181028230011
162.158.88.37 0 2 24818 
162.158.38.141 0 1 7322 
197.234.242.177 0 2 93834 
172.68.144.66 0 2 5267 
172.69.62.219 4 9 194294 20181031124913
162.158.106.125 4 4 71617 20181017110757
172.68.141.249 1 1 28368 20181017004600
162.158.167.185 0 2 0 
188.114.102.129 0 4 59908 
108.162.219.57 0 1 14977 
172.68.245.6 2 2 59990 20181018223753
108.162.215.39 0 4 10534 
172.69.54.74 0 2 38344 
162.158.106.59 2 2 56736 20181030010224
162.158.63.159 0 2 24818 
172.68.65.209 0 7 120280 
162.158.46.69 2 2 56706 20181011152521
162.158.62.122 0 5 15035 
172.69.190.39 1 1 0 20181002221440
162.158.78.87 1 1 6137 20181005093015
162.158.90.11 0 2 930150 
172.68.143.77 1 1 28353 20181021024219
162.158.165.189 0 2 48254 
172.68.141.69 0 1 3007 
162.158.22.123 0 1 3316 
172.68.47.131 1 6 972482 20181026190245
162.158.63.87 3 3 83526 20181002052507
172.68.245.234 1 1 28349 20181023234454
162.158.22.195 0 3 287799 
108.162.238.184 0 1 1847 
162.158.58.44 0 2 6632 
162.158.106.101 0 2 0 
162.158.93.32 1 1 1468 20181014232708
173.245.52.138 0 1 19172 
172.69.62.27 5 5 128698 20181027202023
162.158.2.93 0 2 47872 
173.245.52.156 0 4 1395225 
162.158.75.177 0 1 856 
141.101.88.15 6 6 155957 20181029220459
162.158.22.81 1 1 25866 20181011185738
162.158.46.15 1 1 28353 20181026142725
172.69.23.8 2 2 56706 20181025134140
172.68.65.83 4 4 127379 20181023213001
162.158.165.69 1 1 36351 20181004101056
172.68.58.148 1 1 28353 20181013052744
108.162.219.195 0 3 87339 
162.158.165.75 0 2 0 
162.158.90.215 0 2 3486 
197.234.242.27 0 1 87940 
172.68.245.42 1 2 23749 20181017061756
172.68.254.179 0 1 0 
162.158.79.232 4 4 24516 20181023202237
162.158.106.209 0 2 1076 
162.158.50.123 4 4 113412 20181026140836
162.158.54.165 0 1 7322 
197.234.242.141 0 1 465075 
172.68.10.219 0 1 7322 
162.158.2.45 2 4 59136 20181015093230
162.158.22.201 0 1 0 
162.158.165.243 2 4 152639 20181023123057
172.68.42.21 0 5 84727 
172.69.94.27 1 3 57466 20181019182740
108.162.245.195 0 1 0 
172.68.143.209 0 7 556 
197.234.242.51 0 3 38142 
162.158.106.113 0 2 40438 
108.162.229.75 0 3 12504 
162.158.79.184 0 9 2224 
162.158.10.15 4 15 131338 20181008214751
162.158.46.75 2 2 56706 20181011163630
172.68.255.49 1 1 28353 20181002111723
172.69.135.63 0 2 30858 
172.68.189.60 2 2 28354 20181021021411
172.68.65.233 2 2 50940 20181018174747
172.68.51.195 1 1 28370 20181022220704
172.68.142.220 0 4 0 
108.162.246.202 0 1 0 
172.69.42.21 1 1 28349 20181020140107
162.158.54.57 0 2 3284 
162.158.106.107 1 1 28368 20181009163512
108.162.229.219 2 2 46203 20181008185531
172.68.58.52 1 1 28353 20181021201423
162.158.54.189 0 2 27360 
172.68.202.21 0 27 48114 
141.101.88.105 1 4 504846 20181025234301
108.162.215.249 0 5 4566 
162.158.167.59 2 3 57552 20181003183012
108.162.215.195 0 4 37227 
172.68.146.163 0 1 3007 
108.162.245.141 0 1 538 
162.158.107.6 0 1 160781 
172.68.211.63 0 1 2430 
188.114.103.100 3 3 71006 20181010180333
172.68.58.64 0 1 2430 
172.69.135.123 8 9 228960 20181025195122
172.69.62.21 0 7 203791 
108.162.219.231 5 5 125171 20181023223036
162.158.62.146 0 3 15801 
108.162.219.153 0 3 5541 
162.158.78.123 0 3 12504 
172.68.141.183 1 1 28368 20181022224743
162.158.74.56 0 1 465075 
172.68.102.63 1 1 28353 20181009220144
162.158.91.238 1 1 28369 20181029054235
162.158.59.177 2 2 56706 20181025110736
162.158.74.218 1 1 28353 20181017003159
173.245.48.116 2 2 47185 20181030085724
108.162.245.45 2 2 43828 20181017102623
172.68.54.123 1 1 28349 20181019220325
162.158.186.47 2 2 56706 20181019152955
141.101.88.189 1 6 33620 20181015235915
162.158.186.125 0 1 23936 
172.68.86.75 0 1 2471 
162.158.91.64 1 1 28353 20181019174534
172.68.189.138 0 7 0 
188.114.103.160 4 6 95241 20181009141029
162.158.54.99 0 2 12947 
162.158.92.39 0 3 22887 
172.68.141.201 2 2 56740 20181030140535
172.68.239.202 1 1 0 20181017082955
162.158.23.58 0 2 16038 
172.68.58.100 0 2 71914 
172.68.144.180 0 1 19172 
162.158.118.93 0 1 856 
162.158.166.34 0 2 29954 
162.158.106.203 0 1 2471 
162.158.92.201 1 1 28369 20181008110621
141.101.69.92 1 1 26867 20181008185704
162.158.106.227 0 1 1547 
172.68.211.189 1 1 28364 20181023154351
162.158.93.2 0 2 3694 
162.158.79.58 2 5 52377 20181023202202
162.158.166.214 2 6 69115 20181005140247
172.68.11.70 1 1 28349 20181008192628
141.101.105.167 0 2 4272 
108.162.245.147 0 3 278 
172.68.144.24 0 4 5267 
141.101.105.233 0 3 556 
141.101.97.82 2 2 56728 20181019164807
108.162.246.232 2 2 56728 20181021092005
162.158.142.33 3 3 89937 20181028145720
162.158.89.204 0 3 57516 
162.158.186.155 1 1 28353 20181019162341
172.68.143.197 0 4 0 
162.158.166.208 0 2 29113 
162.158.106.35 0 2 465075 
172.68.65.17 0 2 15258 
172.68.46.220 3 3 83607 20181023060046
141.101.77.91 2 2 54224 20181021045534
172.68.46.112 3 3 54867 20181023215433
172.69.62.69 7 7 169712 20181027201958
162.158.130.33 1 1 28353 20181014150152
162.158.88.151 0 1 92091 
141.101.96.74 0 1 856 
172.68.65.5 1 2 27774 20181027210827
162.158.106.245 0 1 856 
108.162.229.231 0 1 3007 
172.68.255.37 1 1 28364 20181021085325
162.158.93.176 0 2 1712 
172.69.33.196 0 1 95933 
162.158.255.111 5 5 141766 20181021124628
172.69.94.45 0 7 10632 
162.158.78.63 0 16 238568 
162.158.63.207 0 4 7388 
108.162.229.159 3 9 162948 20181020105851
162.158.165.123 0 1 105 
162.158.79.106 2 8 193992 20181016221942
172.69.135.33 0 1 2136 
162.158.63.141 3 4 85371 20181023150911
172.68.146.229 1 1 28353 20181008151637
108.162.245.117 0 1 0 
108.162.219.45 4 5 127603 20181019024854
108.162.246.82 1 1 28353 20181011092622
172.68.146.73 0 1 26540 
162.158.18.15 1 1 28353 20181017193158
173.245.52.144 0 3 191866 
172.69.55.117 0 2 184182 
141.101.88.117 1 1 28368 20181009222801
172.68.146.115 0 1 25355 
172.68.46.184 0 2 6962 
172.68.146.55 3 3 85059 20181018091044
172.68.146.205 1 1 36351 20181001152040
162.158.93.248 1 1 6137 20181014232714
172.68.146.157 0 1 7322 
172.68.239.76 9 9 255177 20181028195043
172.68.65.47 8 8 208670 20181025150500
172.69.62.153 2 2 12274 20181023202232
172.68.65.59 0 4 219180 
162.158.91.148 0 1 3481 
172.68.255.109 0 1 3007 
172.68.141.231 1 2 28368 20181010051413
172.68.144.156 8 11 273890 20181029181531
141.101.88.225 0 6 1395225 
172.69.55.201 1 1 38379 20181029020027
172.68.253.214 0 2 24818 
141.101.99.28 0 2 97358 
172.69.33.10 0 2 71914 
162.158.166.64 1 1 28353 20181029122515
162.158.93.182 0 2 29954 
162.158.167.77 3 3 48627 20181029181434
188.114.102.201 0 1 3481 
162.158.79.160 0 4 9600 
162.158.38.81 0 1 7629 
172.69.134.158 2 3 57749 20181007170259
172.69.55.141 1 1 28364 20181030122756
172.68.144.114 0 1 30184 
172.68.47.203 2 2 50940 20181020190823
141.101.98.201 1 1 28370 20181003022600
172.68.211.129 0 2 16376 
162.158.106.77 0 4 0 
162.158.22.51 0 3 4641 
172.68.42.27 0 4 140784 
172.68.133.95 0 1 2136 
162.158.18.27 1 1 28349 20181018070619
173.245.48.170 4 8 137803 20181030085724
172.69.62.33 1 1 28370 20181023152021
141.101.88.249 1 1 25216 20181008174536
162.158.63.153 0 1 856 
162.158.62.56 2 2 44279 20181002052507
162.158.89.78 3 3 28364 20181025163100
172.68.144.252 0 2 13962 
108.162.245.87 0 2 35957 
162.158.118.39 0 1 1743 
162.158.79.100 0 6 44736 
173.245.52.162 0 6 120280 
141.101.97.98 0 1 26540 
108.162.219.111 0 3 71808 
108.162.245.9 1 1 28354 20181030000529
197.234.242.123 0 1 3007 
162.158.89.24 0 3 107871 
188.114.103.118 0 2 71914 
172.69.62.111 2 16 406222 20181026070848
172.69.135.69 0 5 39974 
162.158.90.173 0 2 71914 
162.158.38.189 0 1 12409 
172.68.94.123 1 1 28353 20181007174124
162.158.79.172 0 5 74885 
188.114.103.10 0 6 24750 
162.158.210.45 1 1 28364 20181024145109
162.158.89.6 2 2 56706 20181024191025
108.162.229.39 6 6 170118 20181024064853
141.101.88.165 7 7 194540 20181030193311
141.101.104.178 0 3 71914 
162.158.23.16 1 4 38840 20181009233035
162.158.90.59 1 1 0 20181027035548
162.158.88.145 1 1 21319 20181003221438
172.68.50.177 1 1 38379 20181022220705
172.69.23.38 0 12 80127 
162.158.154.60 0 1 1743 
172.69.226.58 0 3 2472 
162.158.39.22 0 1 5267 
162.158.63.99 0 2 556 
172.69.226.64 2 2 49781 20181016182900
108.162.245.81 0 3 29954 
172.68.245.246 0 1 8188 
141.101.88.219 0 1 8188 
162.158.166.184 1 2 64694 20181030103607
162.158.79.4 2 2 2936 20181023202222
172.69.134.62 0 4 7100 
162.158.106.65 2 6 160396 20181027063550
188.114.110.237 4 4 113412 20181009074612
162.158.58.116 1 2 28906 20181013055416
162.158.78.201 1 1 25866 20181018174752
197.234.242.45 0 1 23936 
141.101.98.45 0 1 278 
172.69.135.129 9 11 280304 20181018230338
162.158.179.51 3 3 86106 20181021085355
162.158.2.141 0 1 856 
172.68.144.162 4 6 145532 20181021180030
172.68.246.205 2 2 28364 20181025104029
162.158.166.94 0 1 824 
162.158.79.154 5 13 196824 20181031124914
173.245.52.108 4 10 128384 20181023083949
172.68.144.240 0 1 1847 
172.68.255.97 1 1 28370 20181030102919
172.68.46.10 1 1 28364 20181007100413
162.158.54.75 0 2 29954 
108.162.219.237 0 4 44931 
172.68.42.33 0 5 516627 
108.162.215.225 0 1 2136 
188.114.102.225 0 2 47872 
141.101.98.189 1 1 28353 20181019143548
108.162.237.147 0 1 31900 
172.69.55.177 0 2 2562 
172.68.211.21 0 5 1112 
162.158.63.51 0 1 92091 
162.158.134.177 2 2 56740 20181028234754
162.158.167.203 0 1 1847 
162.158.187.30 0 1 278 
162.158.106.5 0 1 92091 
162.158.166.160 0 2 0 
162.158.79.148 5 5 141823 20181028062047
162.158.34.51 0 1 2136 
162.158.50.165 4 4 113412 20181024131310
162.158.92.243 3 3 85107 20181022080820
172.68.144.12 4 4 113412 20181029114611
108.162.246.106 0 1 1547 
172.68.254.95 0 1 0 
172.68.254.143 0 1 1743 
172.68.150.57 4 4 113411 20181022085207
172.68.143.95 3 3 85105 20181026154339
162.158.38.231 0 4 18536 
162.158.186.101 0 1 95933 
162.158.126.87 1 1 28353 20181024041012
162.158.2.33 0 2 12409 
162.158.54.159 0 1 856 
172.68.189.90 0 8 7388 
172.68.254.77 0 1 0 
108.162.215.213 0 1 5267 
162.158.63.249 2 2 56729 20181008195315
162.158.94.55 0 2 0 
162.158.2.81 0 1 1281 
172.68.146.49 0 1 2471 
172.69.94.33 1 4 77479 20181012131508
172.68.65.221 0 4 24176 
197.234.242.33 0 1 95933 
162.158.38.105 0 3 560173 
162.158.166.52 2 2 51732 20181009140013
108.162.246.10 0 3 0 
108.162.246.226 0 12 164862 
172.68.46.4 3 3 85092 20181016173645
162.158.78.147 0 9 99272 
162.158.75.153 0 1 7322 
172.68.146.151 0 1 19172 
162.158.63.183 8 8 209180 20181023223037
172.68.144.234 0 1 3316 
172.68.42.15 0 9 146634 
108.162.219.105 0 3 834 
172.68.244.179 1 1 28368 20181013091934
162.158.79.166 1 1 22870 20181025162920
172.68.144.126 0 1 856 
188.114.103.136 0 2 930150 
172.69.33.238 0 5 191866 
141.101.99.130 0 1 29113 
188.114.102.207 0 1 2471 
108.162.229.171 0 5 12409 
172.68.146.7 2 2 56706 20181027165208
162.158.22.69 0 1 824 
173.245.52.126 0 3 37227 
162.158.39.4 0 1 116 
172.69.55.81 0 1 2136 
162.158.154.12 0 1 856 
172.68.239.10 2 2 57468 20181009200602
172.69.33.190 2 2 63601 20181028133216
188.114.102.75 0 2 16376 
162.158.2.9 0 1 2136 
162.158.165.225 2 2 56706 20181003094909
162.158.89.198 1 1 0 20181011065006
162.158.154.54 1 1 28353 20181023173431
188.114.110.165 2 2 56706 20181009074437
172.69.62.141 0 8 10688 
162.158.165.171 0 2 35957 
103.22.200.137 9 9 228836 20181004223925
172.68.143.89 0 3 1614 
172.68.58.46 0 1 23936 
162.158.118.15 0 2 4863 
172.68.11.100 1 1 29104 20181004024435
172.68.142.196 2 2 56740 20181029024317
172.68.238.243 1 1 0 20181015183838
141.101.77.79 3 3 85071 20181027071440
172.69.134.26 1 1 28353 20181002105247
172.68.51.45 1 1 28370 20181017004513
162.158.89.72 0 2 6014 
162.158.38.117 0 1 31900 
162.158.78.27 5 12 147526 20181027202023
162.158.89.66 2 9 68236 20181016061411
162.158.106.185 0 1 3481 
172.68.146.25 0 1 54795 
108.162.237.189 0 1 92091 
162.158.54.33 0 1 29113 
141.101.107.41 1 1 21298 20181015220000
141.101.107.83 0 1 7629 
108.162.219.219 8 10 1149521 20181015112015
172.68.46.106 0 4 5541 
162.158.89.18 0 3 15801 
162.158.46.45 0 1 2136 
141.101.98.147 1 1 28353 20181001130240
162.158.186.11 0 1 3007 
172.69.135.153 4 4 113412 20181023123103
197.234.242.9 0 2 6797 
162.158.167.113 4 6 131696 20181023165357
162.158.23.70 0 3 6119 
162.158.165.81 0 2 278 
172.69.226.16 1 1 28353 20181030124206
172.68.54.33 1 1 28349 20181005182728
172.68.253.154 0 1 856 
172.68.146.139 2 8 78772 20181007150844
162.158.22.153 5 10 256640 20181015142535
108.162.245.225 1 5 28364 20181013165254
162.158.54.81 5 5 141765 20181030205839
162.158.79.64 0 3 60368 
172.68.58.112 0 2 6962 
162.158.38.75 1 1 28370 20181003040955
172.68.254.240 0 1 0 
172.68.133.29 2 2 28349 20181020124147
172.69.54.218 0 3 0 
162.158.59.165 2 2 56728 20181030165040
172.69.54.164 2 2 56708 20181001005200
162.158.90.179 3 3 59721 20181014232705
108.162.219.249 0 8 1510488 
172.69.134.188 0 1 157295 
162.158.106.191 4 5 57109 20181028062126
162.158.224.141 1 1 28353 20181007162749
162.158.79.10 0 2 6014 
162.158.22.171 0 1 0 
172.69.62.207 2 10 206143 20181025035541
172.69.135.159 3 3 84787 20181031100655
108.162.229.27 0 6 3983 
162.158.62.242 0 2 29954 
162.158.89.186 0 3 834 
162.158.50.129 5 5 141765 20181024130600
108.162.245.123 0 1 2136 
141.101.107.179 0 1 2430 
162.158.93.44 0 2 8336 
162.158.165.45 0 2 18097 
141.101.77.145 0 3 24818 
172.69.33.46 0 1 7322 
188.114.103.184 0 3 2472 
188.114.110.135 2 2 56706 20181005231655
162.158.54.141 0 1 1847 
162.158.90.29 0 4 3424 
162.158.63.219 1 1 28370 20181001203308
172.68.11.226 0 1 856 
162.158.54.147 0 6 11961 
172.69.54.170 3 3 78041 20181016064745
108.162.219.213 7 7 198248 20181023223036
162.158.63.21 3 7 148960 20181021232043
172.68.150.51 1 1 28349 20181004175138
108.162.216.159 0 1 1547 
172.68.211.135 3 3 85059 20181026041313
172.69.22.247 1 1 21317 20181022224336
141.101.98.249 0 1 12409 
162.158.79.28 0 6 5217 
172.68.255.25 0 1 7322 
162.158.54.69 0 1 92091 
172.68.47.251 0 3 2568 
172.69.226.148 0 2 2562 
162.158.165.135 0 1 4168 
172.68.144.60 0 1 1737 
141.101.88.207 1 2 120459 20181004220206
162.158.50.183 2 2 56706 20181007143618
172.69.134.86 0 6 160781 
141.101.88.75 0 5 7629 
108.162.238.130 0 1 8188 
141.101.69.38 7 7 168212 20181030182004
162.158.178.44 0 1 30184 
162.158.179.81 0 1 0 
162.158.158.62 1 1 28353 20181016160052
197.234.242.57 0 4 66728 
108.162.215.159 0 2 3694 
108.162.216.225 2 2 56706 20181022000605
162.158.78.213 0 1 2136 
162.158.38.213 1 1 28349 20181027095758
172.68.132.58 1 1 28370 20181003004055
162.158.166.172 0 1 7629 
162.158.165.33 1 1 28353 20181030102918
188.114.102.63 1 1 28364 20181028063842
141.101.88.201 1 2 29224 20181009220557
172.69.134.98 0 1 27336 
172.68.142.202 0 3 95933 
172.69.33.130 0 2 58226 
172.68.47.233 1 1 28349 20181021061715
162.158.255.21 0 7 0 
172.68.58.16 0 2 3486 
162.158.179.87 1 1 38379 20181002105319
162.158.255.93 0 6 0 
172.69.135.75 0 3 3480 
172.68.150.63 2 2 56698 20181022085226
172.69.134.122 0 4 13962 
172.68.133.155 3 3 85061 20181023230741
162.158.78.171 2 2 64717 20181027210827
162.158.179.147 0 2 1547 
172.68.144.96 1 1 28370 20181001152028
162.158.255.189 1 1 28349 20181021124539
162.158.39.46 0 1 23936 
172.69.134.134 0 2 4143 
162.158.75.27 1 1 28368 20181011214925
141.101.77.127 2 2 56698 20181017015655
162.158.166.70 0 1 23165 
172.69.134.44 0 9 530533 
172.68.102.111 1 1 28353 20181009220143
162.158.93.170 0 2 58226 
172.68.144.18 1 1 6129 20181029181409
172.69.94.69 0 10 142282 
172.68.245.228 1 1 28364 20181020010318
162.158.118.165 0 1 7322 
162.158.38.147 0 1 538 
172.68.144.198 0 2 11504 
141.101.76.201 1 1 28370 20181013055528
172.68.146.145 0 1 369 
172.68.142.148 2 2 49685 20181023195042
172.68.11.16 2 2 56706 20181018152956
162.158.75.135 1 1 28353 20181003114806
162.158.54.123 0 1 26540 
162.158.166.16 0 1 1547 
141.101.105.101 1 3 54749 20181023165951
172.68.189.66 0 1 0 
162.158.111.24 1 4 32058 20181021045535
162.158.39.28 0 1 8188 
162.158.102.27 1 1 28349 20181029121709
162.158.59.39 0 4 6188 
162.158.178.206 0 1 0 
188.114.110.159 1 1 28353 20181009074451
172.68.54.171 1 1 38362 20181019013934
172.69.135.21 5 5 141765 20181022123130
162.158.62.206 0 1 95933 
108.162.219.93 2 2 45020 20181023083949
141.101.105.41 0 4 59908 
141.101.77.157 0 3 930150 
141.101.76.207 0 3 10534 
162.158.54.183 0 2 501032 
172.68.244.173 1 1 0 20181025050833
162.158.114.75 1 1 0 20181025081608
141.101.105.215 1 1 38373 20181023165951
162.158.78.141 0 2 230 
172.68.146.133 3 7 151513 20181023123054
172.68.162.39 0 1 3481 
141.101.107.185 0 1 8188 
162.158.142.21 2 2 56740 20181023152021
172.68.144.144 0 1 8188 
162.158.23.10 0 3 99053 
172.69.135.9 0 2 232 
162.158.106.83 3 5 94352 20181027062940
162.158.39.16 0 1 13962 
172.68.238.249 1 1 29104 20181010144714
162.158.167.83 0 2 2430 
141.101.88.213 1 1 28353 20181030124036
162.158.78.159 0 1 1847 
172.69.134.68 1 3 120982 20181001211415
173.245.48.248 2 4 145106 20181018042342
141.101.88.63 3 4 88375 20181030090522
162.158.142.117 2 2 48375 20181011075311
172.68.65.95 0 1 23936 
172.69.33.16 2 2 56706 20181026085253
141.101.77.67 0 2 14644 
108.162.249.141 2 2 56740 20181025152922
172.68.143.119 3 3 85060 20181029194048
172.68.46.196 0 3 9021 
172.69.33.52 1 1 28349 20181006192842
172.68.189.228 2 2 56706 20181020154151
108.162.246.178 3 5 85095 20181012090557
162.158.88.193 0 3 95700 
172.68.254.71 0 1 856 
172.68.65.191 9 15 232433 20181027202023
162.158.154.6 0 1 19172 
162.158.167.191 0 2 12409 
141.101.107.125 1 1 28370 20181026113025
162.158.88.253 2 2 55237 20181014232704
162.158.179.171 0 1 0 
172.68.144.210 0 3 40572 
162.158.34.195 1 1 28353 20181007210850
108.162.215.63 1 1 28364 20181004225654
162.158.93.194 1 1 28353 20181027224222
162.158.154.186 1 1 25201 20181015215958
188.114.102.123 2 2 62217 20181014150208
172.68.146.103 0 2 3947 
108.162.216.9 0 1 2136 
172.69.94.15 0 8 129634 
172.69.62.75 0 6 689926 
188.114.102.45 0 2 24818 
172.69.22.199 1 2 35675 20181026131722
162.158.91.16 0 3 41886 
188.114.102.165 0 2 4860 
108.162.246.34 0 1 2136 
162.158.93.26 1 3 92164 20181028231704
172.69.33.28 0 1 23936 
162.158.78.177 0 1 16038 
172.68.211.183 0 4 15258 
162.158.106.239 0 4 0 
172.68.244.155 1 1 28364 20181010170839
172.68.144.90 1 1 28370 20181005114848
172.68.146.13 0 1 115 
141.101.69.26 5 6 138117 20181031125930
108.162.229.213 1 1 28353 20181020143628
108.162.245.171 0 4 79620 
172.68.146.37 0 1 1281 
162.158.38.249 0 1 0 
172.68.65.131 0 4 4172 
108.162.246.58 0 2 8603 
172.68.146.187 0 1 4504 
162.158.2.159 0 1 2136 
162.158.93.20 0 2 3094 
141.101.69.62 1 6 124286 20181030124029
141.101.69.164 0 2 4272 
162.158.79.118 2 16 109659 20181023202218
172.68.141.123 1 1 28370 20181029024310
197.234.242.21 0 1 1847 
108.162.238.244 0 1 26540 
108.162.245.105 2 3 144668 20181013090511
162.158.186.71 1 1 28364 20181024012715
162.158.78.153 5 5 134876 20181019204246
172.68.42.39 1 6 52702 20181007160917
172.69.226.112 4 4 113412 20181030124037
172.68.10.165 0 2 45712 
162.158.186.233 0 1 2430 
162.158.89.144 6 11 173174 20181024191334
172.69.226.118 1 1 36351 20181014153628
162.158.22.57 0 1 856 
162.158.74.32 0 2 63800 
108.162.246.148 3 8 56729 20181028061929
188.114.102.21 0 1 3481 
162.158.130.51 0 1 2136 
162.158.38.219 0 1 29113 
172.68.47.119 0 4 71808 
162.158.178.170 0 1 674 
108.162.238.226 0 1 5267 
172.68.245.144 3 3 95394 20181017214001
172.68.211.69 0 1 278 
172.68.46.244 0 2 15258 
141.101.107.89 1 2 60253 20181001193657
198.41.226.111 1 1 28353 20181028234857
108.162.237.75 0 1 856 
197.234.242.117 2 3 77969 20181008164757
162.158.93.92 0 2 6962 
162.158.166.76 0 1 90 
162.158.106.233 0 3 5267 
172.68.10.213 2 2 56698 20181004105516
172.68.65.227 5 5 131546 20181027202023
162.158.10.45 1 7 77171 20181010163030
162.158.93.38 0 3 1395225 
162.158.92.189 0 3 87339 
162.158.54.195 1 3 31153 20181001012258
172.68.65.245 0 4 21068 
108.162.246.64 0 1 87940 
172.68.11.220 0 1 538 
172.68.65.251 0 2 20760 
172.68.162.75 0 1 95933 
173.245.52.90 8 8 215779 20181023083949
172.68.65.23 1 1 22570 20181018174236
162.158.88.247 0 3 12409 
172.68.141.99 1 1 28369 20181017213858
172.68.146.175 0 1 538 
172.68.143.167 2 2 56738 20181023172757
162.158.91.160 3 3 28364 20181006035107
172.68.142.118 3 3 85059 20181026073653
162.158.89.138 0 2 27924 
172.68.255.145 1 1 28353 20181002124601
108.162.229.165 1 1 28368 20181010185729
172.68.142.76 1 1 28370 20181030140540
172.68.246.181 0 1 1743 
172.68.253.28 0 1 92091 
162.158.75.87 0 2 556 
162.158.78.237 0 4 2568 
141.101.99.250 0 1 14977 
162.158.88.13 0 4 383732 
162.158.2.27 2 3 65698 20181012052930
162.158.165.15 0 1 1743 
162.158.79.70 0 1 3007 
197.234.242.135 0 1 19172 
172.69.22.163 1 1 28353 20181025134143
172.69.134.236 2 4 56706 20181002225220
141.101.99.58 0 1 3007 
162.158.166.88 0 4 0 
162.158.93.254 3 3 79263 20181014232704
172.68.65.167 2 2 49777 20181030141150
172.69.135.87 5 7 170376 20181023154600
172.68.144.174 0 1 1281 
172.68.47.5 5 5 142834 20181020233033
172.69.22.73 1 1 28353 20181020154100
162.158.30.63 0 2 3863 
141.101.88.237 0 1 538 
172.68.51.171 1 1 39134 20181022220707
162.158.102.165 1 1 28353 20181021064632
162.158.179.105 1 1 28353 20181014135334
162.158.62.230 3 3 72253 20181003054707
108.162.215.87 3 3 79081 20181023215431
162.158.75.21 0 1 19172 
108.162.229.201 4 4 111731 20181030174329
162.158.23.52 0 4 263820 
162.158.90.47 0 3 9021 
162.158.111.210 1 3 31458 20181023165942
172.69.62.159 0 4 145364 
172.69.134.38 0 3 54902 
162.158.78.21 1 1 28353 20181017193341
141.101.98.243 2 2 56706 20181016172840
162.158.79.16 2 2 51732 20181023202208
172.68.47.209 0 1 92091 
162.158.54.45 0 1 95933 
162.158.79.226 9 9 244743 20181025150459
162.158.90.107 1 1 28353 20181028222206
162.158.38.171 0 1 278 
162.158.2.87 0 1 7322 
172.69.33.160 0 3 29954 
162.158.62.164 3 6 120019 20181013201713
172.69.54.206 0 1 3481 
162.158.89.252 0 4 368364 
162.158.2.105 0 2 93828 
172.68.144.30 0 4 11837 
162.158.255.105 2 2 28349 20181028115712
162.158.111.6 2 2 56707 20181031154554
162.158.89.234 0 2 175880 
103.22.200.167 0 1 3007 
108.162.215.141 1 1 28349 20181024125205
172.68.146.109 4 9 226215 20181009120934
162.158.22.105 0 3 484247 
108.162.237.51 0 1 12409 
172.68.254.246 0 1 157295 
172.68.143.185 0 1 8188 
162.158.90.161 1 1 28353 20181031205840
162.158.106.197 0 2 5328 
162.158.54.117 0 1 2471 
172.69.190.27 1 1 0 20181002172015
162.158.22.249 0 1 0 
141.101.107.209 0 1 465075 
172.68.47.41 1 2 54889 20181006173306
172.68.144.108 0 3 369 
188.114.103.82 0 4 64876 
108.162.216.63 1 1 28353 20181003214150
141.101.98.87 0 1 7322 
162.158.54.105 0 2 25679 
162.158.78.33 0 4 101420 
162.158.38.225 0 2 5911 
172.68.146.97 5 5 149780 20181023161614
172.68.255.61 0 1 3481 
162.158.2.15 0 4 82448 
162.158.63.39 0 3 15801 
172.68.46.136 3 3 79458 20181030085724
162.158.79.136 0 1 35957 
172.69.62.45 0 11 752801 
188.114.102.9 0 5 67247 
172.68.255.85 2 2 56740 20181001153216
172.69.134.8 5 9 606840 20181025082735
162.158.63.93 0 3 22887 
162.158.165.51 0 2 35957 
108.162.246.196 2 2 56729 20181029105814
188.114.103.94 0 2 252872 
162.158.179.39 0 1 0 
172.69.226.142 2 7 51723 20181031125856
162.158.50.105 0 2 4272 
162.158.2.99 0 4 7907 
172.68.65.143 0 9 154872 
172.68.65.11 1 5 94221 20181010172725
162.158.78.57 0 6 9282 
172.68.146.67 2 7 83640 20181009115449
162.158.154.24 0 1 95933 
162.158.166.82 0 3 493963 
162.158.106.53 1 1 28354 20181005105605
108.162.237.231 0 2 58226 
172.68.254.191 0 1 4504 
162.158.165.39 0 2 92915 
172.69.135.39 1 1 28353 20181027065216
162.158.10.33 0 7 591132 
162.158.63.237 8 8 209307 20181023223037
172.68.58.142 1 1 28353 20181013052744
197.234.242.165 0 1 12409 
197.234.242.87 0 1 538 
162.158.54.129 0 2 14786 
162.158.92.195 0 4 8544 
172.68.144.78 0 2 2562 
162.158.91.28 0 3 5229 
162.158.10.21 0 9 192723 
172.68.142.208 3 3 85106 20181028095838
162.158.2.39 0 5 6641 
162.158.2.129 0 1 824 
141.101.69.122 0 1 1547 
172.68.255.127 0 1 3316 
172.68.244.125 1 1 38362 20181018223751
162.158.22.15 0 5 30047 
172.69.70.172 0 1 2136 
173.245.54.12 1 9 130154 20181020092430
141.101.88.183 0 5 143420 
172.69.135.45 5 5 128629 20181023155625
188.114.103.112 0 1 87940 
108.162.246.94 8 10 209899 20181027063809
162.158.165.201 0 2 5163 
108.162.249.165 1 1 28370 20181025152922
172.68.150.9 4 4 100660 20181025080408
162.158.167.5 2 2 56706 20181004091210
162.158.79.82 2 3 57018 20181023202132
162.158.165.87 7 8 180850 20181018113116
162.158.2.69 0 2 34728 
162.158.78.105 2 10 92580 20181023202205
162.158.38.39 0 1 95933 
172.69.94.51 0 4 47605 
141.101.97.80 0 1 1743 
172.69.62.93 0 6 291432 
162.158.166.232 3 4 119597 20181021094534
162.158.63.57 4 10 190079 20181019024855
162.158.38.93 0 1 1547 
172.69.134.218 1 4 70279 20181006143758
162.158.78.249 2 12 1268885 20181027210827
172.69.55.57 0 2 3486 
197.234.242.93 0 2 28676 
162.158.78.165 0 2 90640 
162.158.167.41 0 4 40438 
162.158.62.134 5 5 127446 20181019024854
172.68.65.155 5 5 127744 20181028062127
162.158.93.122 1 1 28369 20181015143226
172.69.62.147 2 9 56166 20181023202220
162.158.90.227 2 2 74730 20181027224254
108.162.229.111 4 4 113459 20181028233907
108.162.246.136 1 2 30113 20181017000045
141.101.69.146 0 3 5211 
162.158.38.21 0 1 19172 
173.245.54.36 0 5 10680 
162.158.92.147 0 4 7518 
108.162.216.135 0 2 6632 
162.158.75.117 0 1 29113 
108.162.246.28 0 2 33281 
141.101.88.171 0 6 87339 
172.68.132.226 1 1 0 20181013204054
108.162.246.190 1 3 63800 20181006154801
172.68.142.166 1 1 0 20181007142150
162.158.46.93 1 1 28353 20181029152934
162.158.178.50 2 2 56740 20181021085326
141.101.107.77 0 1 3316 
172.68.10.27 1 1 28353 20181019103425
172.69.94.63 0 8 51028 
172.68.54.177 0 1 3481 
172.68.65.149 0 6 8813 
172.69.68.42 3 3 85059 20181006040134
162.158.79.34 0 10 4185675 
141.101.99.4 0 1 35957 
172.68.245.252 1 1 28364 20181024224040
188.114.103.166 0 2 556 
162.158.102.231 1 1 28353 20181021064641
162.158.2.51 0 2 3694 
162.158.54.111 0 1 2136 
108.162.241.231 1 1 0 20181029090419
141.101.88.33 0 5 278 
162.158.186.89 0 1 35957 
172.68.65.65 4 4 105883 20181027210828
141.101.105.119 1 1 38379 20181011084849
172.69.33.202 0 4 35957 
172.68.141.117 0 6 0 
172.69.54.86 1 1 28353 20181012022705
162.158.2.123 0 3 9639 
162.158.91.202 0 3 7290 
173.245.54.18 4 4 57296 20181023202228
172.69.23.32 1 1 28370 20181011035437
162.158.93.164 2 2 56738 20181023205808
162.158.106.179 0 1 0 
162.158.167.137 0 2 13962 
162.158.54.201 2 2 56706 20181009105621
162.158.158.32 0 1 0 
162.158.165.27 0 1 3481 
162.158.88.217 1 1 0 20181011231240
172.68.239.22 1 1 28349 20181008101113
197.234.242.69 0 1 2430 
173.245.48.62 6 6 165020 20181027120712
172.68.245.186 0 1 95933 
141.101.107.227 0 1 1547 
173.245.54.30 3 5 108925 20181023202144
141.101.76.129 1 1 28353 20181023025732
162.158.54.207 0 2 3285 
172.68.144.72 1 1 28353 20181004072934
162.158.22.27 0 4 57946 
172.68.146.247 0 1 36341 
162.158.22.117 0 2 4860 
162.158.2.111 0 3 33281 
162.158.118.75 0 1 31900 
162.158.62.62 6 6 159049 20181017040646
162.158.79.40 0 1 105 
162.158.78.81 5 5 131852 20181027133924
108.162.246.70 4 4 113409 20181023000707
188.114.103.172 0 1 4168 
172.68.11.202 1 1 28370 20181007093248
162.158.166.46 0 3 0 
172.68.146.217 0 4 35957 
108.162.216.177 0 2 191866 
162.158.78.225 4 4 101880 20181023202211
162.158.93.212 0 1 3316 
172.68.47.17 1 1 28353 20181006155200
141.101.77.211 1 1 39058 20181029020029
172.68.255.79 0 1 0 
108.162.216.45 2 2 56740 20181003114803
172.68.254.119 0 1 0 
162.158.22.21 1 12 796465 20181008192514
141.101.104.166 0 2 6632 
162.158.89.120 0 1 19172 
172.68.65.161 0 4 29288 
108.162.237.165 0 1 2471 
162.158.2.177 0 3 115105 
172.69.62.63 5 11 292411 20181029070349
172.68.58.58 0 4 59908 
172.68.144.6 4 6 209029 20181030194153
162.158.186.179 1 1 28370 20181019162342
172.69.33.226 0 1 1547 
172.69.62.165 6 14 243474 20181030124859
141.101.104.106 1 1 28349 20181005071514
162.158.166.130 2 2 56706 20181026161426
141.101.76.195 1 1 28354 20181001005159
172.69.134.110 2 2 56706 20181023145806
172.69.42.33 1 1 38358 20181020140129
162.158.155.247 0 1 0 
172.68.254.59 3 3 60365 20181021085345
172.68.144.102 0 1 538 
188.114.102.51 1 5 77242 20181028063827
172.69.62.105 0 4 92660 
162.158.38.207 0 1 26540 
162.158.90.5 0 2 14644 
141.101.76.243 0 3 4860 
172.69.34.5 2 2 56706 20181031080309
162.158.106.41 5 5 141788 20181025092656
162.158.63.105 1 1 28370 20181009085809
141.101.88.147 0 3 263820 
162.158.74.242 2 2 56698 20181024192236
162.158.78.207 1 1 28369 20181002213941
172.68.47.59 0 3 37227 
141.101.99.52 0 1 13962 
162.158.2.21 0 4 960104 
172.68.11.52 0 1 1547 
162.158.165.159 3 6 102748 20181009112541
162.158.79.238 0 4 0 
162.158.106.149 5 5 113458 20181016094837
141.101.77.163 0 3 191866 
197.234.242.159 0 1 278 
172.68.47.227 1 1 28369 20181031070729
162.158.88.133 1 1 0 20181027024715
172.68.144.132 1 1 28353 20181005112936
162.158.102.171 2 2 56706 20181021064707
172.68.146.121 0 1 3481 
172.68.244.11 0 1 3007 
188.114.102.111 0 6 198700 
162.158.91.136 7 10 243445 20181024191110
172.69.134.152 10 12 322619 20181029161542
173.245.54.42 5 14 298188 20181029124840
END_VISITOR

# Date - Pages - Hits - Bandwidth - Visits
BEGIN_DAY 31
20181001 55 138 2514791 42
20181002 62 125 3031506 55
20181003 43 75 1431047 39
20181004 73 168 3997047 40
20181005 44 101 3732674 38
20181006 46 104 2412529 40
20181007 52 98 2107242 44
20181008 44 133 4065332 36
20181009 56 136 2919865 46
20181010 68 149 4749981 48
20181011 52 81 2088273 41
20181012 22 120 3124503 20
20181013 45 99 1597074 39
20181014 39 129 3231003 32
20181015 65 159 4412681 55
20181016 77 219 5803594 57
20181017 81 94 2858214 52
20181018 74 162 3689268 51
20181019 73 170 3985628 60
20181020 39 71 2015264 37
20181021 60 104 2600707 38
20181022 34 65 1557183 27
20181023 102 267 7601057 84
20181024 25 43 712916 22
20181025 58 138 3815794 40
20181026 34 44 1268122 31
20181027 54 154 5083868 44
20181028 33 94 2256555 26
20181029 48 80 1339883 39
20181030 48 101 3112516 38
20181031 49 107 2512709 31
END_DAY

# Session range - Number of visits
BEGIN_SESSION 6
30mn-1h 13
15mn-30mn 9
30s-2mn 38
0s-30s 1198
5mn-15mn 17
2mn-5mn 17
END_SESSION

# URL - Pages - Bandwidth - Entry - Exit
# The 25 first Pages must be first (order not required for others)
BEGIN_SIDER 35
/ 924 25238514 830 793
/accommodation 106 2741617 66 63
/gallery 103 3743976 56 70
/contact-us 68 2611243 43 46
/location 63 1421756 34 37
/promotions 51 1125245 32 37
/about-us 48 1023115 25 35
/facilities/restaurant 43 945701 24 27
/facilities/room-service 39 834794 25 24
/facilities 34 857394 21 18
//index.php 28 793884 25 25
/privacy-policy 27 698363 19 25
/downloads 21 480202 17 12
/index.php 16 453845 11 13
/terms-and-conditions 16 436796 11 12
/assets/360/lobby-home.html 14 85806 11 8
/contact-us.php 8 307593 8 8
/assets/360/reinhart_room-home.html 6 36822 4 4
/map_pop.html 4 5316 2 4
/cont_pop.html 4 5872 3 4
/assets/360/stephan_suite-home.html 4 24556 3 3
/accommodation.php 3 77580 3 2
/assets/360/molly_suite-home.html 3 18417 1 3
/about-us.php 3 63928 1 3
/restaurant.php 3 74659 3 1
/facilities/about-us 1 0 0 1
/sitemap.xml 2 4950 2 1
/downloads.php 1 22851 1 1
/privacy-policy.php 1 26861 1 1
/facilities.php 2 50421 2 2
/terms-and-conditions.php 3 87312 3 3
/room-services.php 1 23122 0 1
/facilities/privacy-policy 1 0 1 1
/promotions.php 1 22503 1 1
/bar.php 3 73209 3 3
END_SIDER
