AWSTATS DATA FILE 7.6 (build 20161204)
# If you remove this file, all statistics for date 201808 will be lost/reset.
# Last config file used to build this data file was /home2/fyfxamvcmvss/tmp/awstats/awstats.firs.freudenbergleisure.lk.conf.

# Position (offset in bytes) in this file for beginning of each section for
# direct I/O access. If you made changes somewhere in this file, you should
# also remove completely the MAP section (AWStats will rewrite it at next
# update).
BEGIN_MAP 28
POS_GENERAL 2028                
POS_TIME 2689                
POS_VISITOR 8008                
POS_DAY 12392               
POS_DOMAIN 3425                
POS_LOGIN 3668                
POS_ROBOT 3823                
POS_WORMS 4459                
POS_EMAILSENDER 4590                
POS_EMAILRECEIVER 4733                
POS_SESSION 13075               
POS_SIDER 13222               
POS_FILETYPES 4868                
POS_DOWNLOADS 5042                
POS_OS 5090                
POS_BROWSER 5285                
POS_SCREENSIZE 5925                
POS_UNKNOWNREFERER 5999                
POS_UNKNOWNREFERERBROWSER 6772                
POS_ORIGIN 6921                
POS_SEREFERRALS 7055                
POS_PAGEREFS 7212                
POS_SEARCHWORDS 7396                
POS_KEYWORDS 7548                
POS_MISC 2353                
POS_ERRORS 7607                
POS_CLUSTER 3524                
POS_SIDER_404 7699                
END_MAP

# LastLine    = Date of last record processed - Last record line number in last log - Last record offset in last log - Last record signature value
# FirstTime   = Date of first visit for history file
# LastTime    = Date of last visit for history file
# LastUpdate  = Date of last update - Nb of parsed records - Nb of parsed old records - Nb of parsed new records - Nb of parsed corrupted - Nb of parsed dropped
# TotalVisits = Number of visits
# TotalUnique = Number of unique visitors
# MonthHostsKnown   = Number of hosts known
# MonthHostsUnKnown = Number of hosts unknown
BEGIN_GENERAL 8
LastLine 20180901021716 8 1161 9096547371207
FirstTime 0
LastTime 20180831231947
LastUpdate 20180901173548 8 0 7 0 0
TotalVisits 95                  
TotalUnique 80                  
MonthHostsKnown 0                   
MonthHostsUnknown 128                 
END_GENERAL

# Misc ID - Pages - Hits - Bandwidth
BEGIN_MISC 10
WindowsMediaPlayerSupport 0 0 0
JavascriptDisabled 0 0 0
FlashSupport 0 0 0
AddToFavourites 0 2 0
JavaEnabled 0 0 0
TotalMisc 0 0 0
DirectorSupport 0 0 0
PDFSupport 0 0 0
RealPlayerSupport 0 0 0
QuickTimeSupport 0 0 0
END_MISC

# Hour - Pages - Hits - Bandwidth - Not viewed Pages - Not viewed Hits - Not viewed Bandwidth
BEGIN_TIME 24
0 11 12 229084 7 33 674892
1 1 1 28368 30 59 1157486
2 5 5 123481 13 51 1488706
3 4 4 113473 5 20 413335
4 1 1 28368 6 34 622659
5 3 3 28368 7 13 292466
6 6 6 123481 11 21 440515
7 5 5 113472 6 16 341623
8 9 9 133378 6 10 229047
9 4 5 115610 6 10 213983
10 0 0 0 13 23 487518
11 0 0 0 2 7 153049
12 3 3 85104 4 8 190526
13 5 5 141840 9 17 354773
14 2 25 953518 7 10 210838
15 3 3 85105 8 15 299961
16 6 7 143979 7 12 249360
17 2 3 58872 7 13 314155
18 1 25 928157 6 13 305051
19 5 6 115609 6 10 229051
20 6 6 141842 10 22 479498
21 7 7 144317 7 12 237108
22 8 32 518947 8 14 324312
23 4 4 56736 13 49 1019497
END_TIME

# Domain - Pages - Hits - Bandwidth
# The 25 first Pages must be first (order not required for others)
BEGIN_DOMAIN 2
us 94 170 4212533
eu 7 7 198576
END_DOMAIN

# Cluster ID - Pages - Hits - Bandwidth
BEGIN_CLUSTER 0
END_CLUSTER

# Login - Pages - Hits - Bandwidth - Last visit
# The 10 first Pages must be first (order not required for others)
BEGIN_LOGIN 0
END_LOGIN

# Robot ID - Hits - Bandwidth - Last visit - Hits on robots.txt
# The 25 first Hits must be first (order not required for others)
BEGIN_ROBOT 13
Googlebot/ 149 3836567 20180830145826 0
YandexBot/ 18 510642 20180831023951 0
Sogou[\x20]web[\x20]spider/ 10 283680 20180831233844 0
BLEXBot/ 6 118425 20180831221051 0
bingbot/ 4 113474 20180830024035 0
Baiduspider/ 3 81633 20180813054458 0
bingpreview 3 6408 20180816061312 0
netEstate[\x20]NE[\x20]Crawler 2 56736 20180820001811 0
DotBot/ 2 52087 20180829062308 0
curl 1 0 20180826104011 0
Applebot/ 1 28369 20180819013329 0
MJ12bot/ 1 28368 20180805075002 0
Googlebot\-Image/ 1 2136 20180829095436 0
END_ROBOT

# Worm ID - Hits - Bandwidth - Last visit
# The 5 first Hits must be first (order not required for others)
BEGIN_WORMS 0
END_WORMS

# EMail - Hits - Bandwidth - Last visit
# The 20 first Hits must be first (order not required for others)
BEGIN_EMAILSENDER 0
END_EMAILSENDER

# EMail - Hits - Bandwidth - Last visit
# The 20 first hits must be first (order not required for others)
BEGIN_EMAILRECEIVER 0
END_EMAILRECEIVER

# Files type - Hits - Bandwidth - Bandwidth without compression - Bandwidth after compression
BEGIN_FILETYPES 6
png 12 102879 0 0
css 25 476848 0 0
html 96 2042515 0 0
js 39 1661364 0 0
xml 1 2475 0 0
Unknown 4 125028 0 0
END_FILETYPES

# Downloads - Hits - Bandwidth
BEGIN_DOWNLOADS 0
END_DOWNLOADS

# OS ID - Hits
BEGIN_OS ID - Hits - Pages 10
linuxubuntu 1 1
macosx12 16 16
win10 9 8
linuxandroid 2 2
linux 76 6
winlong 2 2
winxp 1 1
win7 25 24
macosx10 1 1
Unknown 44 40
END_OS

# Browser ID - Hits - Pages
BEGIN_BROWSER 30
chrome60.0.3112.101 2 2
firefox59.0 1 1
firefox56.0 1 1
Unknown 3 3
chrome66.0.3359.117 1 1
firefox54.0 2 2
chrome61.0.3163.100 13 13
chrome65.0.3325.181 1 1
safari10.1 1 1
chrome52.0.2743.116 2 1
firefox61.0 2 1
chrome55.0.2883.75 1 1
chrome56.0.2924.87 1 1
firefox60.0.1 1 1
chrome47.0.2526.106 1 1
cloudflare 25 21
chrome57.0.2987.133 2 2
chrome41.0.2228.0 2 2
chrome45.0.2454.94 2 2
firefox53.0 1 1
firefox49.0 1 1
firefox50.0 74 4
chrome40.0.2214.85 12 12
firefox33.0 1 1
chrome36.0.1985.125 1 1
msie9.0 2 2
firefox34.0 1 1
opera36.0.2130.32 1 1
chrome34.0.1847.116 2 2
mozilla 17 17
END_BROWSER

# Screen size - Hits
BEGIN_SCREENSIZE 0
END_SCREENSIZE

# Unknown referer OS - Last visit date
BEGIN_UNKNOWNREFERER 9
Mozilla/5.0_(compatible;_ips-agent) 20180812082225
python-requests/2.18.4 20180827034725
Mozilla/5.0_(compatible;_NetcraftSurveyAgent/1.0;__info@netcraft.com) 20180811214623
Mozilla/4.0_(compatible;_Netcraft_Web_Server_Survey) 20180804025644
Mozilla/5.0_(compatible;_CloudFlare-AlwaysOnline/1.0;__http://www.cloudflare.com/always-online) 20180829005226
panscient.com 20180809191031
Mozilla/5.0_(compatible;_Dataprovider.com;) 20180815211226
Mozilla/5.0_(compatible;_CloudFlare-AlwaysOnline/1.0;__http://www.cloudflare.com/always-online)_AppleWebKit/534.34 20180829005230
Mozilla/5.0_zgrab/0.x_(compatible;_Researchscan/t12sns;__http://researchscan.comsys.rwth-aachen.de) 20180822032119
END_UNKNOWNREFERER

# Unknown referer Browser - Last visit date
BEGIN_UNKNOWNREFERERBROWSER 2
panscient.com 20180809191031
python-requests/2.18.4 20180827034725
END_UNKNOWNREFERERBROWSER

# Origin - Pages - Hits 
BEGIN_ORIGIN 6
From0 93 163
From1 1 1
From2 1 1
From3 1 1
From4 5 11
From5 0 0
END_ORIGIN

# Search engine referers ID - Pages - Hits
BEGIN_SEREFERRALS 1
yandexru 1 1
END_SEREFERRALS

# External page referers - Pages - Hits
# The 25 first Pages must be first (order not required for others)
BEGIN_PAGEREFS 1
http://www.netcraft.com/survey/ 1 1
END_PAGEREFS

# Search keyphrases - Number of search
# The 10 first number of search must be first (order not required for others)
BEGIN_SEARCHWORDS 0
END_SEARCHWORDS

# Search keywords - Number of search
# The 25 first number of search must be first (order not required for others)
BEGIN_KEYWORDS 0
END_KEYWORDS

# Errors - Hits - Bandwidth
BEGIN_ERRORS 1
302 289 5572359
END_ERRORS

# URL with 404 errors - Hits - Last URL referrer
BEGIN_SIDER_404 0
END_SIDER_404

# Host - Pages - Hits - Bandwidth - Last visit date - [Start date of last visit] - [Last page of last visit]
# [Start date of last visit] and [Last page of last visit] are saved only if session is not finished
# The 25 first Hits must be first (order not required for others)
BEGIN_VISITOR 128
172.68.54.9 4 4 105010 20180812082225
162.158.255.81 3 3 28368 20180813001324
172.69.22.79 3 3 85106 20180813155600
172.68.54.81 3 3 85105 20180824130848
172.68.54.183 2 2 56737 20180811214623
172.69.62.111 2 2 56737 20180827163537
162.158.89.18 2 3 1847 20180808224924
172.68.244.5 2 2 66745 20180815025244
162.158.88.127 2 2 28368 20180824222122
162.158.126.99 2 2 56736 20180805071500
173.245.54.24 2 2 56737 20180827163537
162.158.90.185 2 2 0 20180824205039
162.158.126.75 2 2 56736 20180815211230
108.162.241.45 2 2 56736 20180818044250
162.158.89.30 2 4 27924 20180824054448
172.69.62.123 2 2 56737 20180813001325
162.158.92.243 1 1 28369 20180822032119
172.69.190.21 1 1 28368 20180815031835
172.68.54.45 1 1 28368 20180805134925
162.158.255.147 1 1 28368 20180831214142
162.158.106.95 1 1 0 20180820085654
108.162.215.183 1 1 28368 20180814001337
162.158.91.160 1 1 28369 20180807095246
108.162.219.237 1 1 28369 20180810003813
108.162.229.141 1 1 28368 20180812172539
162.158.92.147 0 2 4860 
162.158.90.155 0 2 3486 
162.158.89.90 0 1 3007 
162.158.93.110 0 2 465075 
162.158.91.34 0 1 19172 
162.158.92.15 0 1 35957 
162.158.92.87 0 1 92091 
162.158.93.44 0 1 95933 
162.158.91.112 0 2 63800 
141.101.69.26 1 1 28368 20180829194111
162.158.79.124 1 1 28369 20180829005227
162.158.142.93 1 1 28368 20180819082547
172.68.143.11 1 1 28368 20180805033945
108.162.229.69 1 1 28368 20180821060956
162.158.90.203 0 1 12409 
162.158.92.63 0 1 3481 
162.158.91.244 0 1 1743 
162.158.89.6 0 1 14977 
162.158.89.222 0 1 31900 
172.69.62.171 0 1 2136 
162.158.90.65 1 1 0 20180815233130
162.158.91.28 0 2 38344 
162.158.88.67 0 2 3094 
162.158.91.238 0 3 53936 
162.158.78.93 1 1 28368 20180805220714
162.158.59.9 1 1 28368 20180813233635
162.158.93.26 0 1 7322 
162.158.126.15 1 1 2475 20180815211226
141.101.88.177 1 1 28368 20180803230558
162.158.90.17 0 1 3316 
162.158.94.49 0 1 2430 
172.68.11.58 1 1 28369 20180815190726
162.158.126.45 1 1 28368 20180815173938
162.158.90.239 0 1 465075 
162.158.88.55 1 1 28369 20180827184822
162.158.92.249 0 1 7629 
162.158.94.25 0 1 1547 
162.158.91.226 0 1 29113 
162.158.88.235 0 2 47872 
162.158.38.177 1 1 28368 20180830073802
172.68.189.138 1 1 0 20180820085655
162.158.88.79 0 1 23936 
162.158.255.51 1 1 28368 20180809121555
162.158.90.11 1 1 0 20180829213311
173.245.52.156 1 1 0 20180804025644
162.158.90.179 1 1 28368 20180831090933
188.114.110.57 1 1 28368 20180827034725
162.158.106.143 1 1 28368 20180815121851
162.158.94.19 0 2 556 
162.158.78.141 0 1 2136 
162.158.90.197 0 2 58226 
162.158.93.182 0 2 14644 
162.158.88.169 1 1 28369 20180816145613
162.158.38.123 1 1 28368 20180808053502
162.158.93.92 1 1 28369 20180816151213
162.158.93.188 0 2 191866 
162.158.90.89 1 1 28368 20180802192140
172.68.143.131 1 1 28368 20180827144947
162.158.106.17 1 1 0 20180827163536
162.158.93.140 0 2 1712 
108.162.246.208 1 1 0 20180805220713
162.158.92.93 0 2 24818 
141.101.97.67 1 1 28368 20180831201107
162.158.255.63 1 1 28368 20180820211422
172.69.69.33 1 1 28368 20180827155213
162.158.94.13 1 1 0 20180831065333
162.158.90.53 0 2 6632 
162.158.79.34 1 1 28368 20180805220714
162.158.154.216 1 1 38377 20180817063047
162.158.106.119 1 1 0 20180820085654
162.158.90.119 0 1 26540 
172.68.47.65 1 1 28368 20180810002112
141.101.107.89 1 1 28368 20180817063046
172.68.11.46 0 1 2136 
141.101.88.171 1 1 28368 20180826014328
162.158.126.93 0 1 2136 
172.68.143.107 1 1 28369 20180827205253
172.68.141.159 0 1 2136 
162.158.91.184 0 1 13962 
108.162.216.183 1 1 28368 20180812131321
162.158.255.141 1 1 28368 20180825091854
162.158.93.206 0 1 278 
172.69.22.253 1 1 28368 20180818001927
172.68.141.183 1 1 28368 20180811132305
162.158.92.159 1 1 28369 20180803220234
162.158.92.153 0 2 3694 
108.162.219.183 1 1 28369 20180811205934
162.158.88.181 0 2 71914 
108.162.246.166 1 1 28368 20180813125657
162.158.90.107 0 3 35221 
172.68.143.5 1 1 0 20180820085654
162.158.92.177 0 2 10534 
162.158.107.36 0 1 2136 
141.101.88.219 1 1 28368 20180823202352
162.158.92.51 0 4 191144 
162.158.63.189 1 1 28368 20180809203905
162.158.107.12 1 1 0 20180805220713
108.162.246.244 1 1 0 20180829005226
172.69.22.43 1 1 0 20180821190848
172.69.62.63 1 1 28369 20180814093630
162.158.90.221 0 2 15258 
162.158.92.183 1 1 0 20180831231947
162.158.89.204 1 1 0 20180818064453
END_VISITOR

# Date - Pages - Hits - Bandwidth - Visits
BEGIN_DAY 29
20180802 2 2 56737 2
20180803 4 27 488443 4
20180804 2 2 28368 2
20180805 11 12 229081 10
20180806 1 1 28368 1
20180807 1 1 28369 1
20180808 2 2 28368 2
20180809 3 3 85104 3
20180810 3 3 85105 3
20180811 5 5 113475 5
20180812 5 5 133378 3
20180813 7 7 170209 6
20180814 2 3 58873 2
20180815 10 12 243701 9
20180816 2 25 953519 2
20180817 2 2 66745 2
20180818 3 3 56736 3
20180819 1 1 28368 1
20180820 6 6 56736 6
20180821 2 2 28368 2
20180822 1 1 28369 1
20180823 1 1 28368 1
20180824 4 4 28368 4
20180825 1 1 28368 1
20180826 1 1 28368 1
20180827 9 34 1128872 8
20180829 4 5 58873 4
20180830 1 1 28368 1
20180831 5 5 85104 5
END_DAY

# Session range - Number of visits
BEGIN_SESSION 1
0s-30s 95
END_SESSION

# URL - Pages - Bandwidth - Entry - Exit
# The 25 first Pages must be first (order not required for others)
BEGIN_SIDER 5
/ 96 2042515 93 91
/contact-us 2 76754 1 2
/facilities/room-service 1 21409 0 1
/sitemap.xml 1 2475 1 1
/privacy-policy 1 26865 0 0
END_SIDER
